EESchema Schematic File Version 4
EELAYER 30 0
EELAYER END
$Descr A4 11693 8268
encoding utf-8
Sheet 11 12
Title ""
Date ""
Rev ""
Comp ""
Comment1 ""
Comment2 ""
Comment3 ""
Comment4 ""
$EndDescr
$Comp
L AMR_1D_magnetometer-rescue:AD4005-Amplifier_Operational U?
U 1 1 5FFF3C00
P 6900 5550
AR Path="/5FFF3C00" Ref="U?"  Part="1" 
AR Path="/5FF29AD4/5FFEE41D/5FFF3C00" Ref="U?"  Part="1" 
AR Path="/604014AF/5FFF3C00" Ref="U8"  Part="1" 
F 0 "U8" H 6900 6015 50  0000 C CNN
F 1 "AD4005" H 6900 5924 50  0000 C CNN
F 2 "Package_SO:MSOP-10_3x3mm_P0.5mm" H 6900 6000 50  0001 C CNN
F 3 "" H 6900 6000 50  0001 C CNN
	1    6900 5550
	1    0    0    -1  
$EndComp
$Comp
L Device:C C?
U 1 1 60019958
P 6200 4800
AR Path="/5FF29AD4/5FFEE41D/60019958" Ref="C?"  Part="1" 
AR Path="/604014AF/60019958" Ref="C60"  Part="1" 
F 0 "C60" H 6315 4846 50  0000 L CNN
F 1 "10n" H 6315 4755 50  0000 L CNN
F 2 "Capacitor_SMD:C_0603_1608Metric_Pad1.08x0.95mm_HandSolder" H 6238 4650 50  0001 C CNN
F 3 "~" H 6200 4800 50  0001 C CNN
	1    6200 4800
	1    0    0    -1  
$EndComp
Wire Wire Line
	6500 4600 6200 4600
Wire Wire Line
	6200 4600 6200 4650
Wire Wire Line
	6500 4600 6500 5350
Wire Wire Line
	6500 5350 6550 5350
$Comp
L power:GNDA #PWR?
U 1 1 6001D3FC
P 6500 5900
AR Path="/5FF29AD4/5FFEE41D/6001D3FC" Ref="#PWR?"  Part="1" 
AR Path="/604014AF/6001D3FC" Ref="#PWR059"  Part="1" 
F 0 "#PWR059" H 6500 5650 50  0001 C CNN
F 1 "GNDA" H 6505 5727 50  0000 C CNN
F 2 "" H 6500 5900 50  0001 C CNN
F 3 "" H 6500 5900 50  0001 C CNN
	1    6500 5900
	1    0    0    -1  
$EndComp
Wire Wire Line
	6500 5900 6500 5750
Wire Wire Line
	6500 5750 6550 5750
Connection ~ 6200 4600
$Comp
L Device:C C?
U 1 1 60037553
P 4900 4800
AR Path="/5FF29AD4/5FFEE41D/60037553" Ref="C?"  Part="1" 
AR Path="/604014AF/60037553" Ref="C57"  Part="1" 
F 0 "C57" H 5015 4846 50  0000 L CNN
F 1 "10n" H 5015 4755 50  0000 L CNN
F 2 "Capacitor_SMD:C_0603_1608Metric_Pad1.08x0.95mm_HandSolder" H 4938 4650 50  0001 C CNN
F 3 "~" H 4900 4800 50  0001 C CNN
	1    4900 4800
	1    0    0    -1  
$EndComp
Wire Wire Line
	4900 4650 4900 4600
$Comp
L power:GNDA #PWR?
U 1 1 6003755D
P 4550 4950
AR Path="/5FF29AD4/5FFEE41D/6003755D" Ref="#PWR?"  Part="1" 
AR Path="/604014AF/6003755D" Ref="#PWR055"  Part="1" 
F 0 "#PWR055" H 4550 4700 50  0001 C CNN
F 1 "GNDA" H 4555 4777 50  0000 C CNN
F 2 "" H 4550 4950 50  0001 C CNN
F 3 "" H 4550 4950 50  0001 C CNN
	1    4550 4950
	1    0    0    -1  
$EndComp
Wire Wire Line
	5200 4600 5200 5450
Text HLabel 1800 6050 0    50   Input ~ 0
IN+
Text HLabel 1800 5150 0    50   Input ~ 0
IN-
$Comp
L AMR_1D_magnetometer-rescue:ADuM141D-Isolator U?
U 1 1 60139984
P 9500 5600
AR Path="/5FF26FEA/60139984" Ref="U?"  Part="1" 
AR Path="/5FF29AD4/5FFEE41D/6010CEC8/60139984" Ref="U?"  Part="1" 
AR Path="/5FF29AD4/5FFEE41D/60139984" Ref="U?"  Part="1" 
AR Path="/604014AF/60139984" Ref="U10"  Part="1" 
F 0 "U10" H 9500 6215 50  0000 C CNN
F 1 "ADuM141D" H 9500 6124 50  0000 C CNN
F 2 "Package_SO:QSOP-16_3.9x4.9mm_P0.635mm" H 9500 6200 50  0001 C CNN
F 3 "" H 9500 6200 50  0001 C CNN
	1    9500 5600
	-1   0    0    -1  
$EndComp
Text HLabel 10300 5650 2    50   Input ~ 0
MOSI_MCU
Text HLabel 10300 5750 2    50   Input ~ 0
MISO_MCU
Text HLabel 10300 5550 2    50   Input ~ 0
SCK_MCU
Text HLabel 10300 5450 2    50   Input ~ 0
CNV_MCU
Wire Wire Line
	10300 5750 10050 5750
Wire Wire Line
	10300 5650 10050 5650
Wire Wire Line
	10300 5550 10050 5550
Wire Wire Line
	10300 5450 10050 5450
Wire Wire Line
	10050 5350 10150 5350
Wire Wire Line
	10150 5350 10150 5850
Wire Wire Line
	10150 5950 10050 5950
Wire Wire Line
	8950 5350 8850 5350
Wire Wire Line
	8850 5350 8850 5850
Wire Wire Line
	8850 5950 8950 5950
$Comp
L power:GND #PWR?
U 1 1 601399A0
P 10150 6050
AR Path="/5FF26FEA/601399A0" Ref="#PWR?"  Part="1" 
AR Path="/5FF29AD4/5FFEE41D/6010CEC8/601399A0" Ref="#PWR?"  Part="1" 
AR Path="/5FF29AD4/5FFEE41D/601399A0" Ref="#PWR?"  Part="1" 
AR Path="/604014AF/601399A0" Ref="#PWR061"  Part="1" 
F 0 "#PWR061" H 10150 5800 50  0001 C CNN
F 1 "GND" H 10155 5877 50  0000 C CNN
F 2 "" H 10150 6050 50  0001 C CNN
F 3 "" H 10150 6050 50  0001 C CNN
	1    10150 6050
	-1   0    0    -1  
$EndComp
Wire Wire Line
	10150 6050 10150 5950
Connection ~ 10150 5950
$Comp
L power:GNDA #PWR?
U 1 1 601399A8
P 8850 6050
AR Path="/5FF26FEA/601399A8" Ref="#PWR?"  Part="1" 
AR Path="/5FF29AD4/5FFEE41D/6010CEC8/601399A8" Ref="#PWR?"  Part="1" 
AR Path="/5FF29AD4/5FFEE41D/601399A8" Ref="#PWR?"  Part="1" 
AR Path="/604014AF/601399A8" Ref="#PWR060"  Part="1" 
F 0 "#PWR060" H 8850 5800 50  0001 C CNN
F 1 "GNDA" H 8855 5877 50  0000 C CNN
F 2 "" H 8850 6050 50  0001 C CNN
F 3 "" H 8850 6050 50  0001 C CNN
	1    8850 6050
	-1   0    0    -1  
$EndComp
Wire Wire Line
	8850 6050 8850 5950
Connection ~ 8850 5950
Wire Wire Line
	10150 5850 10050 5850
Connection ~ 10150 5850
Wire Wire Line
	10150 5850 10150 5950
Wire Wire Line
	8950 5850 8850 5850
Connection ~ 8850 5850
Wire Wire Line
	8850 5850 8850 5950
$Comp
L Device:C C?
U 1 1 601399B9
P 10450 5150
AR Path="/5FF26FEA/601399B9" Ref="C?"  Part="1" 
AR Path="/5FF29AD4/5FFEE41D/6010CEC8/601399B9" Ref="C?"  Part="1" 
AR Path="/5FF29AD4/5FFEE41D/601399B9" Ref="C?"  Part="1" 
AR Path="/604014AF/601399B9" Ref="C64"  Part="1" 
F 0 "C64" H 10565 5196 50  0000 L CNN
F 1 "100n" H 10565 5105 50  0000 L CNN
F 2 "Capacitor_SMD:C_0603_1608Metric_Pad1.08x0.95mm_HandSolder" H 10488 5000 50  0001 C CNN
F 3 "~" H 10450 5150 50  0001 C CNN
	1    10450 5150
	-1   0    0    -1  
$EndComp
$Comp
L Device:C C?
U 1 1 601399BF
P 8550 5150
AR Path="/5FF26FEA/601399BF" Ref="C?"  Part="1" 
AR Path="/5FF29AD4/5FFEE41D/6010CEC8/601399BF" Ref="C?"  Part="1" 
AR Path="/5FF29AD4/5FFEE41D/601399BF" Ref="C?"  Part="1" 
AR Path="/604014AF/601399BF" Ref="C63"  Part="1" 
F 0 "C63" H 8665 5196 50  0000 L CNN
F 1 "100n" H 8665 5105 50  0000 L CNN
F 2 "Capacitor_SMD:C_0603_1608Metric_Pad1.08x0.95mm_HandSolder" H 8588 5000 50  0001 C CNN
F 3 "~" H 8550 5150 50  0001 C CNN
	1    8550 5150
	-1   0    0    -1  
$EndComp
Wire Wire Line
	10450 5300 10450 5350
Wire Wire Line
	10450 5350 10150 5350
Connection ~ 10150 5350
Wire Wire Line
	8850 5350 8550 5350
Wire Wire Line
	8550 5350 8550 5300
Connection ~ 8850 5350
Wire Wire Line
	10150 5250 10050 5250
Wire Wire Line
	8950 5250 8850 5250
Wire Wire Line
	8850 5250 8850 4950
Wire Wire Line
	8550 4950 8550 5000
Wire Wire Line
	10150 5250 10150 4950
Wire Wire Line
	10150 4950 10300 4950
Wire Wire Line
	10450 4950 10450 5000
$Comp
L power:+3.3V #PWR?
U 1 1 601399D3
P 10300 4900
AR Path="/5FF26FEA/601399D3" Ref="#PWR?"  Part="1" 
AR Path="/5FF29AD4/5FFEE41D/6010CEC8/601399D3" Ref="#PWR?"  Part="1" 
AR Path="/5FF29AD4/5FFEE41D/601399D3" Ref="#PWR?"  Part="1" 
AR Path="/604014AF/601399D3" Ref="#PWR054"  Part="1" 
F 0 "#PWR054" H 10300 4750 50  0001 C CNN
F 1 "+3.3V" H 10315 5073 50  0000 C CNN
F 2 "" H 10300 4900 50  0001 C CNN
F 3 "" H 10300 4900 50  0001 C CNN
	1    10300 4900
	-1   0    0    -1  
$EndComp
Wire Wire Line
	10300 4900 10300 4950
Connection ~ 10300 4950
Wire Wire Line
	10300 4950 10450 4950
Wire Wire Line
	7250 5550 8950 5550
Wire Wire Line
	8350 5650 8350 5750
Wire Wire Line
	8550 4950 8850 4950
Text HLabel 8700 3050 2    50   Input ~ 0
V_BRIDGE_MIDDLE
$Comp
L Device:R R?
U 1 1 602D17D7
P 5400 2200
AR Path="/5FF29AD4/5FFEE41D/602D17D7" Ref="R?"  Part="1" 
AR Path="/604014AF/602D17D7" Ref="R24"  Part="1" 
F 0 "R24" H 5470 2246 50  0000 L CNN
F 1 "10K" H 5470 2155 50  0000 L CNN
F 2 "Resistor_SMD:R_0603_1608Metric_Pad0.98x0.95mm_HandSolder" V 5330 2200 50  0001 C CNN
F 3 "~" H 5400 2200 50  0001 C CNN
	1    5400 2200
	-1   0    0    -1  
$EndComp
$Comp
L Device:R R?
U 1 1 602D1ADB
P 5400 2600
AR Path="/5FF29AD4/5FFEE41D/602D1ADB" Ref="R?"  Part="1" 
AR Path="/604014AF/602D1ADB" Ref="R28"  Part="1" 
F 0 "R28" H 5470 2646 50  0000 L CNN
F 1 "10K" H 5470 2555 50  0000 L CNN
F 2 "Resistor_SMD:R_0603_1608Metric_Pad0.98x0.95mm_HandSolder" V 5330 2600 50  0001 C CNN
F 3 "~" H 5400 2600 50  0001 C CNN
	1    5400 2600
	-1   0    0    -1  
$EndComp
$Comp
L power:GNDA #PWR?
U 1 1 602D805B
P 5400 2800
AR Path="/5FF29AD4/5FFEE41D/602D805B" Ref="#PWR?"  Part="1" 
AR Path="/604014AF/602D805B" Ref="#PWR050"  Part="1" 
F 0 "#PWR050" H 5400 2550 50  0001 C CNN
F 1 "GNDA" H 5405 2627 50  0000 C CNN
F 2 "" H 5400 2800 50  0001 C CNN
F 3 "" H 5400 2800 50  0001 C CNN
	1    5400 2800
	-1   0    0    -1  
$EndComp
Wire Wire Line
	8550 4750 8550 4950
Connection ~ 8550 4950
$Comp
L Device:R R?
U 1 1 602F27C3
P 4750 2000
AR Path="/5FF29AD4/6003ADD4/602F27C3" Ref="R?"  Part="1" 
AR Path="/5FF29AD4/5FFEE41D/602F27C3" Ref="R?"  Part="1" 
AR Path="/604014AF/602F27C3" Ref="R23"  Part="1" 
F 0 "R23" V 4543 2000 50  0000 C CNN
F 1 "22" V 4634 2000 50  0000 C CNN
F 2 "Resistor_SMD:R_0603_1608Metric_Pad0.98x0.95mm_HandSolder" V 4680 2000 50  0001 C CNN
F 3 "~" H 4750 2000 50  0001 C CNN
	1    4750 2000
	0    1    1    0   
$EndComp
$Comp
L Device:R R?
U 1 1 602F27C9
P 4750 2550
AR Path="/5FF29AD4/6003ADD4/602F27C9" Ref="R?"  Part="1" 
AR Path="/5FF29AD4/5FFEE41D/602F27C9" Ref="R?"  Part="1" 
AR Path="/604014AF/602F27C9" Ref="R27"  Part="1" 
F 0 "R27" V 4543 2550 50  0000 C CNN
F 1 "10k" V 4634 2550 50  0000 C CNN
F 2 "Resistor_SMD:R_0603_1608Metric_Pad0.98x0.95mm_HandSolder" V 4680 2550 50  0001 C CNN
F 3 "~" H 4750 2550 50  0001 C CNN
	1    4750 2550
	0    1    1    0   
$EndComp
$Comp
L Device:C C?
U 1 1 602F27CF
P 4350 2250
AR Path="/5FF29AD4/6003ADD4/602F27CF" Ref="C?"  Part="1" 
AR Path="/5FF29AD4/5FFEE41D/602F27CF" Ref="C?"  Part="1" 
AR Path="/604014AF/602F27CF" Ref="C49"  Part="1" 
F 0 "C49" H 4465 2296 50  0000 L CNN
F 1 "100n" H 4465 2205 50  0000 L CNN
F 2 "Capacitor_SMD:C_0603_1608Metric_Pad1.08x0.95mm_HandSolder" H 4388 2100 50  0001 C CNN
F 3 "~" H 4350 2250 50  0001 C CNN
	1    4350 2250
	1    0    0    -1  
$EndComp
Wire Wire Line
	4350 2100 4350 2000
Connection ~ 4350 2550
Wire Wire Line
	4350 2550 4600 2550
Wire Wire Line
	4350 2000 4600 2000
Wire Wire Line
	4900 2550 4950 2550
Wire Wire Line
	5200 4400 5200 4600
Text Label 5200 4400 2    50   ~ 0
1V8
Text Label 2700 2100 0    50   ~ 0
1V8
Wire Wire Line
	2700 2100 2500 2100
$Sheet
S 1750 1800 750  500 
U 602775D5
F0 "ADC PWR" 50
F1 "adc_pwr.sch" 50
F2 "1V8" I R 2500 2100 50 
F3 "5V" I R 2500 2200 50 
F4 "4.096V_REF" I R 2500 1900 50 
$EndSheet
$Comp
L power:GNDA #PWR?
U 1 1 602068F6
P 3000 6250
AR Path="/5FF29AD4/5FFEE41D/602068F6" Ref="#PWR?"  Part="1" 
AR Path="/604014AF/602068F6" Ref="#PWR062"  Part="1" 
F 0 "#PWR062" H 3000 6000 50  0001 C CNN
F 1 "GNDA" H 3005 6077 50  0000 C CNN
F 2 "" H 3000 6250 50  0001 C CNN
F 3 "" H 3000 6250 50  0001 C CNN
	1    3000 6250
	1    0    0    -1  
$EndComp
$Comp
L Device:R R?
U 1 1 602520AA
P 3100 5550
AR Path="/5FF29AD4/5FFEE41D/602520AA" Ref="R?"  Part="1" 
AR Path="/604014AF/602520AA" Ref="R32"  Part="1" 
F 0 "R32" V 2893 5550 50  0000 C CNN
F 1 "30k" V 2984 5550 50  0000 C CNN
F 2 "Resistor_SMD:R_0603_1608Metric_Pad0.98x0.95mm_HandSolder" V 3030 5550 50  0001 C CNN
F 3 "~" H 3100 5550 50  0001 C CNN
	1    3100 5550
	0    1    1    0   
$EndComp
Wire Wire Line
	2700 5550 2700 5250
Connection ~ 2700 5550
Wire Wire Line
	2700 5550 2950 5550
Wire Wire Line
	3250 5550 3350 5550
Wire Wire Line
	3350 5550 3350 5150
Wire Wire Line
	3350 5150 3300 5150
$Comp
L Device:R R?
U 1 1 6028080C
P 2550 6200
AR Path="/5FF29AD4/5FFEE41D/6028080C" Ref="R?"  Part="1" 
AR Path="/604014AF/6028080C" Ref="R34"  Part="1" 
F 0 "R34" V 2650 6200 50  0000 C CNN
F 1 "33R3" V 2750 6200 50  0000 C CNN
F 2 "Resistor_SMD:R_0603_1608Metric_Pad0.98x0.95mm_HandSolder" V 2480 6200 50  0001 C CNN
F 3 "~" H 2550 6200 50  0001 C CNN
	1    2550 6200
	-1   0    0    1   
$EndComp
$Comp
L Device:R R?
U 1 1 60280812
P 3100 6550
AR Path="/5FF29AD4/5FFEE41D/60280812" Ref="R?"  Part="1" 
AR Path="/604014AF/60280812" Ref="R35"  Part="1" 
F 0 "R35" V 3150 6700 50  0000 C CNN
F 1 "30k" V 3000 6700 50  0000 C CNN
F 2 "Resistor_SMD:R_0603_1608Metric_Pad0.98x0.95mm_HandSolder" V 3030 6550 50  0001 C CNN
F 3 "~" H 3100 6550 50  0001 C CNN
	1    3100 6550
	0    1    1    0   
$EndComp
Connection ~ 2700 6550
Wire Wire Line
	2700 6550 2950 6550
Wire Wire Line
	3250 6550 3350 6550
Wire Wire Line
	2700 6150 2700 6550
Wire Wire Line
	3350 6050 3300 6050
Wire Wire Line
	3350 6050 3350 6550
Wire Wire Line
	7950 2500 7900 2500
$Comp
L Device:R R?
U 1 1 602C25BA
P 7750 2500
AR Path="/5FF29AD4/6003ADD4/602C25BA" Ref="R?"  Part="1" 
AR Path="/5FF29AD4/5FFEE41D/602C25BA" Ref="R?"  Part="1" 
AR Path="/604014AF/602C25BA" Ref="R26"  Part="1" 
F 0 "R26" V 7543 2500 50  0000 C CNN
F 1 "47" V 7634 2500 50  0000 C CNN
F 2 "Resistor_SMD:R_0603_1608Metric_Pad0.98x0.95mm_HandSolder" V 7680 2500 50  0001 C CNN
F 3 "~" H 7750 2500 50  0001 C CNN
	1    7750 2500
	0    1    1    0   
$EndComp
$Comp
L Device:R R?
U 1 1 602C25C0
P 7750 3050
AR Path="/5FF29AD4/6003ADD4/602C25C0" Ref="R?"  Part="1" 
AR Path="/5FF29AD4/5FFEE41D/602C25C0" Ref="R?"  Part="1" 
AR Path="/604014AF/602C25C0" Ref="R29"  Part="1" 
F 0 "R29" V 7543 3050 50  0000 C CNN
F 1 "4K7" V 7634 3050 50  0000 C CNN
F 2 "Resistor_SMD:R_0603_1608Metric_Pad0.98x0.95mm_HandSolder" V 7680 3050 50  0001 C CNN
F 3 "~" H 7750 3050 50  0001 C CNN
	1    7750 3050
	0    1    1    0   
$EndComp
$Comp
L Device:C C?
U 1 1 602C25C6
P 7200 2750
AR Path="/5FF29AD4/6003ADD4/602C25C6" Ref="C?"  Part="1" 
AR Path="/5FF29AD4/5FFEE41D/602C25C6" Ref="C?"  Part="1" 
AR Path="/604014AF/602C25C6" Ref="C50"  Part="1" 
F 0 "C50" H 7315 2796 50  0000 L CNN
F 1 "100n" H 7315 2705 50  0000 L CNN
F 2 "Capacitor_SMD:C_0603_1608Metric_Pad1.08x0.95mm_HandSolder" H 7238 2600 50  0001 C CNN
F 3 "~" H 7200 2750 50  0001 C CNN
	1    7200 2750
	1    0    0    -1  
$EndComp
Wire Wire Line
	7200 2600 7200 2500
Wire Wire Line
	7900 3050 7950 3050
$Comp
L power:GNDA #PWR?
U 1 1 602C25DD
P 6600 2800
AR Path="/5FF29AD4/5FFEE41D/602C25DD" Ref="#PWR?"  Part="1" 
AR Path="/604014AF/602C25DD" Ref="#PWR051"  Part="1" 
F 0 "#PWR051" H 6600 2550 50  0001 C CNN
F 1 "GNDA" H 6605 2627 50  0000 C CNN
F 2 "" H 6600 2800 50  0001 C CNN
F 3 "" H 6600 2800 50  0001 C CNN
	1    6600 2800
	1    0    0    -1  
$EndComp
$Comp
L Device:C C?
U 1 1 6031FFD7
P 3950 1150
AR Path="/5FF29AD4/5FFEE41D/6031FFD7" Ref="C?"  Part="1" 
AR Path="/604014AF/6031FFD7" Ref="C43"  Part="1" 
F 0 "C43" H 4065 1196 50  0000 L CNN
F 1 "10u" H 4065 1105 50  0000 L CNN
F 2 "Capacitor_SMD:C_1210_3225Metric_Pad1.33x2.70mm_HandSolder" H 3988 1000 50  0001 C CNN
F 3 "~" H 3950 1150 50  0001 C CNN
	1    3950 1150
	1    0    0    -1  
$EndComp
$Comp
L Device:C C?
U 1 1 6031FFE3
P 4550 1150
AR Path="/5FF29AD4/5FFEE41D/6031FFE3" Ref="C?"  Part="1" 
AR Path="/604014AF/6031FFE3" Ref="C45"  Part="1" 
F 0 "C45" H 4665 1196 50  0000 L CNN
F 1 "10n" H 4665 1105 50  0000 L CNN
F 2 "Capacitor_SMD:C_0603_1608Metric_Pad1.08x0.95mm_HandSolder" H 4588 1000 50  0001 C CNN
F 3 "~" H 4550 1150 50  0001 C CNN
	1    4550 1150
	1    0    0    -1  
$EndComp
$Comp
L power:GNDA #PWR?
U 1 1 6031FFF9
P 4250 1300
AR Path="/5FF29AD4/5FFEE41D/6031FFF9" Ref="#PWR?"  Part="1" 
AR Path="/604014AF/6031FFF9" Ref="#PWR047"  Part="1" 
F 0 "#PWR047" H 4250 1050 50  0001 C CNN
F 1 "GNDA" H 4255 1127 50  0000 C CNN
F 2 "" H 4250 1300 50  0001 C CNN
F 3 "" H 4250 1300 50  0001 C CNN
	1    4250 1300
	1    0    0    -1  
$EndComp
Wire Wire Line
	3750 1000 3950 1000
Connection ~ 3950 1000
Connection ~ 5200 4600
Wire Wire Line
	5400 2800 5400 2750
Wire Wire Line
	5200 5450 6550 5450
$Comp
L Device:C C?
U 1 1 60464D4F
P 7400 4800
AR Path="/5FF29AD4/5FFEE41D/60464D4F" Ref="C?"  Part="1" 
AR Path="/604014AF/60464D4F" Ref="C62"  Part="1" 
F 0 "C62" H 7515 4846 50  0000 L CNN
F 1 "100n" H 7515 4755 50  0000 L CNN
F 2 "Capacitor_SMD:C_0603_1608Metric_Pad1.08x0.95mm_HandSolder" H 7438 4650 50  0001 C CNN
F 3 "~" H 7400 4800 50  0001 C CNN
	1    7400 4800
	1    0    0    -1  
$EndComp
Wire Wire Line
	7400 4650 7400 4600
$Comp
L power:GNDA #PWR?
U 1 1 60464D56
P 7200 5000
AR Path="/5FF29AD4/5FFEE41D/60464D56" Ref="#PWR?"  Part="1" 
AR Path="/604014AF/60464D56" Ref="#PWR057"  Part="1" 
F 0 "#PWR057" H 7200 4750 50  0001 C CNN
F 1 "GNDA" H 7205 4827 50  0000 C CNN
F 2 "" H 7200 5000 50  0001 C CNN
F 3 "" H 7200 5000 50  0001 C CNN
	1    7200 5000
	1    0    0    -1  
$EndComp
Wire Wire Line
	7200 5000 7200 4950
Text Label 5550 2000 0    50   ~ 0
4.096V
Wire Wire Line
	6500 4400 6500 4600
Connection ~ 6500 4600
Text Label 2700 2200 0    50   ~ 0
5V
Wire Wire Line
	2700 2200 2500 2200
Text Label 3650 1000 2    50   ~ 0
5V
Wire Wire Line
	3650 1000 3750 1000
Connection ~ 3750 1000
$Comp
L AMR_1D_magnetometer-rescue:OPA2210 U?
U 1 1 6016C6C2
P 2950 5600
AR Path="/5FF29AD4/5FFEE41D/6016C6C2" Ref="U?"  Part="1" 
AR Path="/604014AF/6016C6C2" Ref="U9"  Part="1" 
F 0 "U9" H 3150 6300 50  0000 C CNN
F 1 "OPA2210" H 3250 6200 50  0000 C CNN
F 2 "Package_SO:SOIC-8_3.9x4.9mm_P1.27mm" H 2950 6650 50  0001 C CNN
F 3 "" H 2950 6650 50  0001 C CNN
	1    2950 5600
	1    0    0    -1  
$EndComp
$Comp
L Device:R R?
U 1 1 605A0F38
P 3650 5150
AR Path="/5FF29AD4/5FFEE41D/605A0F38" Ref="R?"  Part="1" 
AR Path="/604014AF/605A0F38" Ref="R30"  Part="1" 
F 0 "R30" V 3443 5150 50  0000 C CNN
F 1 "1k3" V 3534 5150 50  0000 C CNN
F 2 "Resistor_SMD:R_0603_1608Metric_Pad0.98x0.95mm_HandSolder" V 3580 5150 50  0001 C CNN
F 3 "~" H 3650 5150 50  0001 C CNN
	1    3650 5150
	0    1    1    0   
$EndComp
$Comp
L Device:C C?
U 1 1 605A1F84
P 3850 5350
AR Path="/5FF29AD4/5FFEE41D/605A1F84" Ref="C?"  Part="1" 
AR Path="/604014AF/605A1F84" Ref="C65"  Part="1" 
F 0 "C65" H 3965 5396 50  0000 L CNN
F 1 "470p" H 3965 5305 50  0000 L CNN
F 2 "Capacitor_SMD:C_0603_1608Metric_Pad1.08x0.95mm_HandSolder" H 3888 5200 50  0001 C CNN
F 3 "~" H 3850 5350 50  0001 C CNN
	1    3850 5350
	1    0    0    -1  
$EndComp
Wire Wire Line
	3350 5150 3500 5150
Connection ~ 3350 5150
Wire Wire Line
	3800 5150 3850 5150
Wire Wire Line
	3850 5150 3850 5200
$Comp
L power:GNDA #PWR?
U 1 1 605B073B
P 3850 5550
AR Path="/5FF29AD4/5FFEE41D/605B073B" Ref="#PWR?"  Part="1" 
AR Path="/604014AF/605B073B" Ref="#PWR058"  Part="1" 
F 0 "#PWR058" H 3850 5300 50  0001 C CNN
F 1 "GNDA" H 3855 5377 50  0000 C CNN
F 2 "" H 3850 5550 50  0001 C CNN
F 3 "" H 3850 5550 50  0001 C CNN
	1    3850 5550
	1    0    0    -1  
$EndComp
Wire Wire Line
	3850 5550 3850 5500
$Comp
L Device:R R?
U 1 1 605B8A3F
P 3650 6050
AR Path="/5FF29AD4/5FFEE41D/605B8A3F" Ref="R?"  Part="1" 
AR Path="/604014AF/605B8A3F" Ref="R33"  Part="1" 
F 0 "R33" V 3443 6050 50  0000 C CNN
F 1 "1k3" V 3534 6050 50  0000 C CNN
F 2 "Resistor_SMD:R_0603_1608Metric_Pad0.98x0.95mm_HandSolder" V 3580 6050 50  0001 C CNN
F 3 "~" H 3650 6050 50  0001 C CNN
	1    3650 6050
	0    1    1    0   
$EndComp
$Comp
L Device:C C?
U 1 1 605B8A45
P 3850 6250
AR Path="/5FF29AD4/5FFEE41D/605B8A45" Ref="C?"  Part="1" 
AR Path="/604014AF/605B8A45" Ref="C66"  Part="1" 
F 0 "C66" H 3965 6296 50  0000 L CNN
F 1 "470p" H 3965 6205 50  0000 L CNN
F 2 "Capacitor_SMD:C_0603_1608Metric_Pad1.08x0.95mm_HandSolder" H 3888 6100 50  0001 C CNN
F 3 "~" H 3850 6250 50  0001 C CNN
	1    3850 6250
	1    0    0    -1  
$EndComp
Wire Wire Line
	3800 6050 3850 6050
Wire Wire Line
	3850 6050 3850 6100
$Comp
L power:GNDA #PWR?
U 1 1 605B8A4E
P 3850 6450
AR Path="/5FF29AD4/5FFEE41D/605B8A4E" Ref="#PWR?"  Part="1" 
AR Path="/604014AF/605B8A4E" Ref="#PWR063"  Part="1" 
F 0 "#PWR063" H 3850 6200 50  0001 C CNN
F 1 "GNDA" H 3855 6277 50  0000 C CNN
F 2 "" H 3850 6450 50  0001 C CNN
F 3 "" H 3850 6450 50  0001 C CNN
	1    3850 6450
	1    0    0    -1  
$EndComp
Wire Wire Line
	3850 6450 3850 6400
Wire Wire Line
	3350 6050 3500 6050
Connection ~ 3350 6050
Connection ~ 3850 5150
Connection ~ 3850 6050
Wire Wire Line
	3950 1300 4250 1300
Connection ~ 4250 1300
Wire Wire Line
	4550 1000 4250 1000
Wire Wire Line
	4250 1000 3950 1000
Connection ~ 4250 1000
$Comp
L Device:C C?
U 1 1 6031FFDD
P 4250 1150
AR Path="/5FF29AD4/5FFEE41D/6031FFDD" Ref="C?"  Part="1" 
AR Path="/604014AF/6031FFDD" Ref="C44"  Part="1" 
F 0 "C44" H 4365 1196 50  0000 L CNN
F 1 "100n" H 4365 1105 50  0000 L CNN
F 2 "Capacitor_SMD:C_0603_1608Metric_Pad1.08x0.95mm_HandSolder" H 4288 1000 50  0001 C CNN
F 3 "~" H 4250 1150 50  0001 C CNN
	1    4250 1150
	1    0    0    -1  
$EndComp
Wire Wire Line
	4250 1300 4550 1300
$Comp
L Device:C C?
U 1 1 6061086D
P 3150 4600
AR Path="/5FF29AD4/5FFEE41D/6061086D" Ref="C?"  Part="1" 
AR Path="/604014AF/6061086D" Ref="C52"  Part="1" 
F 0 "C52" H 3265 4646 50  0000 L CNN
F 1 "10u" H 3265 4555 50  0000 L CNN
F 2 "Capacitor_SMD:C_1210_3225Metric_Pad1.33x2.70mm_HandSolder" H 3188 4450 50  0001 C CNN
F 3 "~" H 3150 4600 50  0001 C CNN
	1    3150 4600
	1    0    0    -1  
$EndComp
$Comp
L Device:C C?
U 1 1 60610873
P 3750 4600
AR Path="/5FF29AD4/5FFEE41D/60610873" Ref="C?"  Part="1" 
AR Path="/604014AF/60610873" Ref="C54"  Part="1" 
F 0 "C54" H 3865 4646 50  0000 L CNN
F 1 "10n" H 3865 4555 50  0000 L CNN
F 2 "Capacitor_SMD:C_0603_1608Metric_Pad1.08x0.95mm_HandSolder" H 3788 4450 50  0001 C CNN
F 3 "~" H 3750 4600 50  0001 C CNN
	1    3750 4600
	1    0    0    -1  
$EndComp
$Comp
L power:GNDA #PWR?
U 1 1 60610879
P 3450 4750
AR Path="/5FF29AD4/5FFEE41D/60610879" Ref="#PWR?"  Part="1" 
AR Path="/604014AF/60610879" Ref="#PWR053"  Part="1" 
F 0 "#PWR053" H 3450 4500 50  0001 C CNN
F 1 "GNDA" H 3455 4577 50  0000 C CNN
F 2 "" H 3450 4750 50  0001 C CNN
F 3 "" H 3450 4750 50  0001 C CNN
	1    3450 4750
	1    0    0    -1  
$EndComp
Wire Wire Line
	3150 4750 3450 4750
Connection ~ 3450 4750
Wire Wire Line
	3750 4450 3450 4450
Wire Wire Line
	3450 4450 3150 4450
Connection ~ 3450 4450
$Comp
L Device:C C?
U 1 1 60610886
P 3450 4600
AR Path="/5FF29AD4/5FFEE41D/60610886" Ref="C?"  Part="1" 
AR Path="/604014AF/60610886" Ref="C53"  Part="1" 
F 0 "C53" H 3565 4646 50  0000 L CNN
F 1 "100n" H 3565 4555 50  0000 L CNN
F 2 "Capacitor_SMD:C_0603_1608Metric_Pad1.08x0.95mm_HandSolder" H 3488 4450 50  0001 C CNN
F 3 "~" H 3450 4600 50  0001 C CNN
	1    3450 4600
	1    0    0    -1  
$EndComp
Wire Wire Line
	3450 4750 3750 4750
Connection ~ 3150 4450
Wire Wire Line
	5400 4650 5400 4600
$Comp
L Device:C C?
U 1 1 6045689B
P 5400 4800
AR Path="/5FF29AD4/5FFEE41D/6045689B" Ref="C?"  Part="1" 
AR Path="/604014AF/6045689B" Ref="C58"  Part="1" 
F 0 "C58" H 5515 4846 50  0000 L CNN
F 1 "10u" H 5515 4755 50  0000 L CNN
F 2 "Capacitor_SMD:C_1210_3225Metric_Pad1.33x2.70mm_HandSolder" H 5438 4650 50  0001 C CNN
F 3 "~" H 5400 4800 50  0001 C CNN
	1    5400 4800
	1    0    0    -1  
$EndComp
Wire Wire Line
	5400 4600 5800 4600
Wire Wire Line
	5800 4600 6200 4600
Connection ~ 5800 4600
Wire Wire Line
	5800 4650 5800 4600
Wire Wire Line
	5800 5000 5800 4950
$Comp
L power:GNDA #PWR?
U 1 1 600211E3
P 5800 5000
AR Path="/5FF29AD4/5FFEE41D/600211E3" Ref="#PWR?"  Part="1" 
AR Path="/604014AF/600211E3" Ref="#PWR056"  Part="1" 
F 0 "#PWR056" H 5800 4750 50  0001 C CNN
F 1 "GNDA" H 5805 4827 50  0000 C CNN
F 2 "" H 5800 5000 50  0001 C CNN
F 3 "" H 5800 5000 50  0001 C CNN
	1    5800 5000
	1    0    0    -1  
$EndComp
$Comp
L Device:C C?
U 1 1 6002075D
P 5800 4800
AR Path="/5FF29AD4/5FFEE41D/6002075D" Ref="C?"  Part="1" 
AR Path="/604014AF/6002075D" Ref="C59"  Part="1" 
F 0 "C59" H 5915 4846 50  0000 L CNN
F 1 "100n" H 5915 4755 50  0000 L CNN
F 2 "Capacitor_SMD:C_0603_1608Metric_Pad1.08x0.95mm_HandSolder" H 5838 4650 50  0001 C CNN
F 3 "~" H 5800 4800 50  0001 C CNN
	1    5800 4800
	1    0    0    -1  
$EndComp
$Comp
L Device:C C?
U 1 1 606447D8
P 7000 4800
AR Path="/5FF29AD4/5FFEE41D/606447D8" Ref="C?"  Part="1" 
AR Path="/604014AF/606447D8" Ref="C61"  Part="1" 
F 0 "C61" H 7115 4846 50  0000 L CNN
F 1 "1u" H 7115 4755 50  0000 L CNN
F 2 "Capacitor_SMD:C_0805_2012Metric_Pad1.18x1.45mm_HandSolder" H 7038 4650 50  0001 C CNN
F 3 "~" H 7000 4800 50  0001 C CNN
	1    7000 4800
	1    0    0    -1  
$EndComp
Wire Wire Line
	7000 4600 7000 4650
Wire Wire Line
	7250 5350 7750 5350
Wire Wire Line
	5400 4950 5800 4950
Connection ~ 5800 4950
Wire Wire Line
	5800 4950 6200 4950
Wire Wire Line
	7000 4950 7200 4950
Connection ~ 7200 4950
Wire Wire Line
	7000 4600 7400 4600
Wire Wire Line
	7200 4950 7400 4950
Wire Wire Line
	7750 4400 7750 4600
Wire Wire Line
	7400 4600 7750 4600
Connection ~ 7400 4600
Connection ~ 7750 4600
Wire Wire Line
	7750 4600 7750 5350
$Comp
L Device:C C?
U 1 1 606D45B0
P 4550 4800
AR Path="/5FF29AD4/5FFEE41D/606D45B0" Ref="C?"  Part="1" 
AR Path="/604014AF/606D45B0" Ref="C56"  Part="1" 
F 0 "C56" H 4665 4846 50  0000 L CNN
F 1 "100n" H 4665 4755 50  0000 L CNN
F 2 "Capacitor_SMD:C_0603_1608Metric_Pad1.08x0.95mm_HandSolder" H 4588 4650 50  0001 C CNN
F 3 "~" H 4550 4800 50  0001 C CNN
	1    4550 4800
	1    0    0    -1  
$EndComp
Wire Wire Line
	4550 4650 4550 4600
$Comp
L Device:C C?
U 1 1 606D45BE
P 4150 4800
AR Path="/5FF29AD4/5FFEE41D/606D45BE" Ref="C?"  Part="1" 
AR Path="/604014AF/606D45BE" Ref="C55"  Part="1" 
F 0 "C55" H 4265 4846 50  0000 L CNN
F 1 "1u" H 4265 4755 50  0000 L CNN
F 2 "Capacitor_SMD:C_0805_2012Metric_Pad1.18x1.45mm_HandSolder" H 4188 4650 50  0001 C CNN
F 3 "~" H 4150 4800 50  0001 C CNN
	1    4150 4800
	1    0    0    -1  
$EndComp
Wire Wire Line
	4150 4600 4150 4650
Wire Wire Line
	4150 4600 4550 4600
Connection ~ 4550 4600
Wire Wire Line
	4150 4950 4550 4950
Connection ~ 4550 4950
Wire Wire Line
	4550 4950 4900 4950
Wire Wire Line
	4550 4600 4900 4600
Connection ~ 4900 4600
Wire Wire Line
	4900 4600 5200 4600
Text Label 7750 4400 2    50   ~ 0
1V8
Text Label 8550 4750 2    50   ~ 0
1V8
$Comp
L AMR_1D_magnetometer-rescue:ADA4805-Amplifier_Operational U?
U 1 1 601853DF
P 3850 2000
AR Path="/5FF29AD4/5FFEE41D/601853DF" Ref="U?"  Part="1" 
AR Path="/604014AF/601853DF" Ref="U6"  Part="1" 
F 0 "U6" H 3450 2200 50  0000 L CNN
F 1 "ADA4805" H 3300 2300 50  0000 L CNN
F 2 "Package_TO_SOT_SMD:SOT-23-6_Handsoldering" H 3900 2300 50  0001 C CNN
F 3 "" H 3900 2300 50  0001 C CNN
	1    3850 2000
	1    0    0    -1  
$EndComp
$Comp
L power:GNDA #PWR?
U 1 1 601AAE97
P 3750 2300
AR Path="/5FF29AD4/5FFEE41D/601AAE97" Ref="#PWR?"  Part="1" 
AR Path="/604014AF/601AAE97" Ref="#PWR049"  Part="1" 
F 0 "#PWR049" H 3750 2050 50  0001 C CNN
F 1 "GNDA" H 3755 2127 50  0000 C CNN
F 2 "" H 3750 2300 50  0001 C CNN
F 3 "" H 3750 2300 50  0001 C CNN
	1    3750 2300
	1    0    0    -1  
$EndComp
Wire Wire Line
	4150 2000 4350 2000
Connection ~ 4350 2000
Wire Wire Line
	3750 1000 3750 1650
Wire Wire Line
	3750 1650 4200 1650
Wire Wire Line
	4200 1650 4200 2300
Wire Wire Line
	4200 2300 3850 2300
Connection ~ 3750 1650
Wire Wire Line
	3750 1650 3750 1700
Wire Wire Line
	4900 2000 4950 2000
Wire Wire Line
	4350 2400 4350 2550
Wire Wire Line
	4950 2000 4950 2550
Wire Wire Line
	6600 2200 7050 2200
Wire Wire Line
	7050 2200 7050 2800
Wire Wire Line
	7050 2800 6700 2800
Wire Wire Line
	7000 2500 7200 2500
Wire Wire Line
	7200 2900 7200 3050
Wire Wire Line
	7950 2500 7950 3050
Text Label 6500 4400 2    50   ~ 0
4.096V
Text Label 2850 4450 2    50   ~ 0
5V
Wire Wire Line
	3550 2100 3550 2550
Wire Wire Line
	3550 2550 4350 2550
Wire Wire Line
	6400 3050 6400 2600
Wire Wire Line
	6400 3050 7200 3050
$Comp
L Device:C C?
U 1 1 60353FF0
P 7950 3250
AR Path="/5FF29AD4/5FFEE41D/60353FF0" Ref="C?"  Part="1" 
AR Path="/604014AF/60353FF0" Ref="C51"  Part="1" 
F 0 "C51" H 8065 3296 50  0000 L CNN
F 1 "1u" H 8065 3205 50  0000 L CNN
F 2 "Capacitor_SMD:C_0805_2012Metric_Pad1.18x1.45mm_HandSolder" H 7988 3100 50  0001 C CNN
F 3 "~" H 7950 3250 50  0001 C CNN
	1    7950 3250
	1    0    0    -1  
$EndComp
Connection ~ 7950 3050
$Comp
L power:GNDA #PWR?
U 1 1 6037A1EB
P 7950 3450
AR Path="/5FF29AD4/5FFEE41D/6037A1EB" Ref="#PWR?"  Part="1" 
AR Path="/604014AF/6037A1EB" Ref="#PWR052"  Part="1" 
F 0 "#PWR052" H 7950 3200 50  0001 C CNN
F 1 "GNDA" H 7955 3277 50  0000 C CNN
F 2 "" H 7950 3450 50  0001 C CNN
F 3 "" H 7950 3450 50  0001 C CNN
	1    7950 3450
	1    0    0    -1  
$EndComp
$Comp
L AMR_1D_magnetometer-rescue:ADA4805-Amplifier_Operational U?
U 1 1 603F8239
P 6700 2500
AR Path="/5FF29AD4/5FFEE41D/603F8239" Ref="U?"  Part="1" 
AR Path="/604014AF/603F8239" Ref="U7"  Part="1" 
F 0 "U7" H 6300 2700 50  0000 L CNN
F 1 "ADA4805" H 6150 2800 50  0000 L CNN
F 2 "Package_TO_SOT_SMD:SOT-23-6_Handsoldering" H 6750 2800 50  0001 C CNN
F 3 "" H 6750 2800 50  0001 C CNN
	1    6700 2500
	1    0    0    -1  
$EndComp
$Comp
L Device:C C?
U 1 1 604123DE
P 6800 1700
AR Path="/5FF29AD4/5FFEE41D/604123DE" Ref="C?"  Part="1" 
AR Path="/604014AF/604123DE" Ref="C46"  Part="1" 
F 0 "C46" H 6915 1746 50  0000 L CNN
F 1 "10u" H 6915 1655 50  0000 L CNN
F 2 "Capacitor_SMD:C_1210_3225Metric_Pad1.33x2.70mm_HandSolder" H 6838 1550 50  0001 C CNN
F 3 "~" H 6800 1700 50  0001 C CNN
	1    6800 1700
	1    0    0    -1  
$EndComp
$Comp
L Device:C C?
U 1 1 604123E4
P 7400 1700
AR Path="/5FF29AD4/5FFEE41D/604123E4" Ref="C?"  Part="1" 
AR Path="/604014AF/604123E4" Ref="C48"  Part="1" 
F 0 "C48" H 7515 1746 50  0000 L CNN
F 1 "10n" H 7515 1655 50  0000 L CNN
F 2 "Capacitor_SMD:C_0603_1608Metric_Pad1.08x0.95mm_HandSolder" H 7438 1550 50  0001 C CNN
F 3 "~" H 7400 1700 50  0001 C CNN
	1    7400 1700
	1    0    0    -1  
$EndComp
$Comp
L power:GNDA #PWR?
U 1 1 604123EA
P 7100 1850
AR Path="/5FF29AD4/5FFEE41D/604123EA" Ref="#PWR?"  Part="1" 
AR Path="/604014AF/604123EA" Ref="#PWR048"  Part="1" 
F 0 "#PWR048" H 7100 1600 50  0001 C CNN
F 1 "GNDA" H 7105 1677 50  0000 C CNN
F 2 "" H 7100 1850 50  0001 C CNN
F 3 "" H 7100 1850 50  0001 C CNN
	1    7100 1850
	1    0    0    -1  
$EndComp
Wire Wire Line
	6600 1550 6800 1550
Connection ~ 6800 1550
Text Label 6500 1550 2    50   ~ 0
5V
Wire Wire Line
	6500 1550 6600 1550
Connection ~ 6600 1550
Wire Wire Line
	6800 1850 7100 1850
Connection ~ 7100 1850
Wire Wire Line
	7400 1550 7100 1550
Wire Wire Line
	7100 1550 6800 1550
Connection ~ 7100 1550
$Comp
L Device:C C?
U 1 1 604123FA
P 7100 1700
AR Path="/5FF29AD4/5FFEE41D/604123FA" Ref="C?"  Part="1" 
AR Path="/604014AF/604123FA" Ref="C47"  Part="1" 
F 0 "C47" H 7215 1746 50  0000 L CNN
F 1 "100n" H 7215 1655 50  0000 L CNN
F 2 "Capacitor_SMD:C_0603_1608Metric_Pad1.08x0.95mm_HandSolder" H 7138 1550 50  0001 C CNN
F 3 "~" H 7100 1700 50  0001 C CNN
	1    7100 1700
	1    0    0    -1  
$EndComp
Wire Wire Line
	7100 1850 7400 1850
Wire Wire Line
	6600 1550 6600 2200
Connection ~ 6600 2200
Wire Wire Line
	4950 2000 5400 2000
Connection ~ 4950 2000
Wire Wire Line
	5400 2050 5400 2000
Connection ~ 5400 2000
Wire Wire Line
	5400 2000 5550 2000
Wire Wire Line
	7950 3450 7950 3400
Wire Wire Line
	7950 3100 7950 3050
Wire Wire Line
	5400 2350 5400 2400
$Comp
L Device:R R?
U 1 1 6058EFBC
P 3100 1900
AR Path="/5FF29AD4/6003ADD4/6058EFBC" Ref="R?"  Part="1" 
AR Path="/5FF29AD4/5FFEE41D/6058EFBC" Ref="R?"  Part="1" 
AR Path="/604014AF/6058EFBC" Ref="R22"  Part="1" 
F 0 "R22" V 2893 1900 50  0000 C CNN
F 1 "10k" V 2984 1900 50  0000 C CNN
F 2 "Resistor_SMD:R_0603_1608Metric_Pad0.98x0.95mm_HandSolder" V 3030 1900 50  0001 C CNN
F 3 "~" H 3100 1900 50  0001 C CNN
	1    3100 1900
	0    1    1    0   
$EndComp
Wire Wire Line
	2500 1900 2950 1900
Wire Wire Line
	3250 1900 3550 1900
Connection ~ 5400 2400
Wire Wire Line
	5400 2400 5400 2450
Wire Wire Line
	7250 5450 8450 5450
Wire Wire Line
	8450 5450 8450 5650
Wire Wire Line
	8450 5650 8950 5650
Wire Wire Line
	8250 5750 8250 5850
Wire Wire Line
	8550 5850 8550 5450
Wire Wire Line
	8550 5450 8950 5450
$Comp
L Device:R R76
U 1 1 6067B415
P 2100 5050
F 0 "R76" V 1893 5050 50  0000 C CNN
F 1 "100R" V 1984 5050 50  0000 C CNN
F 2 "Resistor_SMD:R_0603_1608Metric_Pad0.98x0.95mm_HandSolder" V 2030 5050 50  0001 C CNN
F 3 "~" H 2100 5050 50  0001 C CNN
	1    2100 5050
	0    1    1    0   
$EndComp
$Comp
L Device:R R77
U 1 1 6067BDD7
P 2100 5950
F 0 "R77" V 1893 5950 50  0000 C CNN
F 1 "100R" V 1984 5950 50  0000 C CNN
F 2 "Resistor_SMD:R_0603_1608Metric_Pad0.98x0.95mm_HandSolder" V 2030 5950 50  0001 C CNN
F 3 "~" H 2100 5950 50  0001 C CNN
	1    2100 5950
	0    1    1    0   
$EndComp
Text Label 1400 4750 2    50   ~ 0
5V
Wire Wire Line
	1400 4750 1500 4750
Text Label 1400 5650 2    50   ~ 0
5V
Wire Wire Line
	1400 5650 1500 5650
$Comp
L power:GNDA #PWR0152
U 1 1 60701F79
P 1500 6250
F 0 "#PWR0152" H 1500 6000 50  0001 C CNN
F 1 "GNDA" H 1505 6077 50  0000 C CNN
F 2 "" H 1500 6250 50  0001 C CNN
F 3 "" H 1500 6250 50  0001 C CNN
	1    1500 6250
	1    0    0    -1  
$EndComp
$Comp
L power:GNDA #PWR0156
U 1 1 60702A7C
P 1500 5350
F 0 "#PWR0156" H 1500 5100 50  0001 C CNN
F 1 "GNDA" H 1505 5177 50  0000 C CNN
F 2 "" H 1500 5350 50  0001 C CNN
F 3 "" H 1500 5350 50  0001 C CNN
	1    1500 5350
	1    0    0    -1  
$EndComp
$Comp
L Device:C C119
U 1 1 607032E3
P 3100 5750
F 0 "C119" V 3150 5600 50  0000 C CNN
F 1 "18p" V 3050 5600 50  0000 C CNN
F 2 "Capacitor_SMD:C_0603_1608Metric_Pad1.08x0.95mm_HandSolder" H 3138 5600 50  0001 C CNN
F 3 "~" H 3100 5750 50  0001 C CNN
	1    3100 5750
	0    -1   1    0   
$EndComp
Wire Wire Line
	2950 5750 2700 5750
Wire Wire Line
	2700 5750 2700 5550
Wire Wire Line
	3250 5750 3350 5750
Wire Wire Line
	3350 5750 3350 5550
Connection ~ 3350 5550
$Comp
L Device:C C137
U 1 1 6071A621
P 3100 6750
F 0 "C137" V 3150 6900 50  0000 C CNN
F 1 "18p" V 3050 6900 50  0000 C CNN
F 2 "Capacitor_SMD:C_0603_1608Metric_Pad1.08x0.95mm_HandSolder" H 3138 6600 50  0001 C CNN
F 3 "~" H 3100 6750 50  0001 C CNN
	1    3100 6750
	0    1    1    0   
$EndComp
Wire Wire Line
	2950 6750 2700 6750
Wire Wire Line
	3250 6750 3350 6750
Connection ~ 3350 6550
Connection ~ 7200 3050
Wire Wire Line
	7600 2500 7200 2500
Connection ~ 7200 2500
Wire Wire Line
	4550 6050 4550 5650
Wire Wire Line
	4550 5650 6550 5650
Wire Wire Line
	4550 5550 4550 5150
Wire Wire Line
	4550 5550 6550 5550
Wire Wire Line
	3850 5150 4250 5150
Wire Wire Line
	3850 6050 4250 6050
$Comp
L Device:C C117
U 1 1 607C657E
P 4250 5600
F 0 "C117" H 4365 5646 50  0000 L CNN
F 1 "470p" H 4365 5555 50  0000 L CNN
F 2 "Capacitor_SMD:C_0603_1608Metric_Pad1.08x0.95mm_HandSolder" H 4288 5450 50  0001 C CNN
F 3 "~" H 4250 5600 50  0001 C CNN
	1    4250 5600
	1    0    0    -1  
$EndComp
Wire Wire Line
	4250 5450 4250 5150
Wire Wire Line
	4250 5750 4250 6050
Connection ~ 4250 5150
Connection ~ 4250 6050
Wire Wire Line
	4250 5150 4550 5150
Wire Wire Line
	4250 6050 4550 6050
Wire Wire Line
	7950 3050 8400 3050
Wire Wire Line
	1700 5950 1850 5950
Wire Wire Line
	1700 5050 1850 5050
$Comp
L BAV199:BAV199 D7
U 1 1 60A8F81A
P 1500 5050
F 0 "D7" V 1454 4881 50  0000 R CNN
F 1 "BAV199" V 1545 4881 50  0000 R CNN
F 2 "Package_TO_SOT_SMD:SOT-23" H 1500 4750 50  0001 C CNN
F 3 "" H 1500 4750 50  0001 C CNN
	1    1500 5050
	0    1    1    0   
$EndComp
$Comp
L BAV199:BAV199 D22
U 1 1 60A92985
P 1500 5950
F 0 "D22" V 1454 5781 50  0000 R CNN
F 1 "BAV199" V 1545 5781 50  0000 R CNN
F 2 "Package_TO_SOT_SMD:SOT-23" H 1500 5650 50  0001 C CNN
F 3 "" H 1500 5650 50  0001 C CNN
	1    1500 5950
	0    1    1    0   
$EndComp
Wire Wire Line
	1800 5150 1850 5150
Wire Wire Line
	1850 5150 1850 5050
Connection ~ 1850 5050
Wire Wire Line
	1850 5050 1950 5050
Wire Wire Line
	1800 6050 1850 6050
Wire Wire Line
	1850 6050 1850 5950
Connection ~ 1850 5950
Wire Wire Line
	1850 5950 1950 5950
Wire Wire Line
	7200 3050 7600 3050
Wire Wire Line
	5400 2400 6400 2400
Text Label 8400 1950 2    50   ~ 0
5V
Wire Wire Line
	8400 1950 8500 1950
$Comp
L power:GNDA #PWR0158
U 1 1 6065C36D
P 8500 2550
F 0 "#PWR0158" H 8500 2300 50  0001 C CNN
F 1 "GNDA" H 8505 2377 50  0000 C CNN
F 2 "" H 8500 2550 50  0001 C CNN
F 3 "" H 8500 2550 50  0001 C CNN
	1    8500 2550
	1    0    0    -1  
$EndComp
$Comp
L BAV199:BAV199 D23
U 1 1 6065C373
P 8500 2250
F 0 "D23" V 8454 2081 50  0000 R CNN
F 1 "BAV199" V 8545 2081 50  0000 R CNN
F 2 "Package_TO_SOT_SMD:SOT-23" H 8500 1950 50  0001 C CNN
F 3 "" H 8500 1950 50  0001 C CNN
	1    8500 2250
	0    1    1    0   
$EndComp
Wire Wire Line
	8700 2250 8850 2250
Wire Wire Line
	8850 2250 8850 2900
Wire Wire Line
	8850 2900 8400 2900
Wire Wire Line
	8400 2900 8400 3050
Connection ~ 8400 3050
Wire Wire Line
	8400 3050 8700 3050
Wire Wire Line
	8350 5750 8950 5750
Wire Wire Line
	7250 5650 8350 5650
Wire Wire Line
	8250 5850 8550 5850
Wire Wire Line
	7250 5750 8250 5750
Wire Wire Line
	2700 6750 2700 6550
Wire Wire Line
	3350 6750 3350 6550
Wire Wire Line
	2850 4450 3000 4450
Wire Wire Line
	3000 4950 3000 4450
Connection ~ 3000 4450
Wire Wire Line
	3000 4450 3150 4450
Wire Wire Line
	2250 5050 2700 5050
Wire Wire Line
	2250 5950 2700 5950
Wire Wire Line
	2550 6350 2550 6550
Wire Wire Line
	2550 6550 2700 6550
Wire Wire Line
	2550 6050 2550 5550
Wire Wire Line
	2550 5550 2700 5550
$EndSCHEMATC
