EESchema Schematic File Version 4
EELAYER 30 0
EELAYER END
$Descr A4 11693 8268
encoding utf-8
Sheet 12 12
Title ""
Date ""
Rev ""
Comp ""
Comment1 ""
Comment2 ""
Comment3 ""
Comment4 ""
$EndDescr
Wire Wire Line
	4900 4100 4900 4050
$Comp
L Device:C C?
U 1 1 60281A53
P 6900 4000
AR Path="/5FE7E32F/60281A53" Ref="C?"  Part="1" 
AR Path="/5FDA6F72/60281A53" Ref="C?"  Part="1" 
AR Path="/5FF26FEA/60281A53" Ref="C?"  Part="1" 
AR Path="/5FF29AD4/5FFEE41D/6010CEC8/60281A53" Ref="C?"  Part="1" 
AR Path="/5FF29AD4/5FFEE41D/60281A53" Ref="C?"  Part="1" 
AR Path="/5FF29AD4/5FFEE41D/602775D5/60281A53" Ref="C?"  Part="1" 
AR Path="/604014AF/602775D5/60281A53" Ref="C77"  Part="1" 
F 0 "C77" H 7015 4046 50  0000 L CNN
F 1 "10u" H 7015 3955 50  0000 L CNN
F 2 "Capacitor_SMD:C_1210_3225Metric_Pad1.33x2.70mm_HandSolder" H 6938 3850 50  0001 C CNN
F 3 "~" H 6900 4000 50  0001 C CNN
	1    6900 4000
	1    0    0    -1  
$EndComp
$Comp
L Device:C C?
U 1 1 60281A5F
P 5250 3900
AR Path="/5FE7E32F/60281A5F" Ref="C?"  Part="1" 
AR Path="/5FDA6F72/60281A5F" Ref="C?"  Part="1" 
AR Path="/5FF26FEA/60281A5F" Ref="C?"  Part="1" 
AR Path="/5FF29AD4/5FFEE41D/6010CEC8/60281A5F" Ref="C?"  Part="1" 
AR Path="/5FF29AD4/5FFEE41D/60281A5F" Ref="C?"  Part="1" 
AR Path="/5FF29AD4/5FFEE41D/602775D5/60281A5F" Ref="C?"  Part="1" 
AR Path="/604014AF/602775D5/60281A5F" Ref="C76"  Part="1" 
F 0 "C76" H 5365 3946 50  0000 L CNN
F 1 "100n" H 5365 3855 50  0000 L CNN
F 2 "Capacitor_SMD:C_0603_1608Metric_Pad1.08x0.95mm_HandSolder" H 5288 3750 50  0001 C CNN
F 3 "~" H 5250 3900 50  0001 C CNN
	1    5250 3900
	1    0    0    -1  
$EndComp
Wire Wire Line
	5500 3750 5500 3850
Wire Wire Line
	5500 3850 5600 3850
Wire Wire Line
	5500 3750 5600 3750
Connection ~ 5500 3750
Wire Wire Line
	5600 4050 5250 4050
Wire Wire Line
	6600 3950 6700 3950
Wire Wire Line
	6700 3950 6700 3850
Wire Wire Line
	6700 3850 6600 3850
Wire Wire Line
	6700 3850 6900 3850
Connection ~ 6700 3850
$Comp
L power:GNDA #PWR?
U 1 1 60281A78
P 4900 4100
AR Path="/5FF26FEA/60281A78" Ref="#PWR?"  Part="1" 
AR Path="/5FF29AD4/5FFEE41D/6010CEC8/60281A78" Ref="#PWR?"  Part="1" 
AR Path="/5FF29AD4/5FFEE41D/60281A78" Ref="#PWR?"  Part="1" 
AR Path="/5FF29AD4/5FFEE41D/602775D5/60281A78" Ref="#PWR?"  Part="1" 
AR Path="/604014AF/602775D5/60281A78" Ref="#PWR070"  Part="1" 
F 0 "#PWR070" H 4900 3850 50  0001 C CNN
F 1 "GNDA" H 4905 3927 50  0000 C CNN
F 2 "" H 4900 4100 50  0001 C CNN
F 3 "" H 4900 4100 50  0001 C CNN
	1    4900 4100
	1    0    0    -1  
$EndComp
$Comp
L power:GNDA #PWR?
U 1 1 60281A7E
P 6900 4150
AR Path="/5FF26FEA/60281A7E" Ref="#PWR?"  Part="1" 
AR Path="/5FF29AD4/5FFEE41D/6010CEC8/60281A7E" Ref="#PWR?"  Part="1" 
AR Path="/5FF29AD4/5FFEE41D/60281A7E" Ref="#PWR?"  Part="1" 
AR Path="/5FF29AD4/5FFEE41D/602775D5/60281A7E" Ref="#PWR?"  Part="1" 
AR Path="/604014AF/602775D5/60281A7E" Ref="#PWR071"  Part="1" 
F 0 "#PWR071" H 6900 3900 50  0001 C CNN
F 1 "GNDA" H 6905 3977 50  0000 C CNN
F 2 "" H 6900 4150 50  0001 C CNN
F 3 "" H 6900 4150 50  0001 C CNN
	1    6900 4150
	1    0    0    -1  
$EndComp
$Comp
L power:GNDA #PWR?
U 1 1 60281AAC
P 4900 5350
AR Path="/5FF26FEA/60281AAC" Ref="#PWR?"  Part="1" 
AR Path="/5FF29AD4/5FFEE41D/6010CEC8/60281AAC" Ref="#PWR?"  Part="1" 
AR Path="/5FF29AD4/5FFEE41D/60281AAC" Ref="#PWR?"  Part="1" 
AR Path="/5FF29AD4/5FFEE41D/602775D5/60281AAC" Ref="#PWR?"  Part="1" 
AR Path="/604014AF/602775D5/60281AAC" Ref="#PWR073"  Part="1" 
F 0 "#PWR073" H 4900 5100 50  0001 C CNN
F 1 "GNDA" H 4905 5177 50  0000 C CNN
F 2 "" H 4900 5350 50  0001 C CNN
F 3 "" H 4900 5350 50  0001 C CNN
	1    4900 5350
	1    0    0    -1  
$EndComp
Wire Wire Line
	4900 5350 4900 5250
Wire Wire Line
	6900 3850 7300 3850
Connection ~ 6900 3850
$Comp
L Device:C C?
U 1 1 60286463
P 7300 4000
AR Path="/5FF29AD4/5FFEE41D/602775D5/60286463" Ref="C?"  Part="1" 
AR Path="/604014AF/602775D5/60286463" Ref="C78"  Part="1" 
F 0 "C78" H 7415 4046 50  0000 L CNN
F 1 "100n" H 7415 3955 50  0000 L CNN
F 2 "Capacitor_SMD:C_0603_1608Metric_Pad1.08x0.95mm_HandSolder" H 7338 3850 50  0001 C CNN
F 3 "~" H 7300 4000 50  0001 C CNN
	1    7300 4000
	1    0    0    -1  
$EndComp
Connection ~ 7300 3850
$Comp
L power:GNDA #PWR?
U 1 1 602872CE
P 7300 4150
AR Path="/5FF29AD4/5FFEE41D/602775D5/602872CE" Ref="#PWR?"  Part="1" 
AR Path="/604014AF/602775D5/602872CE" Ref="#PWR072"  Part="1" 
F 0 "#PWR072" H 7300 3900 50  0001 C CNN
F 1 "GNDA" H 7305 3977 50  0000 C CNN
F 2 "" H 7300 4150 50  0001 C CNN
F 3 "" H 7300 4150 50  0001 C CNN
	1    7300 4150
	1    0    0    -1  
$EndComp
Wire Wire Line
	7300 3850 7700 3850
$Comp
L power:GNDA #PWR?
U 1 1 602A33B2
P 6750 2300
AR Path="/5FF29AD4/5FFEE41D/602775D5/602A33B2" Ref="#PWR?"  Part="1" 
AR Path="/604014AF/602775D5/602A33B2" Ref="#PWR065"  Part="1" 
F 0 "#PWR065" H 6750 2050 50  0001 C CNN
F 1 "GNDA" H 6755 2127 50  0000 C CNN
F 2 "" H 6750 2300 50  0001 C CNN
F 3 "" H 6750 2300 50  0001 C CNN
	1    6750 2300
	1    0    0    -1  
$EndComp
Text HLabel 7700 3850 2    50   Input ~ 0
4.096V_REF
$Comp
L Device:R R?
U 1 1 605635CC
P 4550 3750
AR Path="/5FF29AD4/5FFEE41D/602775D5/605635CC" Ref="R?"  Part="1" 
AR Path="/604014AF/602775D5/605635CC" Ref="R37"  Part="1" 
F 0 "R37" V 4343 3750 50  0000 C CNN
F 1 "10" V 4434 3750 50  0000 C CNN
F 2 "Resistor_SMD:R_0603_1608Metric_Pad0.98x0.95mm_HandSolder" V 4480 3750 50  0001 C CNN
F 3 "~" H 4550 3750 50  0001 C CNN
	1    4550 3750
	0    1    1    0   
$EndComp
Wire Wire Line
	4150 3750 4400 3750
$Comp
L Device:C C?
U 1 1 60281A96
P 4900 5100
AR Path="/5FF26FEA/60281A96" Ref="C?"  Part="1" 
AR Path="/5FF29AD4/5FFEE41D/6010CEC8/60281A96" Ref="C?"  Part="1" 
AR Path="/5FF29AD4/5FFEE41D/60281A96" Ref="C?"  Part="1" 
AR Path="/5FF29AD4/5FFEE41D/602775D5/60281A96" Ref="C?"  Part="1" 
AR Path="/604014AF/602775D5/60281A96" Ref="C79"  Part="1" 
F 0 "C79" H 5015 5146 50  0000 L CNN
F 1 "10u" H 5015 5055 50  0000 L CNN
F 2 "Capacitor_SMD:C_1210_3225Metric_Pad1.33x2.70mm_HandSolder" H 4938 4950 50  0001 C CNN
F 3 "~" H 4900 5100 50  0001 C CNN
	1    4900 5100
	1    0    0    -1  
$EndComp
Connection ~ 5250 3750
Wire Wire Line
	5250 3750 5500 3750
Connection ~ 5250 4050
$Comp
L Device:C C?
U 1 1 60571182
P 4900 3900
AR Path="/5FDA6F72/60571182" Ref="C?"  Part="1" 
AR Path="/5FF26FEA/60571182" Ref="C?"  Part="1" 
AR Path="/5FF29AD4/5FFEE41D/6010CEC8/60571182" Ref="C?"  Part="1" 
AR Path="/5FF29AD4/5FFEE41D/60571182" Ref="C?"  Part="1" 
AR Path="/5FF29AD4/5FFEE41D/602775D5/60571182" Ref="C?"  Part="1" 
AR Path="/604014AF/602775D5/60571182" Ref="C75"  Part="1" 
F 0 "C75" H 5015 3946 50  0000 L CNN
F 1 "10u" H 5015 3855 50  0000 L CNN
F 2 "Capacitor_SMD:C_1210_3225Metric_Pad1.33x2.70mm_HandSolder" H 4938 3750 50  0001 C CNN
F 3 "~" H 4900 3900 50  0001 C CNN
	1    4900 3900
	1    0    0    -1  
$EndComp
Wire Wire Line
	4900 3750 5250 3750
Wire Wire Line
	4900 4050 5250 4050
Connection ~ 4900 4050
Wire Wire Line
	4700 3750 4900 3750
Connection ~ 4900 3750
$Comp
L power:+5V #PWR?
U 1 1 60281A41
P 2000 2050
AR Path="/5FF26FEA/60281A41" Ref="#PWR?"  Part="1" 
AR Path="/5FF29AD4/5FFEE41D/6010CEC8/60281A41" Ref="#PWR?"  Part="1" 
AR Path="/5FF29AD4/5FFEE41D/60281A41" Ref="#PWR?"  Part="1" 
AR Path="/5FF29AD4/5FFEE41D/602775D5/60281A41" Ref="#PWR?"  Part="1" 
AR Path="/604014AF/602775D5/60281A41" Ref="#PWR064"  Part="1" 
F 0 "#PWR064" H 2000 1900 50  0001 C CNN
F 1 "+5V" H 2015 2223 50  0000 C CNN
F 2 "" H 2000 2050 50  0001 C CNN
F 3 "" H 2000 2050 50  0001 C CNN
	1    2000 2050
	1    0    0    -1  
$EndComp
Wire Wire Line
	6450 2200 6450 2300
Wire Wire Line
	6450 2000 6450 1900
Wire Wire Line
	6050 1900 6050 2000
Wire Wire Line
	6050 2300 6050 2200
Wire Wire Line
	6450 2300 6750 2300
$Comp
L Device:C C?
U 1 1 608007AE
P 2000 2250
AR Path="/5FF29AD4/5FFEE41D/602775D5/608007AE" Ref="C?"  Part="1" 
AR Path="/604014AF/602775D5/608007AE" Ref="C72"  Part="1" 
F 0 "C72" H 2115 2296 50  0000 L CNN
F 1 "10u" H 2115 2205 50  0000 L CNN
F 2 "Capacitor_SMD:C_1210_3225Metric_Pad1.33x2.70mm_HandSolder" H 2038 2100 50  0001 C CNN
F 3 "~" H 2000 2250 50  0001 C CNN
	1    2000 2250
	-1   0    0    -1  
$EndComp
Wire Wire Line
	2000 2100 2000 2050
Wire Wire Line
	2000 2450 2000 2400
Wire Wire Line
	2250 2350 2250 2450
Wire Wire Line
	2250 2150 2250 2050
Wire Wire Line
	2650 2050 2650 2150
Wire Wire Line
	2650 2450 2650 2350
$Comp
L power:GND #PWR?
U 1 1 6080FCC7
P 2000 2450
AR Path="/5FF29AD4/5FFEE41D/602775D5/6080FCC7" Ref="#PWR?"  Part="1" 
AR Path="/604014AF/602775D5/6080FCC7" Ref="#PWR069"  Part="1" 
F 0 "#PWR069" H 2000 2200 50  0001 C CNN
F 1 "GND" H 2005 2277 50  0000 C CNN
F 2 "" H 2000 2450 50  0001 C CNN
F 3 "" H 2000 2450 50  0001 C CNN
	1    2000 2450
	1    0    0    -1  
$EndComp
Wire Wire Line
	3550 2050 3550 2200
Wire Wire Line
	3550 2450 3550 2300
Connection ~ 2000 2050
Connection ~ 2000 2450
Wire Wire Line
	2000 2450 2250 2450
Wire Wire Line
	2000 2050 2250 2050
$Comp
L Device:C C?
U 1 1 60884D4D
P 3300 2250
AR Path="/5FF29AD4/5FFEE41D/602775D5/60884D4D" Ref="C?"  Part="1" 
AR Path="/604014AF/602775D5/60884D4D" Ref="C74"  Part="1" 
F 0 "C74" H 3415 2296 50  0000 L CNN
F 1 "100n" H 3415 2205 50  0000 L CNN
F 2 "Capacitor_SMD:C_0603_1608Metric_Pad1.08x0.95mm_HandSolder" H 3338 2100 50  0001 C CNN
F 3 "~" H 3300 2250 50  0001 C CNN
	1    3300 2250
	-1   0    0    -1  
$EndComp
Wire Wire Line
	3300 2100 3300 2050
Wire Wire Line
	3300 2450 3300 2400
$Comp
L Device:C C?
U 1 1 60884D55
P 2950 2250
AR Path="/5FF29AD4/5FFEE41D/602775D5/60884D55" Ref="C?"  Part="1" 
AR Path="/604014AF/602775D5/60884D55" Ref="C73"  Part="1" 
F 0 "C73" H 3065 2296 50  0000 L CNN
F 1 "10u" H 3065 2205 50  0000 L CNN
F 2 "Capacitor_SMD:C_1210_3225Metric_Pad1.33x2.70mm_HandSolder" H 2988 2100 50  0001 C CNN
F 3 "~" H 2950 2250 50  0001 C CNN
	1    2950 2250
	-1   0    0    -1  
$EndComp
Wire Wire Line
	2950 2100 2950 2050
Wire Wire Line
	2950 2450 2950 2400
Wire Wire Line
	2650 2450 2950 2450
Wire Wire Line
	2650 2050 2950 2050
Wire Wire Line
	5800 1950 5800 1900
Wire Wire Line
	5800 2300 5800 2250
Wire Wire Line
	5450 1950 5450 1900
Wire Wire Line
	5450 2300 5450 2250
Wire Wire Line
	6750 1950 6750 1900
Wire Wire Line
	6750 2300 6750 2250
Connection ~ 2950 2050
Wire Wire Line
	2950 2050 3300 2050
Connection ~ 2950 2450
Wire Wire Line
	2950 2450 3300 2450
Connection ~ 3300 2050
Connection ~ 3300 2450
Wire Wire Line
	3300 2450 3550 2450
Wire Wire Line
	5450 1900 5800 1900
Wire Wire Line
	5450 2300 5800 2300
Connection ~ 5800 1900
Wire Wire Line
	5800 1900 6050 1900
Connection ~ 5800 2300
Wire Wire Line
	5800 2300 6050 2300
Connection ~ 6750 2300
Wire Wire Line
	6450 1900 6750 1900
Connection ~ 6750 1900
$Comp
L AMR_1D_magnetometer-rescue:LTC6655-4.096 U?
U 1 1 60368CAA
P 6100 3900
AR Path="/5FF29AD4/5FFEE41D/602775D5/60368CAA" Ref="U?"  Part="1" 
AR Path="/604014AF/602775D5/60368CAA" Ref="U13"  Part="1" 
F 0 "U13" H 6070 4315 50  0000 C CNN
F 1 "LTC6655-4.096" H 6070 4224 50  0000 C CNN
F 2 "Package_SO:MSOP-8_3x3mm_P0.65mm" H 6100 4300 50  0001 C CNN
F 3 "" H 6100 4300 50  0001 C CNN
	1    6100 3900
	1    0    0    -1  
$EndComp
Text Label 4150 3750 2    50   ~ 0
5V
Text Label 4150 4950 2    50   ~ 0
5V
$Comp
L AMR_1D_magnetometer-rescue:R05CT05S-R U?
U 1 1 6022B180
P 4200 2150
AR Path="/5FF29AD4/5FFEE41D/602775D5/6022B180" Ref="U?"  Part="1" 
AR Path="/604014AF/602775D5/6022B180" Ref="U12"  Part="1" 
F 0 "U12" H 4112 2665 50  0000 C CNN
F 1 "R05CT05S-R" H 4112 2574 50  0000 C CNN
F 2 "Package_SO:SOIC-16W_7.5x10.3mm_P1.27mm" H 4200 2650 50  0001 C CNN
F 3 "" H 4200 2650 50  0001 C CNN
	1    4200 2150
	1    0    0    -1  
$EndComp
$Comp
L Device:R R?
U 1 1 6022C047
P 4900 2000
AR Path="/5FF29AD4/5FFEE41D/602775D5/6022C047" Ref="R?"  Part="1" 
AR Path="/604014AF/602775D5/6022C047" Ref="R36"  Part="1" 
F 0 "R36" V 4693 2000 50  0000 C CNN
F 1 "100k" V 4784 2000 50  0000 C CNN
F 2 "Resistor_SMD:R_0603_1608Metric_Pad0.98x0.95mm_HandSolder" V 4830 2000 50  0001 C CNN
F 3 "~" H 4900 2000 50  0001 C CNN
	1    4900 2000
	0    1    1    0   
$EndComp
Wire Wire Line
	4650 2000 4750 2000
Wire Wire Line
	5050 2000 5150 2000
Wire Wire Line
	5150 2000 5150 1900
Wire Wire Line
	5150 1900 4650 1900
Wire Wire Line
	3750 2400 3650 2400
Wire Wire Line
	3650 2400 3650 2200
Wire Wire Line
	3650 2200 3750 2200
Wire Wire Line
	3750 2100 3700 2100
Wire Wire Line
	3700 2100 3700 2300
Wire Wire Line
	3700 2300 3750 2300
NoConn ~ 3750 2000
Wire Wire Line
	3550 2300 3700 2300
Connection ~ 3700 2300
Wire Wire Line
	3550 2200 3650 2200
Connection ~ 3650 2200
Wire Wire Line
	4650 2100 4700 2100
Wire Wire Line
	4700 2100 4700 2200
Wire Wire Line
	4700 2300 5450 2300
Connection ~ 5450 2300
Wire Wire Line
	5150 1900 5450 1900
Connection ~ 5150 1900
Connection ~ 5450 1900
Wire Wire Line
	3300 2050 3550 2050
$Comp
L Device:C C?
U 1 1 6089D5BA
P 5800 2100
AR Path="/5FF29AD4/5FFEE41D/602775D5/6089D5BA" Ref="C?"  Part="1" 
AR Path="/604014AF/602775D5/6089D5BA" Ref="C69"  Part="1" 
F 0 "C69" H 5915 2146 50  0000 L CNN
F 1 "10u" H 5915 2055 50  0000 L CNN
F 2 "Capacitor_SMD:C_1210_3225Metric_Pad1.33x2.70mm_HandSolder" H 5838 1950 50  0001 C CNN
F 3 "~" H 5800 2100 50  0001 C CNN
	1    5800 2100
	-1   0    0    -1  
$EndComp
$Comp
L Device:C C?
U 1 1 6089D5C2
P 5450 2100
AR Path="/5FF29AD4/5FFEE41D/602775D5/6089D5C2" Ref="C?"  Part="1" 
AR Path="/604014AF/602775D5/6089D5C2" Ref="C68"  Part="1" 
F 0 "C68" H 5565 2146 50  0000 L CNN
F 1 "100n" H 5565 2055 50  0000 L CNN
F 2 "Capacitor_SMD:C_0603_1608Metric_Pad1.08x0.95mm_HandSolder" H 5488 1950 50  0001 C CNN
F 3 "~" H 5450 2100 50  0001 C CNN
	1    5450 2100
	-1   0    0    -1  
$EndComp
$Comp
L Device:C C?
U 1 1 6089FDC0
P 6750 2100
AR Path="/5FF29AD4/5FFEE41D/602775D5/6089FDC0" Ref="C?"  Part="1" 
AR Path="/604014AF/602775D5/6089FDC0" Ref="C70"  Part="1" 
F 0 "C70" H 6865 2146 50  0000 L CNN
F 1 "10u" H 6865 2055 50  0000 L CNN
F 2 "Capacitor_SMD:C_1210_3225Metric_Pad1.33x2.70mm_HandSolder" H 6788 1950 50  0001 C CNN
F 3 "~" H 6750 2100 50  0001 C CNN
	1    6750 2100
	-1   0    0    -1  
$EndComp
Connection ~ 4900 4950
Wire Wire Line
	6650 4950 7200 4950
Text HLabel 7700 4950 2    50   Input ~ 0
1V8
Connection ~ 6650 4950
Wire Wire Line
	6650 5350 6650 5250
$Comp
L power:GNDA #PWR?
U 1 1 60281ABE
P 6650 5350
AR Path="/5FF26FEA/60281ABE" Ref="#PWR?"  Part="1" 
AR Path="/5FF29AD4/5FFEE41D/6010CEC8/60281ABE" Ref="#PWR?"  Part="1" 
AR Path="/5FF29AD4/5FFEE41D/60281ABE" Ref="#PWR?"  Part="1" 
AR Path="/5FF29AD4/5FFEE41D/602775D5/60281ABE" Ref="#PWR?"  Part="1" 
AR Path="/604014AF/602775D5/60281ABE" Ref="#PWR076"  Part="1" 
F 0 "#PWR076" H 6650 5100 50  0001 C CNN
F 1 "GNDA" H 6655 5177 50  0000 C CNN
F 2 "" H 6650 5350 50  0001 C CNN
F 3 "" H 6650 5350 50  0001 C CNN
	1    6650 5350
	1    0    0    -1  
$EndComp
$Comp
L power:GNDA #PWR?
U 1 1 60281AB8
P 6300 5350
AR Path="/5FF26FEA/60281AB8" Ref="#PWR?"  Part="1" 
AR Path="/5FF29AD4/5FFEE41D/6010CEC8/60281AB8" Ref="#PWR?"  Part="1" 
AR Path="/5FF29AD4/5FFEE41D/60281AB8" Ref="#PWR?"  Part="1" 
AR Path="/5FF29AD4/5FFEE41D/602775D5/60281AB8" Ref="#PWR?"  Part="1" 
AR Path="/604014AF/602775D5/60281AB8" Ref="#PWR075"  Part="1" 
F 0 "#PWR075" H 6300 5100 50  0001 C CNN
F 1 "GNDA" H 6305 5177 50  0000 C CNN
F 2 "" H 6300 5350 50  0001 C CNN
F 3 "" H 6300 5350 50  0001 C CNN
	1    6300 5350
	1    0    0    -1  
$EndComp
$Comp
L power:GNDA #PWR?
U 1 1 60281AB2
P 5700 5350
AR Path="/5FF26FEA/60281AB2" Ref="#PWR?"  Part="1" 
AR Path="/5FF29AD4/5FFEE41D/6010CEC8/60281AB2" Ref="#PWR?"  Part="1" 
AR Path="/5FF29AD4/5FFEE41D/60281AB2" Ref="#PWR?"  Part="1" 
AR Path="/5FF29AD4/5FFEE41D/602775D5/60281AB2" Ref="#PWR?"  Part="1" 
AR Path="/604014AF/602775D5/60281AB2" Ref="#PWR074"  Part="1" 
F 0 "#PWR074" H 5700 5100 50  0001 C CNN
F 1 "GNDA" H 5705 5177 50  0000 C CNN
F 2 "" H 5700 5350 50  0001 C CNN
F 3 "" H 5700 5350 50  0001 C CNN
	1    5700 5350
	1    0    0    -1  
$EndComp
Wire Wire Line
	6100 5050 6300 5050
Wire Wire Line
	6100 4950 6650 4950
$Comp
L Device:C C?
U 1 1 60281AA4
P 6650 5100
AR Path="/5FF26FEA/60281AA4" Ref="C?"  Part="1" 
AR Path="/5FF29AD4/5FFEE41D/6010CEC8/60281AA4" Ref="C?"  Part="1" 
AR Path="/5FF29AD4/5FFEE41D/60281AA4" Ref="C?"  Part="1" 
AR Path="/5FF29AD4/5FFEE41D/602775D5/60281AA4" Ref="C?"  Part="1" 
AR Path="/604014AF/602775D5/60281AA4" Ref="C80"  Part="1" 
F 0 "C80" H 6765 5146 50  0000 L CNN
F 1 "10u" H 6765 5055 50  0000 L CNN
F 2 "Capacitor_SMD:C_0805_2012Metric_Pad1.18x1.45mm_HandSolder" H 6688 4950 50  0001 C CNN
F 3 "~" H 6650 5100 50  0001 C CNN
	1    6650 5100
	1    0    0    -1  
$EndComp
$Comp
L Device:C C?
U 1 1 60281A9E
P 6300 5200
AR Path="/5FF26FEA/60281A9E" Ref="C?"  Part="1" 
AR Path="/5FF29AD4/5FFEE41D/6010CEC8/60281A9E" Ref="C?"  Part="1" 
AR Path="/5FF29AD4/5FFEE41D/60281A9E" Ref="C?"  Part="1" 
AR Path="/5FF29AD4/5FFEE41D/602775D5/60281A9E" Ref="C?"  Part="1" 
AR Path="/604014AF/602775D5/60281A9E" Ref="C81"  Part="1" 
F 0 "C81" H 6415 5246 50  0000 L CNN
F 1 "10n" H 6415 5155 50  0000 L CNN
F 2 "Capacitor_SMD:C_0603_1608Metric_Pad1.08x0.95mm_HandSolder" H 6338 5050 50  0001 C CNN
F 3 "~" H 6300 5200 50  0001 C CNN
	1    6300 5200
	1    0    0    -1  
$EndComp
Wire Wire Line
	4900 4950 5200 4950
Wire Wire Line
	5200 4950 5300 4950
Connection ~ 5200 4950
Wire Wire Line
	5200 5050 5200 4950
Wire Wire Line
	5300 5050 5200 5050
$Comp
L Regulator_Linear:LP2985-1.8 U?
U 1 1 60281A8A
P 5700 5050
AR Path="/5FF26FEA/60281A8A" Ref="U?"  Part="1" 
AR Path="/5FF29AD4/5FFEE41D/6010CEC8/60281A8A" Ref="U?"  Part="1" 
AR Path="/5FF29AD4/5FFEE41D/60281A8A" Ref="U?"  Part="1" 
AR Path="/5FF29AD4/5FFEE41D/602775D5/60281A8A" Ref="U?"  Part="1" 
AR Path="/604014AF/602775D5/60281A8A" Ref="U14"  Part="1" 
F 0 "U14" H 5700 5392 50  0000 C CNN
F 1 "LP2985-1.8" H 5700 5301 50  0000 C CNN
F 2 "Package_TO_SOT_SMD:SOT-23-5_HandSoldering" H 5700 5375 50  0001 C CNN
F 3 "http://www.ti.com/lit/ds/symlink/lp2985.pdf" H 5700 5050 50  0001 C CNN
	1    5700 5050
	1    0    0    -1  
$EndComp
Connection ~ 7300 1900
Wire Wire Line
	9650 1900 9800 1900
Connection ~ 9650 1900
Wire Wire Line
	9650 2100 9800 2100
Wire Wire Line
	9650 1900 9650 2100
Text Label 9800 1900 0    50   ~ 0
5V
$Comp
L Regulator_Linear:LP2985-5.0 U?
U 1 1 601FE3CF
P 7800 2000
AR Path="/5FF29AD4/5FFEE41D/602775D5/601FE3CF" Ref="U?"  Part="1" 
AR Path="/604014AF/602775D5/601FE3CF" Ref="U11"  Part="1" 
F 0 "U11" H 7800 2342 50  0000 C CNN
F 1 "LP2985-5.0" H 7800 2251 50  0000 C CNN
F 2 "Package_TO_SOT_SMD:SOT-23-5_HandSoldering" H 7800 2325 50  0001 C CNN
F 3 "http://www.ti.com/lit/ds/symlink/lp2985.pdf" H 7800 2000 50  0001 C CNN
	1    7800 2000
	1    0    0    -1  
$EndComp
Wire Wire Line
	8750 1900 9150 1900
Connection ~ 8750 1900
Wire Wire Line
	8750 2300 8750 2200
$Comp
L power:GNDA #PWR?
U 1 1 601F4BD6
P 8750 2300
AR Path="/5FF26FEA/601F4BD6" Ref="#PWR?"  Part="1" 
AR Path="/5FF29AD4/5FFEE41D/6010CEC8/601F4BD6" Ref="#PWR?"  Part="1" 
AR Path="/5FF29AD4/5FFEE41D/601F4BD6" Ref="#PWR?"  Part="1" 
AR Path="/5FF29AD4/5FFEE41D/602775D5/601F4BD6" Ref="#PWR?"  Part="1" 
AR Path="/604014AF/602775D5/601F4BD6" Ref="#PWR068"  Part="1" 
F 0 "#PWR068" H 8750 2050 50  0001 C CNN
F 1 "GNDA" H 8755 2127 50  0000 C CNN
F 2 "" H 8750 2300 50  0001 C CNN
F 3 "" H 8750 2300 50  0001 C CNN
	1    8750 2300
	1    0    0    -1  
$EndComp
$Comp
L power:GNDA #PWR?
U 1 1 601F4BD0
P 8400 2300
AR Path="/5FF26FEA/601F4BD0" Ref="#PWR?"  Part="1" 
AR Path="/5FF29AD4/5FFEE41D/6010CEC8/601F4BD0" Ref="#PWR?"  Part="1" 
AR Path="/5FF29AD4/5FFEE41D/601F4BD0" Ref="#PWR?"  Part="1" 
AR Path="/5FF29AD4/5FFEE41D/602775D5/601F4BD0" Ref="#PWR?"  Part="1" 
AR Path="/604014AF/602775D5/601F4BD0" Ref="#PWR067"  Part="1" 
F 0 "#PWR067" H 8400 2050 50  0001 C CNN
F 1 "GNDA" H 8405 2127 50  0000 C CNN
F 2 "" H 8400 2300 50  0001 C CNN
F 3 "" H 8400 2300 50  0001 C CNN
	1    8400 2300
	1    0    0    -1  
$EndComp
$Comp
L power:GNDA #PWR?
U 1 1 601F4BCA
P 7800 2300
AR Path="/5FF26FEA/601F4BCA" Ref="#PWR?"  Part="1" 
AR Path="/5FF29AD4/5FFEE41D/6010CEC8/601F4BCA" Ref="#PWR?"  Part="1" 
AR Path="/5FF29AD4/5FFEE41D/601F4BCA" Ref="#PWR?"  Part="1" 
AR Path="/5FF29AD4/5FFEE41D/602775D5/601F4BCA" Ref="#PWR?"  Part="1" 
AR Path="/604014AF/602775D5/601F4BCA" Ref="#PWR066"  Part="1" 
F 0 "#PWR066" H 7800 2050 50  0001 C CNN
F 1 "GNDA" H 7805 2127 50  0000 C CNN
F 2 "" H 7800 2300 50  0001 C CNN
F 3 "" H 7800 2300 50  0001 C CNN
	1    7800 2300
	1    0    0    -1  
$EndComp
Wire Wire Line
	8200 2000 8400 2000
Wire Wire Line
	8200 1900 8750 1900
$Comp
L Device:C C?
U 1 1 601F4BC2
P 8750 2050
AR Path="/5FF26FEA/601F4BC2" Ref="C?"  Part="1" 
AR Path="/5FF29AD4/5FFEE41D/6010CEC8/601F4BC2" Ref="C?"  Part="1" 
AR Path="/5FF29AD4/5FFEE41D/601F4BC2" Ref="C?"  Part="1" 
AR Path="/5FF29AD4/5FFEE41D/602775D5/601F4BC2" Ref="C?"  Part="1" 
AR Path="/604014AF/602775D5/601F4BC2" Ref="C67"  Part="1" 
F 0 "C67" H 8865 2096 50  0000 L CNN
F 1 "10u" H 8865 2005 50  0000 L CNN
F 2 "Capacitor_SMD:C_1210_3225Metric_Pad1.33x2.70mm_HandSolder" H 8788 1900 50  0001 C CNN
F 3 "~" H 8750 2050 50  0001 C CNN
	1    8750 2050
	1    0    0    -1  
$EndComp
$Comp
L Device:C C?
U 1 1 601F4BBC
P 8400 2150
AR Path="/5FF26FEA/601F4BBC" Ref="C?"  Part="1" 
AR Path="/5FF29AD4/5FFEE41D/6010CEC8/601F4BBC" Ref="C?"  Part="1" 
AR Path="/5FF29AD4/5FFEE41D/601F4BBC" Ref="C?"  Part="1" 
AR Path="/5FF29AD4/5FFEE41D/602775D5/601F4BBC" Ref="C?"  Part="1" 
AR Path="/604014AF/602775D5/601F4BBC" Ref="C71"  Part="1" 
F 0 "C71" H 8515 2196 50  0000 L CNN
F 1 "10n" H 8515 2105 50  0000 L CNN
F 2 "Capacitor_SMD:C_0603_1608Metric_Pad1.08x0.95mm_HandSolder" H 8438 2000 50  0001 C CNN
F 3 "~" H 8400 2150 50  0001 C CNN
	1    8400 2150
	1    0    0    -1  
$EndComp
Wire Wire Line
	7300 1900 7400 1900
Wire Wire Line
	7300 2000 7300 1900
Wire Wire Line
	7400 2000 7300 2000
Text HLabel 9800 2100 2    50   Input ~ 0
5V
Wire Wire Line
	4150 4950 4550 4950
Wire Wire Line
	6750 1900 7000 1900
$Comp
L Device:L_Coupled_1423 L5
U 1 1 606A828F
P 2450 2250
F 0 "L5" H 2450 2531 50  0000 C CNN
F 1 "50u" H 2450 2440 50  0000 C CNN
F 2 "Local:IND_SRF0905-251Y" H 2450 2250 50  0001 C CNN
F 3 "~" H 2450 2250 50  0001 C CNN
	1    2450 2250
	1    0    0    -1  
$EndComp
$Comp
L Device:L_Coupled_1423 L4
U 1 1 606B0219
P 6250 2100
F 0 "L4" H 6250 2381 50  0000 C CNN
F 1 "50u" H 6250 2290 50  0000 C CNN
F 2 "Local:IND_SRF0905-251Y" H 6250 2100 50  0001 C CNN
F 3 "~" H 6250 2100 50  0001 C CNN
	1    6250 2100
	1    0    0    -1  
$EndComp
Wire Wire Line
	5600 4050 5600 4150
Connection ~ 5600 4050
Connection ~ 5600 4150
Wire Wire Line
	5600 4150 5600 4250
Connection ~ 5600 4250
Wire Wire Line
	5600 4250 5600 4350
Wire Wire Line
	4650 2200 4700 2200
Connection ~ 4700 2200
Wire Wire Line
	4700 2200 4700 2300
Wire Wire Line
	4650 2300 4700 2300
Connection ~ 4700 2300
$Comp
L Device:C C?
U 1 1 60A0D334
P 9150 2050
AR Path="/5FF26FEA/60A0D334" Ref="C?"  Part="1" 
AR Path="/5FF29AD4/5FFEE41D/6010CEC8/60A0D334" Ref="C?"  Part="1" 
AR Path="/5FF29AD4/5FFEE41D/60A0D334" Ref="C?"  Part="1" 
AR Path="/5FF29AD4/5FFEE41D/602775D5/60A0D334" Ref="C?"  Part="1" 
AR Path="/604014AF/602775D5/60A0D334" Ref="C158"  Part="1" 
F 0 "C158" H 9265 2096 50  0000 L CNN
F 1 "100n" H 9265 2005 50  0000 L CNN
F 2 "Capacitor_SMD:C_0603_1608Metric_Pad1.08x0.95mm_HandSolder" H 9188 1900 50  0001 C CNN
F 3 "~" H 9150 2050 50  0001 C CNN
	1    9150 2050
	1    0    0    -1  
$EndComp
Connection ~ 9150 1900
Wire Wire Line
	9150 1900 9650 1900
$Comp
L power:GNDA #PWR?
U 1 1 60A0D5E5
P 9150 2200
AR Path="/5FF26FEA/60A0D5E5" Ref="#PWR?"  Part="1" 
AR Path="/5FF29AD4/5FFEE41D/6010CEC8/60A0D5E5" Ref="#PWR?"  Part="1" 
AR Path="/5FF29AD4/5FFEE41D/60A0D5E5" Ref="#PWR?"  Part="1" 
AR Path="/5FF29AD4/5FFEE41D/602775D5/60A0D5E5" Ref="#PWR?"  Part="1" 
AR Path="/604014AF/602775D5/60A0D5E5" Ref="#PWR0159"  Part="1" 
F 0 "#PWR0159" H 9150 1950 50  0001 C CNN
F 1 "GNDA" H 9155 2027 50  0000 C CNN
F 2 "" H 9150 2200 50  0001 C CNN
F 3 "" H 9150 2200 50  0001 C CNN
	1    9150 2200
	1    0    0    -1  
$EndComp
$Comp
L Device:C C?
U 1 1 60A0D7C0
P 7000 2050
AR Path="/5FF26FEA/60A0D7C0" Ref="C?"  Part="1" 
AR Path="/5FF29AD4/5FFEE41D/6010CEC8/60A0D7C0" Ref="C?"  Part="1" 
AR Path="/5FF29AD4/5FFEE41D/60A0D7C0" Ref="C?"  Part="1" 
AR Path="/5FF29AD4/5FFEE41D/602775D5/60A0D7C0" Ref="C?"  Part="1" 
AR Path="/604014AF/602775D5/60A0D7C0" Ref="C155"  Part="1" 
F 0 "C155" H 7115 2096 50  0000 L CNN
F 1 "100n" H 7115 2005 50  0000 L CNN
F 2 "Capacitor_SMD:C_0603_1608Metric_Pad1.08x0.95mm_HandSolder" H 7038 1900 50  0001 C CNN
F 3 "~" H 7000 2050 50  0001 C CNN
	1    7000 2050
	1    0    0    -1  
$EndComp
Connection ~ 7000 1900
Wire Wire Line
	7000 1900 7300 1900
$Comp
L power:GNDA #PWR?
U 1 1 60A0DF6F
P 7000 2200
AR Path="/5FF29AD4/5FFEE41D/602775D5/60A0DF6F" Ref="#PWR?"  Part="1" 
AR Path="/604014AF/602775D5/60A0DF6F" Ref="#PWR0160"  Part="1" 
F 0 "#PWR0160" H 7000 1950 50  0001 C CNN
F 1 "GNDA" H 7005 2027 50  0000 C CNN
F 2 "" H 7000 2200 50  0001 C CNN
F 3 "" H 7000 2200 50  0001 C CNN
	1    7000 2200
	1    0    0    -1  
$EndComp
$Comp
L Device:C C?
U 1 1 60A0E156
P 7200 5100
AR Path="/5FF26FEA/60A0E156" Ref="C?"  Part="1" 
AR Path="/5FF29AD4/5FFEE41D/6010CEC8/60A0E156" Ref="C?"  Part="1" 
AR Path="/5FF29AD4/5FFEE41D/60A0E156" Ref="C?"  Part="1" 
AR Path="/5FF29AD4/5FFEE41D/602775D5/60A0E156" Ref="C?"  Part="1" 
AR Path="/604014AF/602775D5/60A0E156" Ref="C157"  Part="1" 
F 0 "C157" H 7315 5146 50  0000 L CNN
F 1 "100n" H 7315 5055 50  0000 L CNN
F 2 "Capacitor_SMD:C_0603_1608Metric_Pad1.08x0.95mm_HandSolder" H 7238 4950 50  0001 C CNN
F 3 "~" H 7200 5100 50  0001 C CNN
	1    7200 5100
	1    0    0    -1  
$EndComp
Connection ~ 7200 4950
Wire Wire Line
	7200 4950 7700 4950
$Comp
L power:GNDA #PWR?
U 1 1 60A0E35A
P 7200 5250
AR Path="/5FF26FEA/60A0E35A" Ref="#PWR?"  Part="1" 
AR Path="/5FF29AD4/5FFEE41D/6010CEC8/60A0E35A" Ref="#PWR?"  Part="1" 
AR Path="/5FF29AD4/5FFEE41D/60A0E35A" Ref="#PWR?"  Part="1" 
AR Path="/5FF29AD4/5FFEE41D/602775D5/60A0E35A" Ref="#PWR?"  Part="1" 
AR Path="/604014AF/602775D5/60A0E35A" Ref="#PWR0161"  Part="1" 
F 0 "#PWR0161" H 7200 5000 50  0001 C CNN
F 1 "GNDA" H 7205 5077 50  0000 C CNN
F 2 "" H 7200 5250 50  0001 C CNN
F 3 "" H 7200 5250 50  0001 C CNN
	1    7200 5250
	1    0    0    -1  
$EndComp
$Comp
L Device:C C?
U 1 1 60A0E694
P 4550 5100
AR Path="/5FF26FEA/60A0E694" Ref="C?"  Part="1" 
AR Path="/5FF29AD4/5FFEE41D/6010CEC8/60A0E694" Ref="C?"  Part="1" 
AR Path="/5FF29AD4/5FFEE41D/60A0E694" Ref="C?"  Part="1" 
AR Path="/5FF29AD4/5FFEE41D/602775D5/60A0E694" Ref="C?"  Part="1" 
AR Path="/604014AF/602775D5/60A0E694" Ref="C153"  Part="1" 
F 0 "C153" H 4665 5146 50  0000 L CNN
F 1 "100n" H 4665 5055 50  0000 L CNN
F 2 "Capacitor_SMD:C_0603_1608Metric_Pad1.08x0.95mm_HandSolder" H 4588 4950 50  0001 C CNN
F 3 "~" H 4550 5100 50  0001 C CNN
	1    4550 5100
	1    0    0    -1  
$EndComp
Connection ~ 4550 4950
Wire Wire Line
	4550 4950 4900 4950
$Comp
L power:GNDA #PWR?
U 1 1 60A0EE3B
P 4550 5250
AR Path="/5FF26FEA/60A0EE3B" Ref="#PWR?"  Part="1" 
AR Path="/5FF29AD4/5FFEE41D/6010CEC8/60A0EE3B" Ref="#PWR?"  Part="1" 
AR Path="/5FF29AD4/5FFEE41D/60A0EE3B" Ref="#PWR?"  Part="1" 
AR Path="/5FF29AD4/5FFEE41D/602775D5/60A0EE3B" Ref="#PWR?"  Part="1" 
AR Path="/604014AF/602775D5/60A0EE3B" Ref="#PWR0162"  Part="1" 
F 0 "#PWR0162" H 4550 5000 50  0001 C CNN
F 1 "GNDA" H 4555 5077 50  0000 C CNN
F 2 "" H 4550 5250 50  0001 C CNN
F 3 "" H 4550 5250 50  0001 C CNN
	1    4550 5250
	1    0    0    -1  
$EndComp
$EndSCHEMATC
