EESchema Schematic File Version 4
EELAYER 30 0
EELAYER END
$Descr A4 11693 8268
encoding utf-8
Sheet 1 12
Title ""
Date ""
Rev ""
Comp ""
Comment1 ""
Comment2 ""
Comment3 ""
Comment4 ""
$EndDescr
$Sheet
S 2800 1700 1300 1700
U 5FD409CD
F0 "MCU Block" 50
F1 "MCU_block.sch" 50
F2 "NRST" I L 2800 1800 50 
F3 "HRTIM1_CHD2" I R 4100 2650 50 
F4 "HRTIM1_CHD1" I R 4100 2750 50 
F5 "PA12" I R 4100 2850 50 
F6 "PA11" I R 4100 2950 50 
F7 "PA9" I L 2800 2950 50 
F8 "PA8" I L 2800 3050 50 
F9 "SPI1_SCK" I R 4100 2300 50 
F10 "PA10" I R 4100 2200 50 
F11 "PB2" I L 2800 2850 50 
F12 "SPI1_MISO" I R 4100 2500 50 
F13 "SPI1_MOSI" I R 4100 2400 50 
F14 "ADC1_IN11" I R 4100 3300 50 
F15 "ADC1_IN12" I L 2800 2550 50 
F16 "ADC1_IN3" I L 2800 2450 50 
F17 "ADC1_IN2" I L 2800 2000 50 
F18 "HRTIM1_CHC1" I L 2800 1900 50 
F19 "HRTIM1_CHC2" I L 2800 2350 50 
$EndSheet
$Sheet
S 5950 5150 900  600 
U 5FDA6F72
F0 "PWR" 50
F1 "PWR.sch" 50
F2 "15V_1" I L 5950 5250 50 
F3 "GND_1" I L 5950 5350 50 
F4 "15V_2" I L 5950 5450 50 
F5 "GND_2" I L 5950 5550 50 
$EndSheet
$Sheet
S 1450 1800 850  850 
U 5FDB46C8
F0 "DCDC" 50
F1 "DCDC.sch" 50
F2 "V1_100V" I L 1450 2450 50 
F3 "V1_PWM" I R 2300 2350 50 
F4 "V2_PWM" I R 2300 1900 50 
F5 "V2_100V" I L 1450 1900 50 
F6 "V1_ADJ1" I R 2300 2450 50 
F7 "V2_ADJ1" I R 2300 2000 50 
F8 "V1_ADJ2" I R 2300 2550 50 
$EndSheet
Wire Wire Line
	2800 3050 2700 3050
Wire Wire Line
	2800 2950 2600 2950
Wire Wire Line
	2800 2850 2500 2850
Wire Wire Line
	1450 2450 1350 2450
$Sheet
S 5050 3000 1300 450 
U 60403A4F
F0 "Offset Coil Driver" 50
F1 "offset_coil_driver.sch" 50
F2 "OFFSET_ENABLE" I L 5050 3350 50 
F3 "OFFSET_PWM2" I L 5050 3150 50 
F4 "OFFSET_PWM1" I L 5050 3250 50 
F5 "OFFSET_COIL-" I R 6350 3200 50 
F6 "OFFSET_COIL+" I R 6350 3300 50 
$EndSheet
Wire Wire Line
	4700 2650 4700 3150
Wire Wire Line
	4600 2750 4600 3250
Wire Wire Line
	4500 2850 4500 3350
Wire Wire Line
	6700 2400 6400 2400
Wire Wire Line
	4100 2650 4700 2650
Wire Wire Line
	4700 3150 5050 3150
Wire Wire Line
	5050 3250 4600 3250
Wire Wire Line
	4500 3350 5050 3350
Wire Wire Line
	4100 2950 4400 2950
Wire Wire Line
	4100 2850 4500 2850
Wire Wire Line
	4100 2750 4600 2750
Wire Wire Line
	4100 3300 4200 3300
$Comp
L Connector:Conn_01x03_Male J1
U 1 1 60408F7E
P 8250 2750
F 0 "J1" H 8358 3031 50  0000 C CNN
F 1 "Conn_01x03_Male" H 8358 2940 50  0000 C CNN
F 2 "Connector_PinHeader_2.54mm:PinHeader_1x03_P2.54mm_Vertical" H 8250 2750 50  0001 C CNN
F 3 "~" H 8250 2750 50  0001 C CNN
	1    8250 2750
	-1   0    0    -1  
$EndComp
Wire Wire Line
	6700 2850 8050 2850
Wire Wire Line
	6800 2750 8050 2750
Wire Wire Line
	6900 2650 8050 2650
$Sheet
S 4400 4800 1350 900 
U 6051CE37
F0 "H Bridge" 50
F1 "h_bridge.sch" 50
F2 "CURRENT_SENSE" I L 4400 4950 50 
F3 "V_IN" I L 4400 5050 50 
F4 "DISABLE" I L 4400 5150 50 
F5 "IN1_L" I L 4400 5250 50 
F6 "IN1_H" I L 4400 5350 50 
F7 "IN2_H" I L 4400 5550 50 
F8 "IN2_L" I L 4400 5450 50 
F9 "GND_1" I R 5750 5350 50 
F10 "15V_1" I R 5750 5250 50 
F11 "GND_2" I R 5750 5550 50 
F12 "15V_2" I R 5750 5450 50 
F13 "SR_COIL-" I R 5750 5050 50 
F14 "SR_COIL+" I R 5750 4950 50 
$EndSheet
Wire Wire Line
	4400 5350 4300 5350
Wire Wire Line
	4300 5350 4300 5450
Wire Wire Line
	4300 5450 4400 5450
Wire Wire Line
	4400 5550 4200 5550
Wire Wire Line
	4200 5550 4200 5250
Wire Wire Line
	4200 5250 4400 5250
$Comp
L Device:R R?
U 1 1 6051CE43
P 4050 5400
AR Path="/5FF29AD4/6051CE43" Ref="R?"  Part="1" 
AR Path="/6051CE43" Ref="R5"  Part="1" 
AR Path="/5FD409CD/6051CE43" Ref="R?"  Part="1" 
F 0 "R5" H 4120 5446 50  0000 L CNN
F 1 "10k" H 4120 5355 50  0000 L CNN
F 2 "Resistor_SMD:R_0603_1608Metric_Pad0.98x0.95mm_HandSolder" V 3980 5400 50  0001 C CNN
F 3 "~" H 4050 5400 50  0001 C CNN
	1    4050 5400
	-1   0    0    -1  
$EndComp
$Comp
L Device:R R?
U 1 1 6051CE49
P 3750 5500
AR Path="/5FF29AD4/6051CE49" Ref="R?"  Part="1" 
AR Path="/6051CE49" Ref="R6"  Part="1" 
AR Path="/5FD409CD/6051CE49" Ref="R?"  Part="1" 
F 0 "R6" H 3820 5546 50  0000 L CNN
F 1 "10k" H 3820 5455 50  0000 L CNN
F 2 "Resistor_SMD:R_0603_1608Metric_Pad0.98x0.95mm_HandSolder" V 3680 5500 50  0001 C CNN
F 3 "~" H 3750 5500 50  0001 C CNN
	1    3750 5500
	-1   0    0    -1  
$EndComp
Wire Wire Line
	4050 5550 4050 5650
Wire Wire Line
	4050 5650 3900 5650
$Comp
L power:GND #PWR?
U 1 1 6051CE51
P 3900 5650
AR Path="/5FF29AD4/6051CE51" Ref="#PWR?"  Part="1" 
AR Path="/6051CE51" Ref="#PWR0115"  Part="1" 
AR Path="/5FD409CD/6051CE51" Ref="#PWR?"  Part="1" 
F 0 "#PWR0115" H 3900 5400 50  0001 C CNN
F 1 "GND" H 3905 5477 50  0000 C CNN
F 2 "" H 3900 5650 50  0001 C CNN
F 3 "" H 3900 5650 50  0001 C CNN
	1    3900 5650
	-1   0    0    -1  
$EndComp
Connection ~ 3900 5650
Wire Wire Line
	3900 5650 3750 5650
Wire Wire Line
	4050 5250 4200 5250
Connection ~ 4200 5250
Wire Wire Line
	3750 5350 4300 5350
Connection ~ 4300 5350
Connection ~ 3750 5350
Connection ~ 4050 5250
Wire Wire Line
	4400 4950 4200 4950
Wire Wire Line
	5950 5550 5750 5550
Wire Wire Line
	5750 5450 5950 5450
Wire Wire Line
	5950 5350 5750 5350
Wire Wire Line
	5750 5250 5950 5250
Wire Wire Line
	2600 5350 3750 5350
Wire Wire Line
	2700 5250 4050 5250
Wire Wire Line
	2500 5150 4400 5150
Wire Wire Line
	1250 1900 1450 1900
Wire Wire Line
	1250 5050 4400 5050
Wire Wire Line
	2300 1900 2800 1900
Wire Wire Line
	2300 2000 2800 2000
Wire Wire Line
	2300 2450 2800 2450
Wire Wire Line
	2300 2350 2800 2350
Wire Wire Line
	2800 2550 2300 2550
Wire Wire Line
	5750 5050 7650 5050
Wire Wire Line
	5750 4950 7550 4950
Wire Wire Line
	6900 2300 6400 2300
Wire Wire Line
	6800 2200 6400 2200
$Sheet
S 9250 2550 1050 1300
U 5FF29AD4
F0 "AMR Magnetometer" 50
F1 "amd_magnetometer.sch" 50
F2 "SR_COIL+" I L 9250 3450 50 
F3 "SR_COIL-" I L 9250 3550 50 
F4 "OFFSET_COIL-" I L 9250 3750 50 
F5 "OFFSET_COIL+" I L 9250 3650 50 
F6 "OUT+" I L 9250 3150 50 
F7 "OUT-" I L 9250 3050 50 
F8 "V_BRIDGE" I L 9250 3350 50 
F9 "GND" I L 9250 3250 50 
$EndSheet
Wire Wire Line
	7650 3550 8050 3550
Wire Wire Line
	7550 3450 8050 3450
Wire Wire Line
	6450 3300 6450 3650
$Sheet
S 4750 3750 1450 500 
U 608390DA
F0 "AMR Bridge Driver" 50
F1 "amr_bridge_driver.sch" 50
F2 "V_BRIDGE_MIDDLE" I R 6200 3850 50 
F3 "V_IN" I L 4750 3850 50 
F4 "BRIDGE_ENABLE" I L 4750 3950 50 
F5 "V_BRIDGE" I R 6200 4050 50 
F6 "GND_BRIDGE" I R 6200 4150 50 
$EndSheet
$Sheet
S 5050 2100 1350 500 
U 604014AF
F0 "ADC" 50
F1 "ADC.sch" 50
F2 "IN+" I R 6400 2400 50 
F3 "IN-" I R 6400 2300 50 
F4 "V_BRIDGE_MIDDLE" I R 6400 2200 50 
F5 "MOSI_MCU" I L 5050 2400 50 
F6 "MISO_MCU" I L 5050 2500 50 
F7 "SCK_MCU" I L 5050 2300 50 
F8 "CNV_MCU" I L 5050 2200 50 
$EndSheet
Wire Wire Line
	4100 2200 5050 2200
Wire Wire Line
	4100 2300 5050 2300
Wire Wire Line
	4100 2400 5050 2400
Wire Wire Line
	4100 2500 5050 2500
Wire Wire Line
	6350 3200 6550 3200
Wire Wire Line
	6450 3300 6350 3300
Wire Wire Line
	6550 3750 8050 3750
Wire Wire Line
	6550 3200 6550 3750
Wire Wire Line
	6450 3650 8050 3650
Wire Wire Line
	4400 2950 4400 3950
Wire Wire Line
	4400 3950 4750 3950
Wire Wire Line
	4750 3850 1350 3850
Wire Wire Line
	1350 2450 1350 3850
Wire Wire Line
	1250 1900 1250 5050
Wire Wire Line
	4200 3300 4200 4950
Wire Wire Line
	2700 3050 2700 5250
Wire Wire Line
	2600 2950 2600 5350
Wire Wire Line
	2500 2850 2500 5150
Wire Wire Line
	6700 2850 6700 2400
Connection ~ 6800 2750
Wire Wire Line
	6800 2750 6800 2200
Wire Wire Line
	6900 2650 6900 2300
Wire Wire Line
	6800 2750 6800 3850
Wire Wire Line
	7550 3450 7550 4950
Wire Wire Line
	7650 3550 7650 5050
Wire Wire Line
	6200 3850 6800 3850
Wire Wire Line
	7450 3350 8050 3350
Wire Wire Line
	6200 4150 7350 4150
Wire Wire Line
	7350 3250 8050 3250
Wire Wire Line
	7350 4150 7350 3250
Wire Wire Line
	6200 4050 7450 4050
Wire Wire Line
	7450 4050 7450 3350
$Comp
L Connector:Conn_01x06_Male J3
U 1 1 606887D7
P 8250 3450
F 0 "J3" H 8222 3424 50  0000 R CNN
F 1 "Conn_01x06_Male" H 8222 3333 50  0000 R CNN
F 2 "Connector_PinHeader_2.54mm:PinHeader_1x06_P2.54mm_Vertical" H 8250 3450 50  0001 C CNN
F 3 "~" H 8250 3450 50  0001 C CNN
	1    8250 3450
	-1   0    0    -1  
$EndComp
$Comp
L Connector:Conn_01x06_Male J4
U 1 1 60689255
P 8550 3450
F 0 "J4" H 8658 3831 50  0000 C CNN
F 1 "Conn_01x06_Male" H 8658 3740 50  0000 C CNN
F 2 "Connector_PinHeader_2.54mm:PinHeader_1x06_P2.54mm_Vertical" H 8550 3450 50  0001 C CNN
F 3 "~" H 8550 3450 50  0001 C CNN
	1    8550 3450
	1    0    0    -1  
$EndComp
Wire Wire Line
	8900 3050 8900 2650
Wire Wire Line
	8900 3050 9250 3050
Wire Wire Line
	8700 3150 8700 2850
Wire Wire Line
	8700 3150 9250 3150
Wire Wire Line
	8750 3350 9250 3350
Wire Wire Line
	8750 3450 9250 3450
Wire Wire Line
	8750 3550 9250 3550
Wire Wire Line
	8750 3650 9250 3650
Wire Wire Line
	8750 3750 9250 3750
Wire Wire Line
	8900 2650 8700 2650
$Comp
L Connector:Conn_01x03_Male J2
U 1 1 60409F3F
P 8500 2750
F 0 "J2" H 8472 2774 50  0000 R CNN
F 1 "Conn_01x03_Male" H 8472 2683 50  0000 R CNN
F 2 "Connector_PinHeader_2.54mm:PinHeader_1x03_P2.54mm_Vertical" H 8500 2750 50  0001 C CNN
F 3 "~" H 8500 2750 50  0001 C CNN
	1    8500 2750
	1    0    0    -1  
$EndComp
Wire Wire Line
	8750 3250 9250 3250
$EndSCHEMATC
