EESchema Schematic File Version 4
EELAYER 30 0
EELAYER END
$Descr A4 11693 8268
encoding utf-8
Sheet 10 12
Title ""
Date ""
Rev ""
Comp ""
Comment1 ""
Comment2 ""
Comment3 ""
Comment4 ""
$EndDescr
Wire Wire Line
	7150 2450 7050 2450
Wire Wire Line
	7150 2350 7050 2350
$Comp
L Device:C C?
U 1 1 6083D379
P 5250 2150
AR Path="/5FF29AD4/6083D379" Ref="C?"  Part="1" 
AR Path="/608390DA/6083D379" Ref="C22"  Part="1" 
F 0 "C22" H 5365 2196 50  0000 L CNN
F 1 "1u" H 5365 2105 50  0000 L CNN
F 2 "Capacitor_SMD:C_2220_5650Metric_Pad1.97x5.40mm_HandSolder" H 5288 2000 50  0001 C CNN
F 3 "~" H 5250 2150 50  0001 C CNN
	1    5250 2150
	1    0    0    -1  
$EndComp
$Comp
L Device:C C?
U 1 1 6083D37F
P 5650 2150
AR Path="/5FF29AD4/6083D37F" Ref="C?"  Part="1" 
AR Path="/608390DA/6083D37F" Ref="C23"  Part="1" 
F 0 "C23" H 5765 2196 50  0000 L CNN
F 1 "100n" H 5765 2105 50  0000 L CNN
F 2 "Capacitor_SMD:C_1206_3216Metric_Pad1.33x1.80mm_HandSolder" H 5688 2000 50  0001 C CNN
F 3 "~" H 5650 2150 50  0001 C CNN
	1    5650 2150
	1    0    0    -1  
$EndComp
$Comp
L power:GND #PWR?
U 1 1 6083D385
P 5250 2350
AR Path="/5FF29AD4/6083D385" Ref="#PWR?"  Part="1" 
AR Path="/608390DA/6083D385" Ref="#PWR0141"  Part="1" 
F 0 "#PWR0141" H 5250 2100 50  0001 C CNN
F 1 "GND" H 5255 2177 50  0000 C CNN
F 2 "" H 5250 2350 50  0001 C CNN
F 3 "" H 5250 2350 50  0001 C CNN
	1    5250 2350
	1    0    0    -1  
$EndComp
$Comp
L power:GND #PWR?
U 1 1 6083D38B
P 5650 2350
AR Path="/5FF29AD4/6083D38B" Ref="#PWR?"  Part="1" 
AR Path="/608390DA/6083D38B" Ref="#PWR0142"  Part="1" 
F 0 "#PWR0142" H 5650 2100 50  0001 C CNN
F 1 "GND" H 5655 2177 50  0000 C CNN
F 2 "" H 5650 2350 50  0001 C CNN
F 3 "" H 5650 2350 50  0001 C CNN
	1    5650 2350
	1    0    0    -1  
$EndComp
Wire Wire Line
	5650 2350 5650 2300
Wire Wire Line
	5250 2350 5250 2300
$Comp
L Device:C C?
U 1 1 6083D393
P 4850 2150
AR Path="/5FF29AD4/6083D393" Ref="C?"  Part="1" 
AR Path="/608390DA/6083D393" Ref="C21"  Part="1" 
F 0 "C21" H 4965 2196 50  0000 L CNN
F 1 "1u" H 4965 2105 50  0000 L CNN
F 2 "Capacitor_SMD:C_2220_5650Metric_Pad1.97x5.40mm_HandSolder" H 4888 2000 50  0001 C CNN
F 3 "~" H 4850 2150 50  0001 C CNN
	1    4850 2150
	1    0    0    -1  
$EndComp
$Comp
L power:GND #PWR?
U 1 1 6083D399
P 4850 2350
AR Path="/5FF29AD4/6083D399" Ref="#PWR?"  Part="1" 
AR Path="/608390DA/6083D399" Ref="#PWR0143"  Part="1" 
F 0 "#PWR0143" H 4850 2100 50  0001 C CNN
F 1 "GND" H 4855 2177 50  0000 C CNN
F 2 "" H 4850 2350 50  0001 C CNN
F 3 "" H 4850 2350 50  0001 C CNN
	1    4850 2350
	1    0    0    -1  
$EndComp
Wire Wire Line
	4850 2350 4850 2300
$Comp
L Device:R R?
U 1 1 6083D3A2
P 6700 2200
AR Path="/5FF29AD4/6083D3A2" Ref="R?"  Part="1" 
AR Path="/608390DA/6083D3A2" Ref="R46"  Part="1" 
F 0 "R46" H 6770 2246 50  0000 L CNN
F 1 "10k" H 6770 2155 50  0000 L CNN
F 2 "Resistor_SMD:R_1206_3216Metric_Pad1.30x1.75mm_HandSolder" V 6630 2200 50  0001 C CNN
F 3 "~" H 6700 2200 50  0001 C CNN
	1    6700 2200
	1    0    0    -1  
$EndComp
$Comp
L Device:R R?
U 1 1 6083D3A8
P 6700 2600
AR Path="/5FF29AD4/6083D3A8" Ref="R?"  Part="1" 
AR Path="/608390DA/6083D3A8" Ref="R69"  Part="1" 
F 0 "R69" H 6770 2646 50  0000 L CNN
F 1 "10k" H 6770 2555 50  0000 L CNN
F 2 "Resistor_SMD:R_1206_3216Metric_Pad1.30x1.75mm_HandSolder" V 6630 2600 50  0001 C CNN
F 3 "~" H 6700 2600 50  0001 C CNN
	1    6700 2600
	1    0    0    -1  
$EndComp
Wire Wire Line
	6700 2750 6700 2800
Wire Wire Line
	6700 2800 7050 2800
$Comp
L Device:C C?
U 1 1 6083D3B7
P 4700 2950
AR Path="/5FF29AD4/5FFF09C6/6083D3B7" Ref="C?"  Part="1" 
AR Path="/5FF29AD4/601A7EC2/6083D3B7" Ref="C?"  Part="1" 
AR Path="/5FF29AD4/6083D3B7" Ref="C?"  Part="1" 
AR Path="/608390DA/6083D3B7" Ref="C105"  Part="1" 
F 0 "C105" H 4815 2996 50  0000 L CNN
F 1 "100n" H 4815 2905 50  0000 L CNN
F 2 "Capacitor_SMD:C_0603_1608Metric_Pad1.08x0.95mm_HandSolder" H 4738 2800 50  0001 C CNN
F 3 "~" H 4700 2950 50  0001 C CNN
	1    4700 2950
	-1   0    0    -1  
$EndComp
$Comp
L power:GND #PWR?
U 1 1 6083D3BD
P 5150 3800
AR Path="/5FF29AD4/5FFF09C6/6083D3BD" Ref="#PWR?"  Part="1" 
AR Path="/5FF29AD4/601A7EC2/6083D3BD" Ref="#PWR?"  Part="1" 
AR Path="/5FF29AD4/6083D3BD" Ref="#PWR?"  Part="1" 
AR Path="/608390DA/6083D3BD" Ref="#PWR0144"  Part="1" 
F 0 "#PWR0144" H 5150 3550 50  0001 C CNN
F 1 "GND" H 5155 3627 50  0000 C CNN
F 2 "" H 5150 3800 50  0001 C CNN
F 3 "" H 5150 3800 50  0001 C CNN
	1    5150 3800
	1    0    0    -1  
$EndComp
$Comp
L Device:R R?
U 1 1 6083D3C3
P 6500 3400
AR Path="/5FF29AD4/6083D3C3" Ref="R?"  Part="1" 
AR Path="/5FF29AD4/5FFF09C6/6083D3C3" Ref="R?"  Part="1" 
AR Path="/5FF29AD4/601A7EC2/6083D3C3" Ref="R?"  Part="1" 
AR Path="/608390DA/6083D3C3" Ref="R71"  Part="1" 
F 0 "R71" V 6293 3400 50  0000 C CNN
F 1 "10" V 6384 3400 50  0000 C CNN
F 2 "Resistor_SMD:R_0603_1608Metric_Pad0.98x0.95mm_HandSolder" V 6430 3400 50  0001 C CNN
F 3 "~" H 6500 3400 50  0001 C CNN
	1    6500 3400
	0    1    1    0   
$EndComp
Wire Wire Line
	7050 3600 7050 3800
$Comp
L Device:R R?
U 1 1 6083D3CA
P 4400 3600
AR Path="/5FF29AD4/5FFF09C6/6083D3CA" Ref="R?"  Part="1" 
AR Path="/5FF29AD4/601A7EC2/6083D3CA" Ref="R?"  Part="1" 
AR Path="/5FF29AD4/6083D3CA" Ref="R?"  Part="1" 
AR Path="/608390DA/6083D3CA" Ref="R72"  Part="1" 
F 0 "R72" H 4470 3646 50  0000 L CNN
F 1 "10k" H 4470 3555 50  0000 L CNN
F 2 "Resistor_SMD:R_0603_1608Metric_Pad0.98x0.95mm_HandSolder" V 4330 3600 50  0001 C CNN
F 3 "~" H 4400 3600 50  0001 C CNN
	1    4400 3600
	1    0    0    -1  
$EndComp
$Comp
L power:GND #PWR?
U 1 1 6083D3D0
P 4400 3800
AR Path="/5FF29AD4/5FFF09C6/6083D3D0" Ref="#PWR?"  Part="1" 
AR Path="/5FF29AD4/601A7EC2/6083D3D0" Ref="#PWR?"  Part="1" 
AR Path="/5FF29AD4/6083D3D0" Ref="#PWR?"  Part="1" 
AR Path="/608390DA/6083D3D0" Ref="#PWR0145"  Part="1" 
F 0 "#PWR0145" H 4400 3550 50  0001 C CNN
F 1 "GND" H 4405 3627 50  0000 C CNN
F 2 "" H 4400 3800 50  0001 C CNN
F 3 "" H 4400 3800 50  0001 C CNN
	1    4400 3800
	1    0    0    -1  
$EndComp
$Comp
L Driver_FET:MCP1416 U?
U 1 1 6083D3D6
P 5150 3400
AR Path="/5FF29AD4/6083D3D6" Ref="U?"  Part="1" 
AR Path="/608390DA/6083D3D6" Ref="U4"  Part="1" 
F 0 "U4" H 5594 3446 50  0000 L CNN
F 1 "MCP1416" H 5594 3355 50  0000 L CNN
F 2 "Package_TO_SOT_SMD:SOT-23-5_HandSoldering" H 5150 3000 50  0001 C CIN
F 3 "http://ww1.microchip.com/downloads/en/DeviceDoc/20002092F.pdf" H 4950 3650 50  0001 C CNN
	1    5150 3400
	1    0    0    -1  
$EndComp
Wire Wire Line
	6650 3400 6750 3400
$Comp
L power:GND #PWR?
U 1 1 6083D3DD
P 7050 3800
AR Path="/5FF29AD4/6083D3DD" Ref="#PWR?"  Part="1" 
AR Path="/608390DA/6083D3DD" Ref="#PWR0147"  Part="1" 
F 0 "#PWR0147" H 7050 3550 50  0001 C CNN
F 1 "GND" H 7055 3627 50  0000 C CNN
F 2 "" H 7050 3800 50  0001 C CNN
F 3 "" H 7050 3800 50  0001 C CNN
	1    7050 3800
	1    0    0    -1  
$EndComp
$Comp
L power:GND #PWR?
U 1 1 6083D3E3
P 4700 3100
AR Path="/5FF29AD4/6083D3E3" Ref="#PWR?"  Part="1" 
AR Path="/608390DA/6083D3E3" Ref="#PWR0148"  Part="1" 
F 0 "#PWR0148" H 4700 2850 50  0001 C CNN
F 1 "GND" H 4705 2927 50  0000 C CNN
F 2 "" H 4700 3100 50  0001 C CNN
F 3 "" H 4700 3100 50  0001 C CNN
	1    4700 3100
	-1   0    0    -1  
$EndComp
Wire Wire Line
	4700 2800 4250 2800
Connection ~ 4700 2800
$Comp
L power:GND #PWR?
U 1 1 6083D3F3
P 4250 3100
AR Path="/5FF29AD4/6083D3F3" Ref="#PWR?"  Part="1" 
AR Path="/608390DA/6083D3F3" Ref="#PWR0149"  Part="1" 
F 0 "#PWR0149" H 4250 2850 50  0001 C CNN
F 1 "GND" H 4255 2927 50  0000 C CNN
F 2 "" H 4250 3100 50  0001 C CNN
F 3 "" H 4250 3100 50  0001 C CNN
	1    4250 3100
	-1   0    0    -1  
$EndComp
Wire Wire Line
	7050 2450 7050 2800
Wire Wire Line
	5550 3400 6350 3400
Wire Wire Line
	4100 3400 4400 3400
Wire Wire Line
	4400 3800 4400 3750
Wire Wire Line
	4400 3450 4400 3400
Connection ~ 4400 3400
Wire Wire Line
	4400 3400 4850 3400
Wire Wire Line
	5150 3800 5150 3700
$Comp
L Device:CP C?
U 1 1 6083D40C
P 4400 2150
AR Path="/5FDB46C8/6083D40C" Ref="C?"  Part="1" 
AR Path="/5FF29AD4/6083D40C" Ref="C?"  Part="1" 
AR Path="/608390DA/6083D40C" Ref="C20"  Part="1" 
F 0 "C20" H 4518 2196 50  0000 L CNN
F 1 "100u" H 4518 2105 50  0000 L CNN
F 2 "Capacitor_THT:CP_Radial_D12.5mm_P5.00mm" H 4438 2000 50  0001 C CNN
F 3 "~" H 4400 2150 50  0001 C CNN
	1    4400 2150
	1    0    0    -1  
$EndComp
$Comp
L power:GND #PWR?
U 1 1 6083D412
P 4400 2350
AR Path="/5FF29AD4/6083D412" Ref="#PWR?"  Part="1" 
AR Path="/608390DA/6083D412" Ref="#PWR0150"  Part="1" 
F 0 "#PWR0150" H 4400 2100 50  0001 C CNN
F 1 "GND" H 4405 2177 50  0000 C CNN
F 2 "" H 4400 2350 50  0001 C CNN
F 3 "" H 4400 2350 50  0001 C CNN
	1    4400 2350
	1    0    0    -1  
$EndComp
Wire Wire Line
	4400 2350 4400 2300
Connection ~ 5250 2000
Connection ~ 5650 2000
Wire Wire Line
	4850 2000 5250 2000
Wire Wire Line
	5250 2000 5650 2000
$Comp
L Device:Q_NMOS_GDS Q?
U 1 1 6083D420
P 6950 3400
AR Path="/5FF29AD4/6083D420" Ref="Q?"  Part="1" 
AR Path="/608390DA/6083D420" Ref="Q7"  Part="1" 
F 0 "Q7" H 7154 3446 50  0000 L CNN
F 1 "Q_NMOS_GDS" H 7154 3355 50  0000 L CNN
F 2 "Package_TO_SOT_THT:TO-220-3_Vertical" H 7150 3500 50  0001 C CNN
F 3 "~" H 6950 3400 50  0001 C CNN
	1    6950 3400
	1    0    0    -1  
$EndComp
$Comp
L power:+15V #PWR?
U 1 1 6083D433
P 5150 2800
AR Path="/5FF29AD4/6083D433" Ref="#PWR?"  Part="1" 
AR Path="/608390DA/6083D433" Ref="#PWR0151"  Part="1" 
F 0 "#PWR0151" H 5150 2650 50  0001 C CNN
F 1 "+15V" H 5165 2973 50  0000 C CNN
F 2 "" H 5150 2800 50  0001 C CNN
F 3 "" H 5150 2800 50  0001 C CNN
	1    5150 2800
	1    0    0    -1  
$EndComp
Text HLabel 6650 2400 0    50   Input ~ 0
V_BRIDGE_MIDDLE
Text HLabel 4100 2000 0    50   Input ~ 0
V_IN
Text HLabel 4100 3400 0    50   Input ~ 0
BRIDGE_ENABLE
Text HLabel 7150 2350 2    50   Input ~ 0
V_BRIDGE
Text HLabel 7150 2450 2    50   Input ~ 0
GND_BRIDGE
Wire Wire Line
	6700 2050 6700 2000
Wire Wire Line
	6700 2000 7050 2000
Wire Wire Line
	7050 2000 7050 2350
$Comp
L Device:C C?
U 1 1 6083D3EB
P 4250 2950
AR Path="/5FF29AD4/6083D3EB" Ref="C?"  Part="1" 
AR Path="/608390DA/6083D3EB" Ref="C115"  Part="1" 
F 0 "C115" H 4365 2996 50  0000 L CNN
F 1 "1u" H 4365 2905 50  0000 L CNN
F 2 "Capacitor_SMD:C_0805_2012Metric_Pad1.18x1.45mm_HandSolder" H 4288 2800 50  0001 C CNN
F 3 "~" H 4250 2950 50  0001 C CNN
	1    4250 2950
	-1   0    0    -1  
$EndComp
Wire Wire Line
	6700 2350 6700 2400
Wire Wire Line
	6650 2400 6700 2400
Connection ~ 6700 2400
Wire Wire Line
	6700 2400 6700 2450
Wire Wire Line
	4400 2000 4850 2000
Connection ~ 4850 2000
Wire Wire Line
	5650 2000 6700 2000
Connection ~ 6700 2000
Wire Wire Line
	4700 2800 5150 2800
Wire Wire Line
	5150 2800 5150 3100
Connection ~ 5150 2800
Wire Wire Line
	7050 2800 7050 3200
Connection ~ 7050 2800
Wire Wire Line
	4100 2000 4400 2000
Connection ~ 4400 2000
$EndSCHEMATC
