EESchema Schematic File Version 4
EELAYER 30 0
EELAYER END
$Descr A4 11693 8268
encoding utf-8
Sheet 11 13
Title ""
Date ""
Rev ""
Comp ""
Comment1 ""
Comment2 ""
Comment3 ""
Comment4 ""
$EndDescr
$Comp
L AMR_1D_magnetometer-rescue:ADuM4120-Driver_FET U?
U 1 1 5FFF6D3E
P 5000 4350
F 0 "U?" H 5000 4715 50  0000 C CNN
F 1 "ADuM4120" H 5000 4624 50  0000 C CNN
F 2 "" H 5000 4700 50  0001 C CNN
F 3 "" H 5000 4700 50  0001 C CNN
	1    5000 4350
	1    0    0    -1  
$EndComp
$Comp
L power:+3.3V #PWR?
U 1 1 5FFF94D6
P 4400 3750
F 0 "#PWR?" H 4400 3600 50  0001 C CNN
F 1 "+3.3V" H 4415 3923 50  0000 C CNN
F 2 "" H 4400 3750 50  0001 C CNN
F 3 "" H 4400 3750 50  0001 C CNN
	1    4400 3750
	1    0    0    -1  
$EndComp
$Comp
L Device:C C?
U 1 1 5FFFABF8
P 4250 4000
F 0 "C?" H 4365 4046 50  0000 L CNN
F 1 "100n" H 4365 3955 50  0000 L CNN
F 2 "" H 4288 3850 50  0001 C CNN
F 3 "~" H 4250 4000 50  0001 C CNN
	1    4250 4000
	1    0    0    -1  
$EndComp
Wire Wire Line
	4250 3850 4250 3800
Wire Wire Line
	4250 3800 4400 3800
Wire Wire Line
	4400 3800 4400 3750
Wire Wire Line
	4550 3800 4550 4250
Wire Wire Line
	4550 4250 4600 4250
Wire Wire Line
	4250 4150 4250 4450
Wire Wire Line
	4250 4450 4400 4450
Wire Wire Line
	4400 3800 4550 3800
Connection ~ 4400 3800
$Comp
L power:GND #PWR?
U 1 1 5FFFF21A
P 4400 4550
F 0 "#PWR?" H 4400 4300 50  0001 C CNN
F 1 "GND" H 4405 4377 50  0000 C CNN
F 2 "" H 4400 4550 50  0001 C CNN
F 3 "" H 4400 4550 50  0001 C CNN
	1    4400 4550
	1    0    0    -1  
$EndComp
Wire Wire Line
	4400 4550 4400 4450
Connection ~ 4400 4450
Wire Wire Line
	4400 4450 4600 4450
Text HLabel 3850 4350 0    50   Input ~ 0
BRIDGE_ENABLE
Wire Wire Line
	5500 4450 5400 4450
Text HLabel 6700 5000 3    50   Input ~ 0
VBRIDGE
Wire Wire Line
	6700 3850 6700 4150
$Comp
L Device:R R?
U 1 1 60008DF3
P 6150 4350
AR Path="/5FF29AD4/60008DF3" Ref="R?"  Part="1" 
AR Path="/5FF29AD4/5FFF09C6/60008DF3" Ref="R?"  Part="1" 
F 0 "R?" V 5943 4350 50  0000 C CNN
F 1 "10" V 6034 4350 50  0000 C CNN
F 2 "" V 6080 4350 50  0001 C CNN
F 3 "~" H 6150 4350 50  0001 C CNN
	1    6150 4350
	0    1    1    0   
$EndComp
Text HLabel 6700 3850 1    50   Input ~ 0
BRIDGE_PWR
Wire Wire Line
	5400 4350 5950 4350
Wire Wire Line
	6700 4550 6700 4750
Wire Wire Line
	6300 4350 6350 4350
Connection ~ 6350 4350
Wire Wire Line
	6350 4350 6400 4350
Wire Wire Line
	5500 4450 5500 4750
Connection ~ 6700 4750
Wire Wire Line
	6700 4750 6700 5000
Wire Wire Line
	6000 4000 5950 4000
Wire Wire Line
	5950 4000 5950 4350
Connection ~ 5950 4350
Wire Wire Line
	5950 4350 6000 4350
Wire Wire Line
	6300 4000 6350 4000
Wire Wire Line
	6350 4000 6350 4350
$Comp
L Device:D_Schottky D?
U 1 1 60054E90
P 6150 4000
F 0 "D?" H 6150 4217 50  0000 C CNN
F 1 "D_Schottky" H 6150 4126 50  0000 C CNN
F 2 "" H 6150 4000 50  0001 C CNN
F 3 "~" H 6150 4000 50  0001 C CNN
	1    6150 4000
	1    0    0    -1  
$EndComp
$Comp
L Device:Q_NMOS_DGS Q?
U 1 1 60008DDE
P 6600 4350
AR Path="/5FF29AD4/60008DDE" Ref="Q?"  Part="1" 
AR Path="/5FF29AD4/5FFF09C6/60008DDE" Ref="Q?"  Part="1" 
F 0 "Q?" H 6804 4396 50  0000 L CNN
F 1 "Q_NMOS_DGS" H 6804 4305 50  0000 L CNN
F 2 "" H 6800 4450 50  0001 C CNN
F 3 "~" H 6600 4350 50  0001 C CNN
	1    6600 4350
	1    0    0    -1  
$EndComp
Wire Wire Line
	5500 4750 6700 4750
Wire Wire Line
	3850 4350 3950 4350
$Comp
L Device:R R?
U 1 1 60214805
P 3950 4500
F 0 "R?" H 4020 4546 50  0000 L CNN
F 1 "10k" H 4020 4455 50  0000 L CNN
F 2 "" V 3880 4500 50  0001 C CNN
F 3 "~" H 3950 4500 50  0001 C CNN
	1    3950 4500
	1    0    0    -1  
$EndComp
Connection ~ 3950 4350
Wire Wire Line
	3950 4350 4600 4350
$Comp
L power:GND #PWR?
U 1 1 60214B8C
P 3950 4650
F 0 "#PWR?" H 3950 4400 50  0001 C CNN
F 1 "GND" H 3955 4477 50  0000 C CNN
F 2 "" H 3950 4650 50  0001 C CNN
F 3 "" H 3950 4650 50  0001 C CNN
	1    3950 4650
	1    0    0    -1  
$EndComp
Wire Wire Line
	5400 4250 5800 4250
Connection ~ 5500 4450
Wire Wire Line
	5500 3950 5500 4450
Connection ~ 5500 3950
Wire Wire Line
	5800 3950 5800 4250
Connection ~ 5800 3950
$Comp
L Device:R R?
U 1 1 6003A904
P 5650 3950
F 0 "R?" V 5443 3950 50  0000 C CNN
F 1 "1k5" V 5534 3950 50  0000 C CNN
F 2 "" V 5580 3950 50  0001 C CNN
F 3 "~" H 5650 3950 50  0001 C CNN
	1    5650 3950
	0    1    1    0   
$EndComp
Wire Wire Line
	5800 3550 5800 3950
Wire Wire Line
	5500 3550 5500 3950
$Comp
L Device:C C?
U 1 1 60354EDD
P 5650 3550
F 0 "C?" V 5398 3550 50  0000 C CNN
F 1 "100n" V 5489 3550 50  0000 C CNN
F 2 "" H 5688 3400 50  0001 C CNN
F 3 "~" H 5650 3550 50  0001 C CNN
	1    5650 3550
	0    1    1    0   
$EndComp
Connection ~ 5800 3550
Connection ~ 5500 3550
Wire Wire Line
	3500 3100 3500 3000
$Comp
L power:GND #PWR?
U 1 1 600A6DDF
P 3500 3100
F 0 "#PWR?" H 3500 2850 50  0001 C CNN
F 1 "GND" H 3505 2927 50  0000 C CNN
F 2 "" H 3500 3100 50  0001 C CNN
F 3 "" H 3500 3100 50  0001 C CNN
	1    3500 3100
	1    0    0    -1  
$EndComp
Wire Wire Line
	3500 2700 3950 2700
$Comp
L Device:C C?
U 1 1 600A5D3B
P 3500 2850
F 0 "C?" H 3615 2896 50  0000 L CNN
F 1 "100n" H 3615 2805 50  0000 L CNN
F 2 "" H 3538 2700 50  0001 C CNN
F 3 "~" H 3500 2850 50  0001 C CNN
	1    3500 2850
	1    0    0    -1  
$EndComp
Wire Wire Line
	5400 2700 5800 2700
Wire Wire Line
	5800 3150 5800 3550
Connection ~ 5800 3150
Wire Wire Line
	5500 3150 5500 3550
Connection ~ 5500 3150
$Comp
L Device:C C?
U 1 1 6035463F
P 5650 3150
F 0 "C?" V 5398 3150 50  0000 C CNN
F 1 "10u" V 5489 3150 50  0000 C CNN
F 2 "" H 5688 3000 50  0001 C CNN
F 3 "~" H 5650 3150 50  0001 C CNN
	1    5650 3150
	0    1    1    0   
$EndComp
Wire Wire Line
	5800 2700 5800 3150
Wire Wire Line
	5500 2800 5500 3150
Wire Wire Line
	5400 2800 5500 2800
Wire Wire Line
	4500 2800 4600 2800
Wire Wire Line
	4500 3100 4500 2800
Connection ~ 3950 2700
$Comp
L power:+5V #PWR?
U 1 1 5FFF2ED7
P 3950 2700
AR Path="/5FF26FEA/5FFF2ED7" Ref="#PWR?"  Part="1" 
AR Path="/5FF29AD4/5FFF09C6/5FFF2ED7" Ref="#PWR?"  Part="1" 
F 0 "#PWR?" H 3950 2550 50  0001 C CNN
F 1 "+5V" H 3965 2873 50  0000 C CNN
F 2 "" H 3950 2700 50  0001 C CNN
F 3 "" H 3950 2700 50  0001 C CNN
	1    3950 2700
	1    0    0    -1  
$EndComp
$Comp
L power:GND #PWR?
U 1 1 5FFF2ED1
P 4500 3100
AR Path="/5FF26FEA/5FFF2ED1" Ref="#PWR?"  Part="1" 
AR Path="/5FF29AD4/5FFF09C6/5FFF2ED1" Ref="#PWR?"  Part="1" 
F 0 "#PWR?" H 4500 2850 50  0001 C CNN
F 1 "GND" H 4505 2927 50  0000 C CNN
F 2 "" H 4500 3100 50  0001 C CNN
F 3 "" H 4500 3100 50  0001 C CNN
	1    4500 3100
	1    0    0    -1  
$EndComp
Wire Wire Line
	3950 2700 4600 2700
Wire Wire Line
	3950 3000 3950 3100
$Comp
L power:GND #PWR?
U 1 1 5FFF2EC3
P 3950 3100
AR Path="/5FDA6F72/5FFF2EC3" Ref="#PWR?"  Part="1" 
AR Path="/5FF26FEA/5FFF2EC3" Ref="#PWR?"  Part="1" 
AR Path="/5FF29AD4/5FFF09C6/5FFF2EC3" Ref="#PWR?"  Part="1" 
F 0 "#PWR?" H 3950 2850 50  0001 C CNN
F 1 "GND" H 3955 2927 50  0000 C CNN
F 2 "" H 3950 3100 50  0001 C CNN
F 3 "" H 3950 3100 50  0001 C CNN
	1    3950 3100
	1    0    0    -1  
$EndComp
$Comp
L Device:C C?
U 1 1 5FFF2EBD
P 3950 2850
AR Path="/5FDA6F72/5FFF2EBD" Ref="C?"  Part="1" 
AR Path="/5FF26FEA/5FFF2EBD" Ref="C?"  Part="1" 
AR Path="/5FF29AD4/5FFF09C6/5FFF2EBD" Ref="C?"  Part="1" 
F 0 "C?" H 4065 2896 50  0000 L CNN
F 1 "10u" H 4065 2805 50  0000 L CNN
F 2 "" H 3988 2700 50  0001 C CNN
F 3 "~" H 3950 2850 50  0001 C CNN
	1    3950 2850
	1    0    0    -1  
$EndComp
$Comp
L AMR_1D_magnetometer-rescue:R1SE-0515_H2-R-Regulator_Switching U?
U 1 1 5FFF0CDB
P 5000 2750
F 0 "U?" H 5000 3065 50  0000 C CNN
F 1 "R1SE-0515_H2-R" H 5000 2974 50  0000 C CNN
F 2 "" H 5000 3050 50  0001 C CNN
F 3 "" H 5000 3050 50  0001 C CNN
	1    5000 2750
	1    0    0    -1  
$EndComp
$EndSCHEMATC
