EESchema Schematic File Version 4
EELAYER 30 0
EELAYER END
$Descr A4 11693 8268
encoding utf-8
Sheet 4 12
Title ""
Date ""
Rev ""
Comp ""
Comment1 ""
Comment2 ""
Comment3 ""
Comment4 ""
$EndDescr
$Comp
L Device:C C25
U 1 1 5FDB47B8
P 4350 2600
F 0 "C25" H 4465 2646 50  0000 L CNN
F 1 "10u" H 4465 2555 50  0000 L CNN
F 2 "Capacitor_SMD:C_1210_3225Metric_Pad1.33x2.70mm_HandSolder" H 4388 2450 50  0001 C CNN
F 3 "~" H 4350 2600 50  0001 C CNN
	1    4350 2600
	1    0    0    -1  
$EndComp
$Comp
L Device:C C26
U 1 1 5FDB53AD
P 4750 2600
F 0 "C26" H 4865 2646 50  0000 L CNN
F 1 "100n" H 4865 2555 50  0000 L CNN
F 2 "Capacitor_SMD:C_0603_1608Metric_Pad1.08x0.95mm_HandSolder" H 4788 2450 50  0001 C CNN
F 3 "~" H 4750 2600 50  0001 C CNN
	1    4750 2600
	1    0    0    -1  
$EndComp
$Comp
L Device:C C27
U 1 1 5FDB5624
P 6150 2600
F 0 "C27" H 6265 2646 50  0000 L CNN
F 1 "1u" H 6265 2555 50  0000 L CNN
F 2 "Capacitor_SMD:C_2220_5650Metric_Pad1.97x5.40mm_HandSolder" H 6188 2450 50  0001 C CNN
F 3 "~" H 6150 2600 50  0001 C CNN
	1    6150 2600
	1    0    0    -1  
$EndComp
$Comp
L Device:C C28
U 1 1 5FDB5740
P 6500 2600
F 0 "C28" H 6615 2646 50  0000 L CNN
F 1 "100n" H 6615 2555 50  0000 L CNN
F 2 "Capacitor_SMD:C_1206_3216Metric_Pad1.33x1.80mm_HandSolder" H 6538 2450 50  0001 C CNN
F 3 "~" H 6500 2600 50  0001 C CNN
	1    6500 2600
	1    0    0    -1  
$EndComp
$Comp
L Device:R R10
U 1 1 5FDB8B2F
P 7600 2250
F 0 "R10" V 7393 2250 50  0000 C CNN
F 1 "1k" V 7484 2250 50  0000 C CNN
F 2 "Resistor_THT:R_Axial_DIN0207_L6.3mm_D2.5mm_P2.54mm_Vertical" V 7530 2250 50  0001 C CNN
F 3 "~" H 7600 2250 50  0001 C CNN
	1    7600 2250
	0    1    1    0   
$EndComp
$Comp
L Device:R R11
U 1 1 5FDBBCCB
P 7350 2400
F 0 "R11" H 7420 2446 50  0000 L CNN
F 1 "220k" H 7420 2355 50  0000 L CNN
F 2 "Resistor_SMD:R_0603_1608Metric_Pad0.98x0.95mm_HandSolder" V 7280 2400 50  0001 C CNN
F 3 "~" H 7350 2400 50  0001 C CNN
	1    7350 2400
	1    0    0    -1  
$EndComp
$Comp
L Device:R R12
U 1 1 5FDBC3B4
P 7350 2800
F 0 "R12" H 7420 2846 50  0000 L CNN
F 1 "3.3k" H 7420 2755 50  0000 L CNN
F 2 "Resistor_SMD:R_0603_1608Metric_Pad0.98x0.95mm_HandSolder" V 7280 2800 50  0001 C CNN
F 3 "~" H 7350 2800 50  0001 C CNN
	1    7350 2800
	1    0    0    -1  
$EndComp
Wire Wire Line
	4350 2450 4350 2250
Wire Wire Line
	4350 2250 4750 2250
Wire Wire Line
	4750 2450 4750 2250
Connection ~ 4750 2250
Wire Wire Line
	5350 2250 5500 2250
Wire Wire Line
	5500 2400 5500 2250
Connection ~ 5500 2250
Wire Wire Line
	5500 2250 5650 2250
Wire Wire Line
	5950 2250 6150 2250
Connection ~ 7350 2250
Wire Wire Line
	7350 2250 7450 2250
Wire Wire Line
	6500 2450 6500 2250
Wire Wire Line
	6150 2450 6150 2250
Wire Wire Line
	7350 2550 7350 2600
Wire Wire Line
	4350 2950 4350 2750
Wire Wire Line
	5500 2800 5500 2950
Connection ~ 5500 2950
Wire Wire Line
	6150 2750 6150 2950
Wire Wire Line
	6500 2750 6500 2950
$Comp
L power:GND #PWR038
U 1 1 5FDC0F91
P 3650 2950
F 0 "#PWR038" H 3650 2700 50  0001 C CNN
F 1 "GND" H 3655 2777 50  0000 C CNN
F 2 "" H 3650 2950 50  0001 C CNN
F 3 "" H 3650 2950 50  0001 C CNN
	1    3650 2950
	1    0    0    -1  
$EndComp
$Comp
L power:+5V #PWR037
U 1 1 5FDC14FD
P 3650 2250
F 0 "#PWR037" H 3650 2100 50  0001 C CNN
F 1 "+5V" H 3665 2423 50  0000 C CNN
F 2 "" H 3650 2250 50  0001 C CNN
F 3 "" H 3650 2250 50  0001 C CNN
	1    3650 2250
	1    0    0    -1  
$EndComp
Wire Wire Line
	7350 2600 7600 2600
Connection ~ 7350 2600
Wire Wire Line
	7350 2600 7350 2650
Text HLabel 7150 3150 0    50   Input ~ 0
V1_ADJ1
$Comp
L Device:C C24
U 1 1 5FDC52B5
P 3950 2600
F 0 "C24" H 4065 2646 50  0000 L CNN
F 1 "10u" H 4065 2555 50  0000 L CNN
F 2 "Capacitor_SMD:C_1210_3225Metric_Pad1.33x2.70mm_HandSolder" H 3988 2450 50  0001 C CNN
F 3 "~" H 3950 2600 50  0001 C CNN
	1    3950 2600
	1    0    0    -1  
$EndComp
Wire Wire Line
	3950 2450 3950 2250
Wire Wire Line
	4350 2250 3950 2250
Connection ~ 4350 2250
Connection ~ 3950 2250
Wire Wire Line
	3950 2250 3650 2250
Wire Wire Line
	3650 2950 3950 2950
Connection ~ 4350 2950
Wire Wire Line
	3950 2750 3950 2950
Connection ~ 3950 2950
Wire Wire Line
	3950 2950 4350 2950
Connection ~ 6150 2250
Connection ~ 6150 2950
Wire Wire Line
	6150 2950 5500 2950
Wire Wire Line
	6150 2250 6500 2250
Wire Wire Line
	6150 2950 6500 2950
$Comp
L Device:D_Schottky D8
U 1 1 5FDCA392
P 5800 2250
F 0 "D8" H 5800 2033 50  0000 C CNN
F 1 "D_Schottky" H 5800 2124 50  0000 C CNN
F 2 "Diode_SMD:D_SMB_Handsoldering" H 5800 2250 50  0001 C CNN
F 3 "~" H 5800 2250 50  0001 C CNN
	1    5800 2250
	-1   0    0    1   
$EndComp
$Comp
L Device:R R14
U 1 1 5FDCAFD5
P 4500 3700
F 0 "R14" V 4293 3700 50  0000 C CNN
F 1 "10" V 4384 3700 50  0000 C CNN
F 2 "Resistor_SMD:R_0603_1608Metric_Pad0.98x0.95mm_HandSolder" V 4430 3700 50  0001 C CNN
F 3 "~" H 4500 3700 50  0001 C CNN
	1    4500 3700
	0    1    1    0   
$EndComp
Text HLabel 9650 2250 2    50   Input ~ 0
V1_100V
Wire Wire Line
	4350 2950 4750 2950
Wire Wire Line
	4750 2750 4750 2950
Connection ~ 4750 2950
Wire Wire Line
	4750 2950 5500 2950
Text HLabel 1900 3700 0    50   Input ~ 0
V1_PWM
$Comp
L power:GND #PWR043
U 1 1 5FDD7BB1
P 3050 4250
F 0 "#PWR043" H 3050 4000 50  0001 C CNN
F 1 "GND" H 3055 4077 50  0000 C CNN
F 2 "" H 3050 4250 50  0001 C CNN
F 3 "" H 3050 4250 50  0001 C CNN
	1    3050 4250
	1    0    0    -1  
$EndComp
Wire Wire Line
	3150 3800 3050 3800
Text HLabel 1900 3900 0    50   Input ~ 0
V2_PWM
$Comp
L Device:R R16
U 1 1 5FDFEEE1
P 4500 3900
F 0 "R16" V 4293 3900 50  0000 C CNN
F 1 "10" V 4384 3900 50  0000 C CNN
F 2 "Resistor_SMD:R_0603_1608Metric_Pad0.98x0.95mm_HandSolder" V 4430 3900 50  0001 C CNN
F 3 "~" H 4500 3900 50  0001 C CNN
	1    4500 3900
	0    1    1    0   
$EndComp
Wire Wire Line
	5100 3700 5100 2600
Wire Wire Line
	5100 2600 5200 2600
Wire Wire Line
	4650 3700 5100 3700
$Comp
L Device:C C35
U 1 1 5FE2AEDF
P 4350 4750
F 0 "C35" H 4465 4796 50  0000 L CNN
F 1 "10u" H 4465 4705 50  0000 L CNN
F 2 "Capacitor_SMD:C_1210_3225Metric_Pad1.33x2.70mm_HandSolder" H 4388 4600 50  0001 C CNN
F 3 "~" H 4350 4750 50  0001 C CNN
	1    4350 4750
	1    0    0    -1  
$EndComp
$Comp
L Device:C C36
U 1 1 5FE2AEE5
P 4750 4750
F 0 "C36" H 4865 4796 50  0000 L CNN
F 1 "100n" H 4865 4705 50  0000 L CNN
F 2 "Capacitor_SMD:C_0603_1608Metric_Pad1.08x0.95mm_HandSolder" H 4788 4600 50  0001 C CNN
F 3 "~" H 4750 4750 50  0001 C CNN
	1    4750 4750
	1    0    0    -1  
$EndComp
$Comp
L Device:C C37
U 1 1 5FE2AEEB
P 6150 4750
F 0 "C37" H 6265 4796 50  0000 L CNN
F 1 "1u" H 6265 4705 50  0000 L CNN
F 2 "Capacitor_SMD:C_2220_5650Metric_Pad1.97x5.40mm_HandSolder" H 6188 4600 50  0001 C CNN
F 3 "~" H 6150 4750 50  0001 C CNN
	1    6150 4750
	1    0    0    -1  
$EndComp
$Comp
L Device:C C38
U 1 1 5FE2AEF1
P 6500 4750
F 0 "C38" H 6615 4796 50  0000 L CNN
F 1 "100n" H 6615 4705 50  0000 L CNN
F 2 "Capacitor_SMD:C_1206_3216Metric_Pad1.33x1.80mm_HandSolder" H 6538 4600 50  0001 C CNN
F 3 "~" H 6500 4750 50  0001 C CNN
	1    6500 4750
	1    0    0    -1  
$EndComp
$Comp
L Device:CP C40
U 1 1 5FE2AEF7
P 7900 4750
F 0 "C40" H 8018 4796 50  0000 L CNN
F 1 "100u" H 8018 4705 50  0000 L CNN
F 2 "Capacitor_THT:CP_Radial_D12.5mm_P5.00mm" H 7938 4600 50  0001 C CNN
F 3 "~" H 7900 4750 50  0001 C CNN
	1    7900 4750
	1    0    0    -1  
$EndComp
$Comp
L Device:D_Zener D11
U 1 1 5FE2AF03
P 8800 4750
F 0 "D11" V 8754 4830 50  0000 L CNN
F 1 "120V" V 8845 4830 50  0000 L CNN
F 2 "Diode_SMD:D_SMB_Handsoldering" H 8800 4750 50  0001 C CNN
F 3 "~" H 8800 4750 50  0001 C CNN
	1    8800 4750
	0    1    1    0   
$EndComp
$Comp
L Device:R R19
U 1 1 5FE2AF09
P 7600 4400
F 0 "R19" V 7393 4400 50  0000 C CNN
F 1 "1k" V 7484 4400 50  0000 C CNN
F 2 "Resistor_THT:R_Axial_DIN0207_L6.3mm_D2.5mm_P2.54mm_Vertical" V 7530 4400 50  0001 C CNN
F 3 "~" H 7600 4400 50  0001 C CNN
	1    7600 4400
	0    1    1    0   
$EndComp
$Comp
L Device:R R20
U 1 1 5FE2AF15
P 7350 4550
F 0 "R20" H 7420 4596 50  0000 L CNN
F 1 "220k" H 7420 4505 50  0000 L CNN
F 2 "Resistor_SMD:R_0603_1608Metric_Pad0.98x0.95mm_HandSolder" V 7280 4550 50  0001 C CNN
F 3 "~" H 7350 4550 50  0001 C CNN
	1    7350 4550
	1    0    0    -1  
$EndComp
$Comp
L Device:R R21
U 1 1 5FE2AF1B
P 7350 4950
F 0 "R21" H 7420 4996 50  0000 L CNN
F 1 "3.3k" H 7420 4905 50  0000 L CNN
F 2 "Resistor_SMD:R_0603_1608Metric_Pad0.98x0.95mm_HandSolder" V 7280 4950 50  0001 C CNN
F 3 "~" H 7350 4950 50  0001 C CNN
	1    7350 4950
	1    0    0    -1  
$EndComp
Wire Wire Line
	4350 4600 4350 4400
Wire Wire Line
	4350 4400 4750 4400
Wire Wire Line
	4750 4600 4750 4400
Connection ~ 4750 4400
Wire Wire Line
	5350 4400 5500 4400
Wire Wire Line
	5500 4550 5500 4400
Connection ~ 5500 4400
Wire Wire Line
	5500 4400 5650 4400
Wire Wire Line
	5950 4400 6150 4400
Connection ~ 7350 4400
Wire Wire Line
	7350 4400 7450 4400
Wire Wire Line
	6500 4600 6500 4400
Wire Wire Line
	6150 4600 6150 4400
Wire Wire Line
	7350 4700 7350 4750
Wire Wire Line
	7750 4400 7900 4400
Wire Wire Line
	7900 4400 7900 4600
Wire Wire Line
	8800 4400 8800 4600
Connection ~ 7900 4400
Wire Wire Line
	7350 5100 7900 5100
Wire Wire Line
	8800 5100 8800 4900
Wire Wire Line
	7900 4900 7900 5100
Connection ~ 7900 5100
Wire Wire Line
	4350 5100 4350 4900
Connection ~ 7350 5100
Wire Wire Line
	5500 4950 5500 5100
Connection ~ 5500 5100
Wire Wire Line
	6150 4900 6150 5100
Wire Wire Line
	6500 4900 6500 5100
$Comp
L power:GND #PWR045
U 1 1 5FE2AF44
P 3700 5100
F 0 "#PWR045" H 3700 4850 50  0001 C CNN
F 1 "GND" H 3705 4927 50  0000 C CNN
F 2 "" H 3700 5100 50  0001 C CNN
F 3 "" H 3700 5100 50  0001 C CNN
	1    3700 5100
	1    0    0    -1  
$EndComp
$Comp
L power:+5V #PWR044
U 1 1 5FE2AF4A
P 3700 4400
F 0 "#PWR044" H 3700 4250 50  0001 C CNN
F 1 "+5V" H 3715 4573 50  0000 C CNN
F 2 "" H 3700 4400 50  0001 C CNN
F 3 "" H 3700 4400 50  0001 C CNN
	1    3700 4400
	1    0    0    -1  
$EndComp
Wire Wire Line
	7350 4750 7600 4750
Connection ~ 7350 4750
Wire Wire Line
	7350 4750 7350 4800
Text HLabel 7150 5300 0    50   Input ~ 0
V2_ADJ1
$Comp
L Device:C C34
U 1 1 5FE2AF64
P 3950 4750
F 0 "C34" H 4065 4796 50  0000 L CNN
F 1 "10u" H 4065 4705 50  0000 L CNN
F 2 "Capacitor_SMD:C_1210_3225Metric_Pad1.33x2.70mm_HandSolder" H 3988 4600 50  0001 C CNN
F 3 "~" H 3950 4750 50  0001 C CNN
	1    3950 4750
	1    0    0    -1  
$EndComp
Wire Wire Line
	3950 4600 3950 4400
Wire Wire Line
	4350 4400 3950 4400
Connection ~ 4350 4400
Connection ~ 3950 4400
Wire Wire Line
	3950 4400 3700 4400
Wire Wire Line
	3700 5100 3950 5100
Connection ~ 4350 5100
Wire Wire Line
	3950 4900 3950 5100
Connection ~ 3950 5100
Wire Wire Line
	3950 5100 4350 5100
Connection ~ 6150 4400
Connection ~ 6150 5100
Wire Wire Line
	6150 5100 5500 5100
Wire Wire Line
	6150 4400 6500 4400
Wire Wire Line
	6150 5100 6500 5100
$Comp
L Device:D_Schottky D10
U 1 1 5FE2AF79
P 5800 4400
F 0 "D10" H 5800 4183 50  0000 C CNN
F 1 "D_Schottky" H 5800 4274 50  0000 C CNN
F 2 "Diode_SMD:D_SMB_Handsoldering" H 5800 4400 50  0001 C CNN
F 3 "~" H 5800 4400 50  0001 C CNN
	1    5800 4400
	-1   0    0    1   
$EndComp
Text HLabel 9100 4400 2    50   Input ~ 0
V2_100V
Wire Wire Line
	4350 5100 4750 5100
Wire Wire Line
	4750 4900 4750 5100
Connection ~ 4750 5100
Wire Wire Line
	4750 5100 5500 5100
Wire Wire Line
	4750 4400 5050 4400
Wire Wire Line
	5000 4750 5000 3900
Wire Wire Line
	5000 3900 4650 3900
Wire Wire Line
	5000 4750 5200 4750
NoConn ~ 3150 3600
NoConn ~ 4350 3600
$Comp
L Device:L_Core_Ferrite L2
U 1 1 5FE750A2
P 5200 2250
F 0 "L2" V 5019 2250 50  0000 C CNN
F 1 "220u" V 5110 2250 50  0000 C CNN
F 2 "Inductor_SMD:L_Bourns_SRR1260" H 5200 2250 50  0001 C CNN
F 3 "~" H 5200 2250 50  0001 C CNN
	1    5200 2250
	0    1    1    0   
$EndComp
$Comp
L Device:L_Core_Ferrite L3
U 1 1 5FE76E63
P 5200 4400
F 0 "L3" V 5019 4400 50  0000 C CNN
F 1 "220u" V 5110 4400 50  0000 C CNN
F 2 "Inductor_SMD:L_Bourns_SRR1260" H 5200 4400 50  0001 C CNN
F 3 "~" H 5200 4400 50  0001 C CNN
	1    5200 4400
	0    1    1    0   
$EndComp
$Comp
L Device:R R17
U 1 1 601DB101
P 2400 4100
F 0 "R17" H 2470 4146 50  0000 L CNN
F 1 "10k" H 2470 4055 50  0000 L CNN
F 2 "Resistor_SMD:R_0603_1608Metric_Pad0.98x0.95mm_HandSolder" V 2330 4100 50  0001 C CNN
F 3 "~" H 2400 4100 50  0001 C CNN
	1    2400 4100
	1    0    0    -1  
$EndComp
$Comp
L Device:R R18
U 1 1 601DB829
P 2700 4100
F 0 "R18" H 2770 4146 50  0000 L CNN
F 1 "10k" H 2770 4055 50  0000 L CNN
F 2 "Resistor_SMD:R_0603_1608Metric_Pad0.98x0.95mm_HandSolder" V 2630 4100 50  0001 C CNN
F 3 "~" H 2700 4100 50  0001 C CNN
	1    2700 4100
	1    0    0    -1  
$EndComp
Wire Wire Line
	2400 3950 2400 3900
Connection ~ 2400 3900
Wire Wire Line
	2400 3900 3150 3900
Wire Wire Line
	2700 3950 2700 3700
Connection ~ 2700 3700
Wire Wire Line
	2700 3700 3150 3700
$Comp
L power:GND #PWR041
U 1 1 601ECD04
P 2400 4250
F 0 "#PWR041" H 2400 4000 50  0001 C CNN
F 1 "GND" H 2405 4077 50  0000 C CNN
F 2 "" H 2400 4250 50  0001 C CNN
F 3 "" H 2400 4250 50  0001 C CNN
	1    2400 4250
	1    0    0    -1  
$EndComp
$Comp
L power:GND #PWR042
U 1 1 601ED50A
P 2700 4250
F 0 "#PWR042" H 2700 4000 50  0001 C CNN
F 1 "GND" H 2705 4077 50  0000 C CNN
F 2 "" H 2700 4250 50  0001 C CNN
F 3 "" H 2700 4250 50  0001 C CNN
	1    2700 4250
	1    0    0    -1  
$EndComp
Wire Wire Line
	3050 3800 3050 4250
$Comp
L Device:C C32
U 1 1 601F4FF2
P 5400 3950
F 0 "C32" H 5515 3996 50  0000 L CNN
F 1 "100n" H 5515 3905 50  0000 L CNN
F 2 "Capacitor_SMD:C_0603_1608Metric_Pad1.08x0.95mm_HandSolder" H 5438 3800 50  0001 C CNN
F 3 "~" H 5400 3950 50  0001 C CNN
	1    5400 3950
	1    0    0    -1  
$EndComp
$Comp
L power:GND #PWR039
U 1 1 601F9430
P 5400 4100
F 0 "#PWR039" H 5400 3850 50  0001 C CNN
F 1 "GND" H 5405 3927 50  0000 C CNN
F 2 "" H 5400 4100 50  0001 C CNN
F 3 "" H 5400 4100 50  0001 C CNN
	1    5400 4100
	1    0    0    -1  
$EndComp
$Comp
L Device:CP C29
U 1 1 6022999F
P 6950 2600
F 0 "C29" H 7068 2646 50  0000 L CNN
F 1 "10u" H 7068 2555 50  0000 L CNN
F 2 "Capacitor_THT:CP_Radial_D10.0mm_P5.00mm" H 6988 2450 50  0001 C CNN
F 3 "~" H 6950 2600 50  0001 C CNN
	1    6950 2600
	1    0    0    -1  
$EndComp
Wire Wire Line
	6950 2450 6950 2250
Wire Wire Line
	6950 2250 6500 2250
Connection ~ 6500 2250
Wire Wire Line
	6500 2950 6950 2950
Wire Wire Line
	6950 2950 6950 2750
Connection ~ 6500 2950
Wire Wire Line
	6950 2950 7350 2950
Connection ~ 6950 2950
Wire Wire Line
	6950 2250 7350 2250
Connection ~ 6950 2250
$Comp
L Device:CP C39
U 1 1 6026C303
P 6950 4750
F 0 "C39" H 7068 4796 50  0000 L CNN
F 1 "10u" H 7068 4705 50  0000 L CNN
F 2 "Capacitor_THT:CP_Radial_D10.0mm_P5.00mm" H 6988 4600 50  0001 C CNN
F 3 "~" H 6950 4750 50  0001 C CNN
	1    6950 4750
	1    0    0    -1  
$EndComp
Wire Wire Line
	6950 4600 6950 4400
Wire Wire Line
	6950 5100 6950 4900
Wire Wire Line
	6500 4400 6950 4400
Connection ~ 6500 4400
Connection ~ 6950 4400
Wire Wire Line
	6950 4400 7350 4400
Wire Wire Line
	6500 5100 6950 5100
Connection ~ 6500 5100
Connection ~ 6950 5100
Wire Wire Line
	6950 5100 7350 5100
$Comp
L AMR_1D_magnetometer-rescue:TC4427A-Driver_FET U5
U 1 1 601BA890
P 3750 3750
F 0 "U5" H 3750 4165 50  0000 C CNN
F 1 "TC4427A" H 3750 4074 50  0000 C CNN
F 2 "Package_SO:SOIC-8_3.9x4.9mm_P1.27mm" H 3750 4050 50  0001 C CNN
F 3 "" H 3750 4050 50  0001 C CNN
	1    3750 3750
	1    0    0    -1  
$EndComp
$Comp
L Device:C C33
U 1 1 6021F2EC
P 7350 3350
F 0 "C33" H 7465 3396 50  0000 L CNN
F 1 "100n" H 7465 3305 50  0000 L CNN
F 2 "Capacitor_SMD:C_0603_1608Metric_Pad1.08x0.95mm_HandSolder" H 7388 3200 50  0001 C CNN
F 3 "~" H 7350 3350 50  0001 C CNN
	1    7350 3350
	1    0    0    -1  
$EndComp
$Comp
L power:GND #PWR040
U 1 1 6021F2F2
P 7350 3500
F 0 "#PWR040" H 7350 3250 50  0001 C CNN
F 1 "GND" H 7355 3327 50  0000 C CNN
F 2 "" H 7350 3500 50  0001 C CNN
F 3 "" H 7350 3500 50  0001 C CNN
	1    7350 3500
	1    0    0    -1  
$EndComp
Wire Wire Line
	7350 3150 7350 3200
Wire Wire Line
	7150 3150 7350 3150
Wire Wire Line
	7350 3150 7600 3150
Wire Wire Line
	7600 3150 7600 2600
Connection ~ 7350 3150
$Comp
L Device:C C42
U 1 1 6025BED6
P 7350 5500
F 0 "C42" H 7465 5546 50  0000 L CNN
F 1 "100n" H 7465 5455 50  0000 L CNN
F 2 "Capacitor_SMD:C_0603_1608Metric_Pad1.08x0.95mm_HandSolder" H 7388 5350 50  0001 C CNN
F 3 "~" H 7350 5500 50  0001 C CNN
	1    7350 5500
	1    0    0    -1  
$EndComp
$Comp
L power:GND #PWR046
U 1 1 6025BEDC
P 7350 5650
F 0 "#PWR046" H 7350 5400 50  0001 C CNN
F 1 "GND" H 7355 5477 50  0000 C CNN
F 2 "" H 7350 5650 50  0001 C CNN
F 3 "" H 7350 5650 50  0001 C CNN
	1    7350 5650
	1    0    0    -1  
$EndComp
Wire Wire Line
	7350 5300 7350 5350
Wire Wire Line
	7150 5300 7350 5300
Wire Wire Line
	7350 5300 7600 5300
Wire Wire Line
	7600 5300 7600 4750
Connection ~ 7350 5300
Connection ~ 8800 4400
Wire Wire Line
	8800 4400 9100 4400
Wire Wire Line
	7900 4400 8350 4400
$Comp
L Device:CP C41
U 1 1 60422F05
P 8350 4750
F 0 "C41" H 8468 4796 50  0000 L CNN
F 1 "100u" H 8468 4705 50  0000 L CNN
F 2 "Capacitor_THT:CP_Radial_D12.5mm_P5.00mm" H 8388 4600 50  0001 C CNN
F 3 "~" H 8350 4750 50  0001 C CNN
	1    8350 4750
	1    0    0    -1  
$EndComp
Wire Wire Line
	8350 4400 8350 4600
Wire Wire Line
	8350 4900 8350 5100
Connection ~ 8350 4400
Wire Wire Line
	8350 4400 8800 4400
Wire Wire Line
	7900 5100 8350 5100
Connection ~ 8350 5100
Wire Wire Line
	8350 5100 8800 5100
$Comp
L Device:CP C30
U 1 1 60432C85
P 7900 2600
F 0 "C30" H 8018 2646 50  0000 L CNN
F 1 "100u" H 8018 2555 50  0000 L CNN
F 2 "Capacitor_THT:CP_Radial_D12.5mm_P5.00mm" H 7938 2450 50  0001 C CNN
F 3 "~" H 7900 2600 50  0001 C CNN
	1    7900 2600
	1    0    0    -1  
$EndComp
$Comp
L Device:D_Zener D9
U 1 1 60432C8B
P 8800 2600
F 0 "D9" V 8754 2680 50  0000 L CNN
F 1 "120V" V 8845 2680 50  0000 L CNN
F 2 "Diode_SMD:D_SMB_Handsoldering" H 8800 2600 50  0001 C CNN
F 3 "~" H 8800 2600 50  0001 C CNN
	1    8800 2600
	0    1    1    0   
$EndComp
Wire Wire Line
	7900 2250 7900 2450
Wire Wire Line
	8800 2250 8800 2450
Wire Wire Line
	8800 2950 8800 2750
Wire Wire Line
	7900 2750 7900 2950
$Comp
L Device:CP C31
U 1 1 60432C95
P 8350 2600
F 0 "C31" H 8468 2646 50  0000 L CNN
F 1 "100u" H 8468 2555 50  0000 L CNN
F 2 "Capacitor_THT:CP_Radial_D12.5mm_P5.00mm" H 8388 2450 50  0001 C CNN
F 3 "~" H 8350 2600 50  0001 C CNN
	1    8350 2600
	1    0    0    -1  
$EndComp
Wire Wire Line
	8350 2250 8350 2450
Wire Wire Line
	8350 2750 8350 2950
Wire Wire Line
	8350 2950 8800 2950
$Comp
L Device:Q_NMOS_GDS Q1
U 1 1 601D45E8
P 5400 2600
F 0 "Q1" H 5604 2646 50  0000 L CNN
F 1 "Q_NMOS_GDS" H 5604 2555 50  0000 L CNN
F 2 "Package_TO_SOT_THT:TO-220-3_Vertical" H 5600 2700 50  0001 C CNN
F 3 "~" H 5400 2600 50  0001 C CNN
	1    5400 2600
	1    0    0    -1  
$EndComp
$Comp
L Device:Q_NMOS_GDS Q2
U 1 1 601D35BB
P 5400 4750
F 0 "Q2" H 5604 4796 50  0000 L CNN
F 1 "Q_NMOS_GDS" H 5604 4705 50  0000 L CNN
F 2 "Package_TO_SOT_THT:TO-220-3_Vertical" H 5600 4850 50  0001 C CNN
F 3 "~" H 5400 4750 50  0001 C CNN
	1    5400 4750
	1    0    0    -1  
$EndComp
Wire Wire Line
	1900 3700 2700 3700
Wire Wire Line
	1900 3900 2400 3900
Wire Wire Line
	7750 2250 7900 2250
Connection ~ 7900 2250
Wire Wire Line
	7900 2250 8350 2250
Connection ~ 8350 2250
Wire Wire Line
	8350 2250 8800 2250
Connection ~ 8800 2250
Wire Wire Line
	7350 2950 7900 2950
Connection ~ 7350 2950
Connection ~ 8350 2950
Connection ~ 7900 2950
Wire Wire Line
	7900 2950 8350 2950
Text HLabel 9000 3150 0    50   Input ~ 0
V1_ADJ2
$Comp
L Device:C C116
U 1 1 6080CFFD
P 9200 3350
F 0 "C116" H 9315 3396 50  0000 L CNN
F 1 "100n" H 9315 3305 50  0000 L CNN
F 2 "Capacitor_SMD:C_0603_1608Metric_Pad1.08x0.95mm_HandSolder" H 9238 3200 50  0001 C CNN
F 3 "~" H 9200 3350 50  0001 C CNN
	1    9200 3350
	1    0    0    -1  
$EndComp
$Comp
L power:GND #PWR0116
U 1 1 6080D003
P 9200 3500
F 0 "#PWR0116" H 9200 3250 50  0001 C CNN
F 1 "GND" H 9205 3327 50  0000 C CNN
F 2 "" H 9200 3500 50  0001 C CNN
F 3 "" H 9200 3500 50  0001 C CNN
	1    9200 3500
	1    0    0    -1  
$EndComp
Wire Wire Line
	9200 3150 9200 3200
Wire Wire Line
	9000 3150 9200 3150
Wire Wire Line
	9200 3150 9450 3150
Wire Wire Line
	9450 3150 9450 2600
Connection ~ 9200 3150
$Comp
L Device:R R57
U 1 1 60811980
P 9200 2400
F 0 "R57" H 9270 2446 50  0000 L CNN
F 1 "220k" H 9270 2355 50  0000 L CNN
F 2 "Resistor_SMD:R_0603_1608Metric_Pad0.98x0.95mm_HandSolder" V 9130 2400 50  0001 C CNN
F 3 "~" H 9200 2400 50  0001 C CNN
	1    9200 2400
	1    0    0    -1  
$EndComp
$Comp
L Device:R R58
U 1 1 60811986
P 9200 2800
F 0 "R58" H 9270 2846 50  0000 L CNN
F 1 "3.3k" H 9270 2755 50  0000 L CNN
F 2 "Resistor_SMD:R_0603_1608Metric_Pad0.98x0.95mm_HandSolder" V 9130 2800 50  0001 C CNN
F 3 "~" H 9200 2800 50  0001 C CNN
	1    9200 2800
	1    0    0    -1  
$EndComp
Wire Wire Line
	9200 2550 9200 2600
Wire Wire Line
	9200 2600 9450 2600
Connection ~ 9200 2600
Wire Wire Line
	9200 2600 9200 2650
Wire Wire Line
	8800 2950 9200 2950
Connection ~ 8800 2950
Wire Wire Line
	8800 2250 9200 2250
Connection ~ 9200 2250
Wire Wire Line
	9200 2250 9650 2250
Wire Wire Line
	4750 2250 5050 2250
Wire Wire Line
	4350 3800 5400 3800
$Comp
L power:+15V #PWR0135
U 1 1 6054BF83
P 5400 3750
F 0 "#PWR0135" H 5400 3600 50  0001 C CNN
F 1 "+15V" H 5415 3923 50  0000 C CNN
F 2 "" H 5400 3750 50  0001 C CNN
F 3 "" H 5400 3750 50  0001 C CNN
	1    5400 3750
	1    0    0    -1  
$EndComp
Wire Wire Line
	5400 3750 5400 3800
Connection ~ 5400 3800
$Comp
L Device:CP C144
U 1 1 609B54AB
P 3650 2600
F 0 "C144" H 3768 2646 50  0000 L CNN
F 1 "1000u" H 3768 2555 50  0000 L CNN
F 2 "Capacitor_THT:CP_Radial_D12.5mm_P5.00mm" H 3688 2450 50  0001 C CNN
F 3 "~" H 3650 2600 50  0001 C CNN
	1    3650 2600
	1    0    0    -1  
$EndComp
$Comp
L Device:CP C148
U 1 1 609B64B1
P 3700 4750
F 0 "C148" H 3818 4796 50  0000 L CNN
F 1 "1000u" H 3818 4705 50  0000 L CNN
F 2 "Capacitor_THT:CP_Radial_D12.5mm_P5.00mm" H 3738 4600 50  0001 C CNN
F 3 "~" H 3700 4750 50  0001 C CNN
	1    3700 4750
	1    0    0    -1  
$EndComp
Wire Wire Line
	3700 4600 3700 4400
Connection ~ 3700 4400
Wire Wire Line
	3700 4900 3700 5100
Connection ~ 3700 5100
Wire Wire Line
	3650 2450 3650 2250
Connection ~ 3650 2250
Wire Wire Line
	3650 2750 3650 2950
Connection ~ 3650 2950
$EndSCHEMATC
