EESchema Schematic File Version 4
EELAYER 30 0
EELAYER END
$Descr A4 11693 8268
encoding utf-8
Sheet 12 13
Title ""
Date ""
Rev ""
Comp ""
Comment1 ""
Comment2 ""
Comment3 ""
Comment4 ""
$EndDescr
$Comp
L Regulator_Linear:LP2985-3.3 U?
U 1 1 5FF2E676
P 7100 2650
AR Path="/5FDA6F72/5FF2E676" Ref="U?"  Part="1" 
AR Path="/5FF26FEA/5FF2E676" Ref="U?"  Part="1" 
AR Path="/5FF29AD4/5FFEE41D/6010CEC8/5FF2E676" Ref="U?"  Part="1" 
F 0 "U?" H 7100 2992 50  0000 C CNN
F 1 "LP2985-3.3" H 7100 2901 50  0000 C CNN
F 2 "Package_TO_SOT_SMD:SOT-23-5" H 7100 2975 50  0001 C CNN
F 3 "http://www.ti.com/lit/ds/symlink/lp2985.pdf" H 7100 2650 50  0001 C CNN
	1    7100 2650
	1    0    0    -1  
$EndComp
$Comp
L Device:C C?
U 1 1 5FF2E682
P 6300 2700
AR Path="/5FDA6F72/5FF2E682" Ref="C?"  Part="1" 
AR Path="/5FF26FEA/5FF2E682" Ref="C?"  Part="1" 
AR Path="/5FF29AD4/5FFEE41D/6010CEC8/5FF2E682" Ref="C?"  Part="1" 
F 0 "C?" H 6415 2746 50  0000 L CNN
F 1 "3u" H 6415 2655 50  0000 L CNN
F 2 "" H 6338 2550 50  0001 C CNN
F 3 "~" H 6300 2700 50  0001 C CNN
	1    6300 2700
	1    0    0    -1  
$EndComp
$Comp
L Device:C C?
U 1 1 5FF2E688
P 8050 2700
AR Path="/5FDA6F72/5FF2E688" Ref="C?"  Part="1" 
AR Path="/5FF26FEA/5FF2E688" Ref="C?"  Part="1" 
AR Path="/5FF29AD4/5FFEE41D/6010CEC8/5FF2E688" Ref="C?"  Part="1" 
F 0 "C?" H 8165 2746 50  0000 L CNN
F 1 "3u" H 8165 2655 50  0000 L CNN
F 2 "" H 8088 2550 50  0001 C CNN
F 3 "~" H 8050 2700 50  0001 C CNN
	1    8050 2700
	1    0    0    -1  
$EndComp
$Comp
L Device:C C?
U 1 1 5FF2E68E
P 7700 2800
AR Path="/5FDA6F72/5FF2E68E" Ref="C?"  Part="1" 
AR Path="/5FF26FEA/5FF2E68E" Ref="C?"  Part="1" 
AR Path="/5FF29AD4/5FFEE41D/6010CEC8/5FF2E68E" Ref="C?"  Part="1" 
F 0 "C?" H 7815 2846 50  0000 L CNN
F 1 "10n" H 7815 2755 50  0000 L CNN
F 2 "" H 7738 2650 50  0001 C CNN
F 3 "~" H 7700 2800 50  0001 C CNN
	1    7700 2800
	1    0    0    -1  
$EndComp
Wire Wire Line
	7500 2550 8050 2550
Wire Wire Line
	7700 2650 7500 2650
Wire Wire Line
	6700 2650 6600 2650
Wire Wire Line
	6600 2650 6600 2550
Wire Wire Line
	6600 2550 6700 2550
Wire Wire Line
	8050 2850 8050 2950
Wire Wire Line
	6300 2850 6300 2950
Connection ~ 6600 2550
Wire Wire Line
	6300 2550 6600 2550
Wire Wire Line
	5450 2550 5800 2550
Connection ~ 6300 2550
$Comp
L Device:C C?
U 1 1 5FF3325B
P 4000 2700
AR Path="/5FDA6F72/5FF3325B" Ref="C?"  Part="1" 
AR Path="/5FF26FEA/5FF3325B" Ref="C?"  Part="1" 
AR Path="/5FF29AD4/5FFEE41D/6010CEC8/5FF3325B" Ref="C?"  Part="1" 
F 0 "C?" H 4115 2746 50  0000 L CNN
F 1 "6.8u" H 4115 2655 50  0000 L CNN
F 2 "" H 4038 2550 50  0001 C CNN
F 3 "~" H 4000 2700 50  0001 C CNN
	1    4000 2700
	1    0    0    -1  
$EndComp
$Comp
L power:GND #PWR?
U 1 1 5FF33261
P 4000 2950
AR Path="/5FDA6F72/5FF33261" Ref="#PWR?"  Part="1" 
AR Path="/5FF26FEA/5FF33261" Ref="#PWR?"  Part="1" 
AR Path="/5FF29AD4/5FFEE41D/6010CEC8/5FF33261" Ref="#PWR?"  Part="1" 
F 0 "#PWR?" H 4000 2700 50  0001 C CNN
F 1 "GND" H 4005 2777 50  0000 C CNN
F 2 "" H 4000 2950 50  0001 C CNN
F 3 "" H 4000 2950 50  0001 C CNN
	1    4000 2950
	1    0    0    -1  
$EndComp
Wire Wire Line
	4000 2850 4000 2950
Wire Wire Line
	4000 2550 4650 2550
$Comp
L power:GNDA #PWR?
U 1 1 5FF34651
P 6300 2950
AR Path="/5FF26FEA/5FF34651" Ref="#PWR?"  Part="1" 
AR Path="/5FF29AD4/5FFEE41D/6010CEC8/5FF34651" Ref="#PWR?"  Part="1" 
F 0 "#PWR?" H 6300 2700 50  0001 C CNN
F 1 "GNDA" H 6305 2777 50  0000 C CNN
F 2 "" H 6300 2950 50  0001 C CNN
F 3 "" H 6300 2950 50  0001 C CNN
	1    6300 2950
	1    0    0    -1  
$EndComp
$Comp
L power:GNDA #PWR?
U 1 1 5FF34B19
P 7100 2950
AR Path="/5FF26FEA/5FF34B19" Ref="#PWR?"  Part="1" 
AR Path="/5FF29AD4/5FFEE41D/6010CEC8/5FF34B19" Ref="#PWR?"  Part="1" 
F 0 "#PWR?" H 7100 2700 50  0001 C CNN
F 1 "GNDA" H 7105 2777 50  0000 C CNN
F 2 "" H 7100 2950 50  0001 C CNN
F 3 "" H 7100 2950 50  0001 C CNN
	1    7100 2950
	1    0    0    -1  
$EndComp
$Comp
L power:GNDA #PWR?
U 1 1 5FF34EBA
P 7700 2950
AR Path="/5FF26FEA/5FF34EBA" Ref="#PWR?"  Part="1" 
AR Path="/5FF29AD4/5FFEE41D/6010CEC8/5FF34EBA" Ref="#PWR?"  Part="1" 
F 0 "#PWR?" H 7700 2700 50  0001 C CNN
F 1 "GNDA" H 7705 2777 50  0000 C CNN
F 2 "" H 7700 2950 50  0001 C CNN
F 3 "" H 7700 2950 50  0001 C CNN
	1    7700 2950
	1    0    0    -1  
$EndComp
$Comp
L power:GNDA #PWR?
U 1 1 5FF3525C
P 8050 2950
AR Path="/5FF26FEA/5FF3525C" Ref="#PWR?"  Part="1" 
AR Path="/5FF29AD4/5FFEE41D/6010CEC8/5FF3525C" Ref="#PWR?"  Part="1" 
F 0 "#PWR?" H 8050 2700 50  0001 C CNN
F 1 "GNDA" H 8055 2777 50  0000 C CNN
F 2 "" H 8050 2950 50  0001 C CNN
F 3 "" H 8050 2950 50  0001 C CNN
	1    8050 2950
	1    0    0    -1  
$EndComp
$Comp
L power:GNDA #PWR?
U 1 1 5FF356D8
P 5500 2950
AR Path="/5FF26FEA/5FF356D8" Ref="#PWR?"  Part="1" 
AR Path="/5FF29AD4/5FFEE41D/6010CEC8/5FF356D8" Ref="#PWR?"  Part="1" 
F 0 "#PWR?" H 5500 2700 50  0001 C CNN
F 1 "GNDA" H 5505 2777 50  0000 C CNN
F 2 "" H 5500 2950 50  0001 C CNN
F 3 "" H 5500 2950 50  0001 C CNN
	1    5500 2950
	1    0    0    -1  
$EndComp
$Comp
L power:GND #PWR?
U 1 1 5FF35E92
P 4600 2950
AR Path="/5FF26FEA/5FF35E92" Ref="#PWR?"  Part="1" 
AR Path="/5FF29AD4/5FFEE41D/6010CEC8/5FF35E92" Ref="#PWR?"  Part="1" 
F 0 "#PWR?" H 4600 2700 50  0001 C CNN
F 1 "GND" H 4605 2777 50  0000 C CNN
F 2 "" H 4600 2950 50  0001 C CNN
F 3 "" H 4600 2950 50  0001 C CNN
	1    4600 2950
	1    0    0    -1  
$EndComp
$Comp
L power:+5V #PWR?
U 1 1 5FF36888
P 4000 2550
AR Path="/5FF26FEA/5FF36888" Ref="#PWR?"  Part="1" 
AR Path="/5FF29AD4/5FFEE41D/6010CEC8/5FF36888" Ref="#PWR?"  Part="1" 
F 0 "#PWR?" H 4000 2400 50  0001 C CNN
F 1 "+5V" H 4015 2723 50  0000 C CNN
F 2 "" H 4000 2550 50  0001 C CNN
F 3 "" H 4000 2550 50  0001 C CNN
	1    4000 2550
	1    0    0    -1  
$EndComp
Connection ~ 4000 2550
$Comp
L power:+3.3VA #PWR?
U 1 1 5FF58B4A
P 8050 2550
AR Path="/5FF26FEA/5FF58B4A" Ref="#PWR?"  Part="1" 
AR Path="/5FF29AD4/5FFEE41D/6010CEC8/5FF58B4A" Ref="#PWR?"  Part="1" 
F 0 "#PWR?" H 8050 2400 50  0001 C CNN
F 1 "+3.3VA" H 8065 2723 50  0000 C CNN
F 2 "" H 8050 2550 50  0001 C CNN
F 3 "" H 8050 2550 50  0001 C CNN
	1    8050 2550
	1    0    0    -1  
$EndComp
Connection ~ 8050 2550
$Comp
L AMR_1D_magnetometer-rescue:ADuM141D-Isolator U?
U 1 1 5FFD1275
P 5600 5650
AR Path="/5FF26FEA/5FFD1275" Ref="U?"  Part="1" 
AR Path="/5FF29AD4/5FFEE41D/6010CEC8/5FFD1275" Ref="U?"  Part="1" 
F 0 "U?" H 5600 6265 50  0000 C CNN
F 1 "ADuM141D" H 5600 6174 50  0000 C CNN
F 2 "" H 5600 6250 50  0001 C CNN
F 3 "" H 5600 6250 50  0001 C CNN
	1    5600 5650
	1    0    0    -1  
$EndComp
Text HLabel 4800 5500 0    50   Input ~ 0
MOSI_MCU
Text HLabel 4800 5800 0    50   Input ~ 0
MISO_MCU
Text HLabel 4800 5700 0    50   Input ~ 0
SCK_MCU
Text HLabel 4800 5600 0    50   Input ~ 0
CNV_MCU
Text HLabel 6450 5500 2    50   Input ~ 0
MOSI_ADC
Text HLabel 6450 5800 2    50   Input ~ 0
MISO_ADC
Text HLabel 6450 5700 2    50   Input ~ 0
SCK_ADC
Text HLabel 6450 5600 2    50   Input ~ 0
CNV_ADC
Wire Wire Line
	4800 5800 5050 5800
Wire Wire Line
	4800 5700 5050 5700
Wire Wire Line
	4800 5600 5050 5600
Wire Wire Line
	4800 5500 5050 5500
Wire Wire Line
	6150 5500 6450 5500
Wire Wire Line
	6150 5600 6450 5600
Wire Wire Line
	6150 5700 6450 5700
Wire Wire Line
	6150 5800 6450 5800
Wire Wire Line
	5050 5400 4950 5400
Wire Wire Line
	4950 5400 4950 5900
Wire Wire Line
	4950 6000 5050 6000
Wire Wire Line
	6150 5400 6250 5400
Wire Wire Line
	6250 5400 6250 5900
Wire Wire Line
	6250 6000 6150 6000
$Comp
L power:GND #PWR?
U 1 1 5FFDA1BE
P 4950 6100
AR Path="/5FF26FEA/5FFDA1BE" Ref="#PWR?"  Part="1" 
AR Path="/5FF29AD4/5FFEE41D/6010CEC8/5FFDA1BE" Ref="#PWR?"  Part="1" 
F 0 "#PWR?" H 4950 5850 50  0001 C CNN
F 1 "GND" H 4955 5927 50  0000 C CNN
F 2 "" H 4950 6100 50  0001 C CNN
F 3 "" H 4950 6100 50  0001 C CNN
	1    4950 6100
	1    0    0    -1  
$EndComp
Wire Wire Line
	4950 6100 4950 6000
Connection ~ 4950 6000
$Comp
L power:GNDA #PWR?
U 1 1 5FFDAEBD
P 6250 6100
AR Path="/5FF26FEA/5FFDAEBD" Ref="#PWR?"  Part="1" 
AR Path="/5FF29AD4/5FFEE41D/6010CEC8/5FFDAEBD" Ref="#PWR?"  Part="1" 
F 0 "#PWR?" H 6250 5850 50  0001 C CNN
F 1 "GNDA" H 6255 5927 50  0000 C CNN
F 2 "" H 6250 6100 50  0001 C CNN
F 3 "" H 6250 6100 50  0001 C CNN
	1    6250 6100
	1    0    0    -1  
$EndComp
Wire Wire Line
	6250 6100 6250 6000
Connection ~ 6250 6000
Wire Wire Line
	4600 2950 4600 2650
Wire Wire Line
	5450 2650 5500 2650
Wire Wire Line
	5500 2650 5500 2850
Wire Wire Line
	4950 5900 5050 5900
Connection ~ 4950 5900
Wire Wire Line
	4950 5900 4950 6000
Wire Wire Line
	6150 5900 6250 5900
Connection ~ 6250 5900
Wire Wire Line
	6250 5900 6250 6000
$Comp
L Device:C C?
U 1 1 5FFDECE3
P 4650 5200
AR Path="/5FF26FEA/5FFDECE3" Ref="C?"  Part="1" 
AR Path="/5FF29AD4/5FFEE41D/6010CEC8/5FFDECE3" Ref="C?"  Part="1" 
F 0 "C?" H 4765 5246 50  0000 L CNN
F 1 "100n" H 4765 5155 50  0000 L CNN
F 2 "" H 4688 5050 50  0001 C CNN
F 3 "~" H 4650 5200 50  0001 C CNN
	1    4650 5200
	1    0    0    -1  
$EndComp
$Comp
L Device:C C?
U 1 1 5FFDF7C6
P 6550 5200
AR Path="/5FF26FEA/5FFDF7C6" Ref="C?"  Part="1" 
AR Path="/5FF29AD4/5FFEE41D/6010CEC8/5FFDF7C6" Ref="C?"  Part="1" 
F 0 "C?" H 6665 5246 50  0000 L CNN
F 1 "100n" H 6665 5155 50  0000 L CNN
F 2 "" H 6588 5050 50  0001 C CNN
F 3 "~" H 6550 5200 50  0001 C CNN
	1    6550 5200
	1    0    0    -1  
$EndComp
Wire Wire Line
	4650 5350 4650 5400
Wire Wire Line
	4650 5400 4950 5400
Connection ~ 4950 5400
Wire Wire Line
	6250 5400 6550 5400
Wire Wire Line
	6550 5400 6550 5350
Connection ~ 6250 5400
Wire Wire Line
	4950 5300 5050 5300
Wire Wire Line
	6150 5300 6250 5300
Wire Wire Line
	6250 5300 6250 5000
Wire Wire Line
	6250 5000 6400 5000
Wire Wire Line
	6550 5000 6550 5050
Wire Wire Line
	4950 5300 4950 5000
Wire Wire Line
	4950 5000 4800 5000
Wire Wire Line
	4650 5000 4650 5050
$Comp
L power:+3.3V #PWR?
U 1 1 5FFE8A29
P 4800 4950
AR Path="/5FF26FEA/5FFE8A29" Ref="#PWR?"  Part="1" 
AR Path="/5FF29AD4/5FFEE41D/6010CEC8/5FFE8A29" Ref="#PWR?"  Part="1" 
F 0 "#PWR?" H 4800 4800 50  0001 C CNN
F 1 "+3.3V" H 4815 5123 50  0000 C CNN
F 2 "" H 4800 4950 50  0001 C CNN
F 3 "" H 4800 4950 50  0001 C CNN
	1    4800 4950
	1    0    0    -1  
$EndComp
Wire Wire Line
	4800 4950 4800 5000
Connection ~ 4800 5000
Wire Wire Line
	4800 5000 4650 5000
$Comp
L power:+3.3VA #PWR?
U 1 1 5FFE9F8C
P 6400 4950
AR Path="/5FF26FEA/5FFE9F8C" Ref="#PWR?"  Part="1" 
AR Path="/5FF29AD4/5FFEE41D/6010CEC8/5FFE9F8C" Ref="#PWR?"  Part="1" 
F 0 "#PWR?" H 6400 4800 50  0001 C CNN
F 1 "+3.3VA" H 6415 5123 50  0000 C CNN
F 2 "" H 6400 4950 50  0001 C CNN
F 3 "" H 6400 4950 50  0001 C CNN
	1    6400 4950
	1    0    0    -1  
$EndComp
Wire Wire Line
	6400 4950 6400 5000
Connection ~ 6400 5000
Wire Wire Line
	6400 5000 6550 5000
Wire Wire Line
	6250 1700 6250 1650
$Comp
L Device:C C?
U 1 1 6000DEA7
P 8050 1600
AR Path="/5FE7E32F/6000DEA7" Ref="C?"  Part="1" 
AR Path="/5FDA6F72/6000DEA7" Ref="C?"  Part="1" 
AR Path="/5FF26FEA/6000DEA7" Ref="C?"  Part="1" 
AR Path="/5FF29AD4/5FFEE41D/6010CEC8/6000DEA7" Ref="C?"  Part="1" 
F 0 "C?" H 8165 1646 50  0000 L CNN
F 1 "10u" H 8165 1555 50  0000 L CNN
F 2 "" H 8088 1450 50  0001 C CNN
F 3 "~" H 8050 1600 50  0001 C CNN
	1    8050 1600
	1    0    0    -1  
$EndComp
$Comp
L AMR_1D_magnetometer-rescue:LTC6655-Reference_Voltage U?
U 1 1 6000DEAD
P 7250 1500
AR Path="/5FDA6F72/6000DEAD" Ref="U?"  Part="1" 
AR Path="/5FF26FEA/6000DEAD" Ref="U?"  Part="1" 
AR Path="/5FF29AD4/5FFEE41D/6010CEC8/6000DEAD" Ref="U?"  Part="1" 
F 0 "U?" H 7220 1915 50  0000 C CNN
F 1 "LTC6655" H 7220 1824 50  0000 C CNN
F 2 "" H 7250 1800 50  0001 C CNN
F 3 "" H 7250 1800 50  0001 C CNN
	1    7250 1500
	1    0    0    -1  
$EndComp
$Comp
L Device:C C?
U 1 1 6000DEB3
P 6250 1500
AR Path="/5FE7E32F/6000DEB3" Ref="C?"  Part="1" 
AR Path="/5FDA6F72/6000DEB3" Ref="C?"  Part="1" 
AR Path="/5FF26FEA/6000DEB3" Ref="C?"  Part="1" 
AR Path="/5FF29AD4/5FFEE41D/6010CEC8/6000DEB3" Ref="C?"  Part="1" 
F 0 "C?" H 6365 1546 50  0000 L CNN
F 1 "100n" H 6365 1455 50  0000 L CNN
F 2 "" H 6288 1350 50  0001 C CNN
F 3 "~" H 6250 1500 50  0001 C CNN
	1    6250 1500
	1    0    0    -1  
$EndComp
Wire Wire Line
	6250 1350 6650 1350
Wire Wire Line
	6650 1350 6650 1450
Wire Wire Line
	6650 1450 6750 1450
Wire Wire Line
	6650 1350 6750 1350
Connection ~ 6650 1350
Wire Wire Line
	6750 1650 6250 1650
Connection ~ 6250 1650
Wire Wire Line
	7750 1550 7850 1550
Wire Wire Line
	7850 1550 7850 1450
Wire Wire Line
	7850 1450 7750 1450
Wire Wire Line
	7850 1450 8050 1450
Connection ~ 7850 1450
Wire Wire Line
	8050 1350 8050 1450
Connection ~ 8050 1450
Wire Wire Line
	6250 1350 5800 1350
Wire Wire Line
	5800 1350 5800 2550
Connection ~ 6250 1350
Connection ~ 5800 2550
Wire Wire Line
	5800 2550 6300 2550
$Comp
L power:GNDA #PWR?
U 1 1 60014C25
P 6250 1700
AR Path="/5FF26FEA/60014C25" Ref="#PWR?"  Part="1" 
AR Path="/5FF29AD4/5FFEE41D/6010CEC8/60014C25" Ref="#PWR?"  Part="1" 
F 0 "#PWR?" H 6250 1450 50  0001 C CNN
F 1 "GNDA" H 6255 1527 50  0000 C CNN
F 2 "" H 6250 1700 50  0001 C CNN
F 3 "" H 6250 1700 50  0001 C CNN
	1    6250 1700
	1    0    0    -1  
$EndComp
$Comp
L power:GNDA #PWR?
U 1 1 600150F8
P 8050 1750
AR Path="/5FF26FEA/600150F8" Ref="#PWR?"  Part="1" 
AR Path="/5FF29AD4/5FFEE41D/6010CEC8/600150F8" Ref="#PWR?"  Part="1" 
F 0 "#PWR?" H 8050 1500 50  0001 C CNN
F 1 "GNDA" H 8055 1577 50  0000 C CNN
F 2 "" H 8050 1750 50  0001 C CNN
F 3 "" H 8050 1750 50  0001 C CNN
	1    8050 1750
	1    0    0    -1  
$EndComp
$Comp
L power:+3.3VADC #PWR?
U 1 1 60015736
P 8050 1350
AR Path="/5FF26FEA/60015736" Ref="#PWR?"  Part="1" 
AR Path="/5FF29AD4/5FFEE41D/6010CEC8/60015736" Ref="#PWR?"  Part="1" 
F 0 "#PWR?" H 8200 1300 50  0001 C CNN
F 1 "+3.3VADC" H 8065 1523 50  0000 C CNN
F 2 "" H 8050 1350 50  0001 C CNN
F 3 "" H 8050 1350 50  0001 C CNN
	1    8050 1350
	1    0    0    -1  
$EndComp
$Comp
L Regulator_Linear:LP2985-1.8 U?
U 1 1 600270F6
P 7100 3750
AR Path="/5FF26FEA/600270F6" Ref="U?"  Part="1" 
AR Path="/5FF29AD4/5FFEE41D/6010CEC8/600270F6" Ref="U?"  Part="1" 
F 0 "U?" H 7100 4092 50  0000 C CNN
F 1 "LP2985-1.8" H 7100 4001 50  0000 C CNN
F 2 "Package_TO_SOT_SMD:SOT-23-5" H 7100 4075 50  0001 C CNN
F 3 "http://www.ti.com/lit/ds/symlink/lp2985.pdf" H 7100 3750 50  0001 C CNN
	1    7100 3750
	1    0    0    -1  
$EndComp
Wire Wire Line
	5800 2550 5800 2850
Wire Wire Line
	5800 3650 6300 3650
Wire Wire Line
	6700 3750 6600 3750
Wire Wire Line
	6600 3750 6600 3650
Connection ~ 6600 3650
Wire Wire Line
	6600 3650 6700 3650
$Comp
L Device:C C?
U 1 1 6002C1CA
P 6300 3800
AR Path="/5FF26FEA/6002C1CA" Ref="C?"  Part="1" 
AR Path="/5FF29AD4/5FFEE41D/6010CEC8/6002C1CA" Ref="C?"  Part="1" 
F 0 "C?" H 6415 3846 50  0000 L CNN
F 1 "3u" H 6415 3755 50  0000 L CNN
F 2 "" H 6338 3650 50  0001 C CNN
F 3 "~" H 6300 3800 50  0001 C CNN
	1    6300 3800
	1    0    0    -1  
$EndComp
Connection ~ 6300 3650
Wire Wire Line
	6300 3650 6600 3650
$Comp
L Device:C C?
U 1 1 6002CE36
P 7700 3900
AR Path="/5FF26FEA/6002CE36" Ref="C?"  Part="1" 
AR Path="/5FF29AD4/5FFEE41D/6010CEC8/6002CE36" Ref="C?"  Part="1" 
F 0 "C?" H 7815 3946 50  0000 L CNN
F 1 "10n" H 7815 3855 50  0000 L CNN
F 2 "" H 7738 3750 50  0001 C CNN
F 3 "~" H 7700 3900 50  0001 C CNN
	1    7700 3900
	1    0    0    -1  
$EndComp
$Comp
L Device:C C?
U 1 1 6002D739
P 8050 3800
AR Path="/5FF26FEA/6002D739" Ref="C?"  Part="1" 
AR Path="/5FF29AD4/5FFEE41D/6010CEC8/6002D739" Ref="C?"  Part="1" 
F 0 "C?" H 8165 3846 50  0000 L CNN
F 1 "3u" H 8165 3755 50  0000 L CNN
F 2 "" H 8088 3650 50  0001 C CNN
F 3 "~" H 8050 3800 50  0001 C CNN
	1    8050 3800
	1    0    0    -1  
$EndComp
Wire Wire Line
	7500 3650 8050 3650
Wire Wire Line
	7500 3750 7700 3750
$Comp
L power:GNDA #PWR?
U 1 1 60031496
P 6300 4050
AR Path="/5FF26FEA/60031496" Ref="#PWR?"  Part="1" 
AR Path="/5FF29AD4/5FFEE41D/6010CEC8/60031496" Ref="#PWR?"  Part="1" 
F 0 "#PWR?" H 6300 3800 50  0001 C CNN
F 1 "GNDA" H 6305 3877 50  0000 C CNN
F 2 "" H 6300 4050 50  0001 C CNN
F 3 "" H 6300 4050 50  0001 C CNN
	1    6300 4050
	1    0    0    -1  
$EndComp
$Comp
L power:GNDA #PWR?
U 1 1 60031AC1
P 7100 4050
AR Path="/5FF26FEA/60031AC1" Ref="#PWR?"  Part="1" 
AR Path="/5FF29AD4/5FFEE41D/6010CEC8/60031AC1" Ref="#PWR?"  Part="1" 
F 0 "#PWR?" H 7100 3800 50  0001 C CNN
F 1 "GNDA" H 7105 3877 50  0000 C CNN
F 2 "" H 7100 4050 50  0001 C CNN
F 3 "" H 7100 4050 50  0001 C CNN
	1    7100 4050
	1    0    0    -1  
$EndComp
$Comp
L power:GNDA #PWR?
U 1 1 60031E8C
P 7700 4050
AR Path="/5FF26FEA/60031E8C" Ref="#PWR?"  Part="1" 
AR Path="/5FF29AD4/5FFEE41D/6010CEC8/60031E8C" Ref="#PWR?"  Part="1" 
F 0 "#PWR?" H 7700 3800 50  0001 C CNN
F 1 "GNDA" H 7705 3877 50  0000 C CNN
F 2 "" H 7700 4050 50  0001 C CNN
F 3 "" H 7700 4050 50  0001 C CNN
	1    7700 4050
	1    0    0    -1  
$EndComp
$Comp
L power:GNDA #PWR?
U 1 1 60032375
P 8050 4050
AR Path="/5FF26FEA/60032375" Ref="#PWR?"  Part="1" 
AR Path="/5FF29AD4/5FFEE41D/6010CEC8/60032375" Ref="#PWR?"  Part="1" 
F 0 "#PWR?" H 8050 3800 50  0001 C CNN
F 1 "GNDA" H 8055 3877 50  0000 C CNN
F 2 "" H 8050 4050 50  0001 C CNN
F 3 "" H 8050 4050 50  0001 C CNN
	1    8050 4050
	1    0    0    -1  
$EndComp
Wire Wire Line
	8050 4050 8050 3950
Wire Wire Line
	6300 4050 6300 3950
$Comp
L power:+1V8 #PWR?
U 1 1 60035FBE
P 8050 3650
AR Path="/5FF26FEA/60035FBE" Ref="#PWR?"  Part="1" 
AR Path="/5FF29AD4/5FFEE41D/6010CEC8/60035FBE" Ref="#PWR?"  Part="1" 
F 0 "#PWR?" H 8050 3500 50  0001 C CNN
F 1 "+1V8" H 8065 3823 50  0000 C CNN
F 2 "" H 8050 3650 50  0001 C CNN
F 3 "" H 8050 3650 50  0001 C CNN
	1    8050 3650
	1    0    0    -1  
$EndComp
Connection ~ 8050 3650
$Comp
L AMR_1D_magnetometer-rescue:R1SE-0505_H2-R-Regulator_Switching U?
U 1 1 5FFEDC65
P 5050 2600
AR Path="/5FF26FEA/5FFEDC65" Ref="U?"  Part="1" 
AR Path="/5FF29AD4/5FFEE41D/6010CEC8/5FFEDC65" Ref="U?"  Part="1" 
F 0 "U?" H 5050 2915 50  0000 C CNN
F 1 "R1SE-0505_H2-R" H 5050 2824 50  0000 C CNN
F 2 "" H 5050 2900 50  0001 C CNN
F 3 "" H 5050 2900 50  0001 C CNN
	1    5050 2600
	1    0    0    -1  
$EndComp
Wire Wire Line
	4600 2650 4650 2650
$Comp
L Device:R R?
U 1 1 6005698B
P 5650 2850
AR Path="/5FF26FEA/6005698B" Ref="R?"  Part="1" 
AR Path="/5FF29AD4/5FFEE41D/6010CEC8/6005698B" Ref="R?"  Part="1" 
F 0 "R?" V 5443 2850 50  0000 C CNN
F 1 "200" V 5534 2850 50  0000 C CNN
F 2 "" V 5580 2850 50  0001 C CNN
F 3 "~" H 5650 2850 50  0001 C CNN
	1    5650 2850
	0    1    1    0   
$EndComp
Connection ~ 5800 2850
Wire Wire Line
	5800 2850 5800 3650
Connection ~ 5500 2850
Wire Wire Line
	5500 2850 5500 2950
$Comp
L Device:C C?
U 1 1 600BC6A6
P 3550 2700
AR Path="/5FF29AD4/5FFF09C6/600BC6A6" Ref="C?"  Part="1" 
AR Path="/5FF26FEA/600BC6A6" Ref="C?"  Part="1" 
AR Path="/5FF29AD4/5FFEE41D/6010CEC8/600BC6A6" Ref="C?"  Part="1" 
F 0 "C?" H 3665 2746 50  0000 L CNN
F 1 "100n" H 3665 2655 50  0000 L CNN
F 2 "" H 3588 2550 50  0001 C CNN
F 3 "~" H 3550 2700 50  0001 C CNN
	1    3550 2700
	1    0    0    -1  
$EndComp
Wire Wire Line
	3550 2550 4000 2550
$Comp
L power:GND #PWR?
U 1 1 600BC6AD
P 3550 2950
AR Path="/5FF29AD4/5FFF09C6/600BC6AD" Ref="#PWR?"  Part="1" 
AR Path="/5FF26FEA/600BC6AD" Ref="#PWR?"  Part="1" 
AR Path="/5FF29AD4/5FFEE41D/6010CEC8/600BC6AD" Ref="#PWR?"  Part="1" 
F 0 "#PWR?" H 3550 2700 50  0001 C CNN
F 1 "GND" H 3555 2777 50  0000 C CNN
F 2 "" H 3550 2950 50  0001 C CNN
F 3 "" H 3550 2950 50  0001 C CNN
	1    3550 2950
	1    0    0    -1  
$EndComp
Wire Wire Line
	3550 2950 3550 2850
$EndSCHEMATC
