EESchema Schematic File Version 4
EELAYER 30 0
EELAYER END
$Descr A4 11693 8268
encoding utf-8
Sheet 8 12
Title ""
Date ""
Rev ""
Comp ""
Comment1 ""
Comment2 ""
Comment3 ""
Comment4 ""
$EndDescr
Wire Wire Line
	4850 3550 4850 3600
Wire Wire Line
	4850 3600 5150 3600
Wire Wire Line
	6250 3550 6250 3600
Wire Wire Line
	6250 3600 5950 3600
Connection ~ 5550 3600
Wire Wire Line
	4850 2350 4850 2300
Wire Wire Line
	4850 2300 5150 2300
Wire Wire Line
	6250 2350 6250 2300
Wire Wire Line
	6250 2300 5950 2300
Connection ~ 5550 2300
Wire Wire Line
	5150 2400 5150 2300
Connection ~ 5150 2300
Wire Wire Line
	5150 2300 5550 2300
Wire Wire Line
	5150 3500 5150 3600
Connection ~ 5150 3600
Wire Wire Line
	5150 3600 5550 3600
Wire Wire Line
	5950 3500 5950 3600
Connection ~ 5950 3600
Wire Wire Line
	5950 3600 5550 3600
Wire Wire Line
	5950 2400 5950 2300
Connection ~ 5950 2300
Wire Wire Line
	5950 2300 5550 2300
Wire Wire Line
	2850 3450 2950 3450
Wire Wire Line
	2950 3450 2950 3600
Wire Wire Line
	2950 3600 3100 3600
NoConn ~ 2850 3150
NoConn ~ 2850 3050
Wire Wire Line
	2850 2950 3000 2950
Wire Wire Line
	3450 3200 3450 3250
$Comp
L Device:C C?
U 1 1 600C6E7F
P 3100 3450
AR Path="/5FF29AD4/5FF2DE95/600C6E7F" Ref="C?"  Part="1" 
AR Path="/60403A40/600C6E7F" Ref="C127"  Part="1" 
AR Path="/5FF29AD4/604766AE/600C6E7F" Ref="C130"  Part="1" 
AR Path="/6051CE37/600C6E7F" Ref="C132"  Part="1" 
F 0 "C132" H 3215 3496 50  0000 L CNN
F 1 "10u" H 3215 3405 50  0000 L CNN
F 2 "Capacitor_SMD:C_1210_3225Metric_Pad1.33x2.70mm_HandSolder" H 3138 3300 50  0001 C CNN
F 3 "~" H 3100 3450 50  0001 C CNN
	1    3100 3450
	1    0    0    -1  
$EndComp
Connection ~ 3100 3600
Wire Wire Line
	3100 3300 3100 3250
Wire Wire Line
	3100 3600 3450 3600
Connection ~ 3450 3600
$Comp
L Device:C C?
U 1 1 600C7C88
P 3450 3450
AR Path="/5FF29AD4/5FF2DE95/600C7C88" Ref="C?"  Part="1" 
AR Path="/60403A40/600C7C88" Ref="C128"  Part="1" 
AR Path="/5FF29AD4/604766AE/600C7C88" Ref="C131"  Part="1" 
AR Path="/6051CE37/600C7C88" Ref="C133"  Part="1" 
F 0 "C133" H 3565 3496 50  0000 L CNN
F 1 "100n" H 3565 3405 50  0000 L CNN
F 2 "Capacitor_SMD:C_0603_1608Metric_Pad1.08x0.95mm_HandSolder" H 3488 3300 50  0001 C CNN
F 3 "~" H 3450 3450 50  0001 C CNN
	1    3450 3450
	1    0    0    -1  
$EndComp
Wire Wire Line
	3100 3250 3450 3250
Wire Wire Line
	3450 3250 3450 3300
Connection ~ 3100 3250
Wire Wire Line
	2850 3250 3100 3250
$Comp
L Device:C C?
U 1 1 600FB33A
P 7900 3450
AR Path="/5FF29AD4/5FF2DE95/600FB33A" Ref="C?"  Part="1" 
AR Path="/60403A40/600FB33A" Ref="C129"  Part="1" 
AR Path="/5FF29AD4/604766AE/600FB33A" Ref="C132"  Part="1" 
AR Path="/6051CE37/600FB33A" Ref="C134"  Part="1" 
F 0 "C134" H 8015 3496 50  0000 L CNN
F 1 "100n" H 8015 3405 50  0000 L CNN
F 2 "Capacitor_SMD:C_0603_1608Metric_Pad1.08x0.95mm_HandSolder" H 7938 3300 50  0001 C CNN
F 3 "~" H 7900 3450 50  0001 C CNN
	1    7900 3450
	1    0    0    -1  
$EndComp
Wire Wire Line
	7900 3300 7900 3250
$Comp
L power:+15V #PWR?
U 1 1 6012305B
P 3450 3200
AR Path="/5FF29AD4/5FF2DE95/6012305B" Ref="#PWR?"  Part="1" 
AR Path="/60403A40/6012305B" Ref="#PWR0128"  Part="1" 
AR Path="/5FF29AD4/604766AE/6012305B" Ref="#PWR0117"  Part="1" 
AR Path="/6051CE37/6012305B" Ref="#PWR0117"  Part="1" 
F 0 "#PWR0117" H 3450 3050 50  0001 C CNN
F 1 "+15V" H 3465 3373 50  0000 C CNN
F 2 "" H 3450 3200 50  0001 C CNN
F 3 "" H 3450 3200 50  0001 C CNN
	1    3450 3200
	1    0    0    -1  
$EndComp
Connection ~ 3000 2950
$Comp
L Device:C C?
U 1 1 6018CCD0
P 3150 1900
AR Path="/5FF29AD4/5FF2DE95/6018CCD0" Ref="C?"  Part="1" 
AR Path="/60403A40/6018CCD0" Ref="C123"  Part="1" 
AR Path="/5FF29AD4/604766AE/6018CCD0" Ref="C126"  Part="1" 
AR Path="/6051CE37/6018CCD0" Ref="C128"  Part="1" 
F 0 "C128" V 2898 1900 50  0000 C CNN
F 1 "10u" V 2989 1900 50  0000 C CNN
F 2 "Capacitor_SMD:C_1210_3225Metric_Pad1.33x2.70mm_HandSolder" H 3188 1750 50  0001 C CNN
F 3 "~" H 3150 1900 50  0001 C CNN
	1    3150 1900
	0    1    1    0   
$EndComp
Wire Wire Line
	3000 1900 3000 2300
$Comp
L Device:C C?
U 1 1 6018D96E
P 3150 2300
AR Path="/5FF29AD4/5FF2DE95/6018D96E" Ref="C?"  Part="1" 
AR Path="/60403A40/6018D96E" Ref="C125"  Part="1" 
AR Path="/5FF29AD4/604766AE/6018D96E" Ref="C128"  Part="1" 
AR Path="/6051CE37/6018D96E" Ref="C130"  Part="1" 
F 0 "C130" V 2898 2300 50  0000 C CNN
F 1 "100n" V 2989 2300 50  0000 C CNN
F 2 "Capacitor_SMD:C_0603_1608Metric_Pad1.08x0.95mm_HandSolder" H 3188 2150 50  0001 C CNN
F 3 "~" H 3150 2300 50  0001 C CNN
	1    3150 2300
	0    1    1    0   
$EndComp
Connection ~ 3000 2300
Wire Wire Line
	3300 2750 2850 2750
Wire Wire Line
	3300 1900 3300 2300
Connection ~ 3300 2300
Wire Wire Line
	1050 3750 1050 3800
$Comp
L power:GND #PWR?
U 1 1 601DEC75
P 1050 3800
AR Path="/5FE135BD/601DEC75" Ref="#PWR?"  Part="1" 
AR Path="/5FF29AD4/5FF2DE95/601DEC75" Ref="#PWR?"  Part="1" 
AR Path="/60403A40/601DEC75" Ref="#PWR0130"  Part="1" 
AR Path="/5FF29AD4/604766AE/601DEC75" Ref="#PWR0119"  Part="1" 
AR Path="/6051CE37/601DEC75" Ref="#PWR0119"  Part="1" 
F 0 "#PWR0119" H 1050 3550 50  0001 C CNN
F 1 "GND" H 1055 3627 50  0000 C CNN
F 2 "" H 1050 3800 50  0001 C CNN
F 3 "" H 1050 3800 50  0001 C CNN
	1    1050 3800
	1    0    0    -1  
$EndComp
Connection ~ 1050 3450
$Comp
L Device:C C?
U 1 1 601DEC7C
P 1050 3600
AR Path="/5FE135BD/601DEC7C" Ref="C?"  Part="1" 
AR Path="/5FF29AD4/5FF2DE95/601DEC7C" Ref="C?"  Part="1" 
AR Path="/60403A40/601DEC7C" Ref="C132"  Part="1" 
AR Path="/5FF29AD4/604766AE/601DEC7C" Ref="C135"  Part="1" 
AR Path="/6051CE37/601DEC7C" Ref="C145"  Part="1" 
F 0 "C145" H 1165 3646 50  0000 L CNN
F 1 "100n" H 1165 3555 50  0000 L CNN
F 2 "Capacitor_SMD:C_0603_1608Metric_Pad1.08x0.95mm_HandSolder" H 1088 3450 50  0001 C CNN
F 3 "~" H 1050 3600 50  0001 C CNN
	1    1050 3600
	1    0    0    -1  
$EndComp
Wire Wire Line
	1050 2950 1050 3450
$Comp
L Device:C C?
U 1 1 601DEC8B
P 700 3600
AR Path="/5FE135BD/601DEC8B" Ref="C?"  Part="1" 
AR Path="/5FF29AD4/5FF2DE95/601DEC8B" Ref="C?"  Part="1" 
AR Path="/60403A40/601DEC8B" Ref="C131"  Part="1" 
AR Path="/5FF29AD4/604766AE/601DEC8B" Ref="C134"  Part="1" 
AR Path="/6051CE37/601DEC8B" Ref="C136"  Part="1" 
F 0 "C136" H 815 3646 50  0000 L CNN
F 1 "1u" H 815 3555 50  0000 L CNN
F 2 "Capacitor_SMD:C_0805_2012Metric_Pad1.18x1.45mm_HandSolder" H 738 3450 50  0001 C CNN
F 3 "~" H 700 3600 50  0001 C CNN
	1    700  3600
	1    0    0    -1  
$EndComp
Wire Wire Line
	700  3450 1050 3450
Wire Wire Line
	700  3750 1050 3750
Connection ~ 1050 3750
Wire Wire Line
	1700 2750 1850 2750
Wire Wire Line
	1700 2850 1850 2850
$Comp
L power:GND #PWR?
U 1 1 60230EE0
P 1300 3050
AR Path="/5FE135BD/60230EE0" Ref="#PWR?"  Part="1" 
AR Path="/5FF29AD4/5FF2DE95/60230EE0" Ref="#PWR?"  Part="1" 
AR Path="/60403A40/60230EE0" Ref="#PWR0126"  Part="1" 
AR Path="/5FF29AD4/604766AE/60230EE0" Ref="#PWR0121"  Part="1" 
AR Path="/6051CE37/60230EE0" Ref="#PWR0121"  Part="1" 
F 0 "#PWR0121" H 1300 2800 50  0001 C CNN
F 1 "GND" H 1305 2877 50  0000 C CNN
F 2 "" H 1300 3050 50  0001 C CNN
F 3 "" H 1300 3050 50  0001 C CNN
	1    1300 3050
	1    0    0    -1  
$EndComp
NoConn ~ 1850 3250
NoConn ~ 1850 3350
Wire Wire Line
	1050 2950 1850 2950
Wire Wire Line
	1050 3450 1850 3450
Wire Wire Line
	1300 3050 1850 3050
Wire Wire Line
	1750 3150 1850 3150
$Comp
L power:+3.3V #PWR?
U 1 1 60330552
P 1900 3900
AR Path="/5FF29AD4/5FF2DE95/60330552" Ref="#PWR?"  Part="1" 
AR Path="/60403A40/60330552" Ref="#PWR0132"  Part="1" 
AR Path="/5FF29AD4/604766AE/60330552" Ref="#PWR0122"  Part="1" 
AR Path="/6051CE37/60330552" Ref="#PWR0122"  Part="1" 
F 0 "#PWR0122" H 1900 3750 50  0001 C CNN
F 1 "+3.3V" H 1915 4073 50  0000 C CNN
F 2 "" H 1900 3900 50  0001 C CNN
F 3 "" H 1900 3900 50  0001 C CNN
	1    1900 3900
	1    0    0    -1  
$EndComp
$Comp
L Device:R R?
U 1 1 6033109B
P 1900 4050
AR Path="/5FF29AD4/5FF2DE95/6033109B" Ref="R?"  Part="1" 
AR Path="/60403A40/6033109B" Ref="R63"  Part="1" 
AR Path="/5FF29AD4/604766AE/6033109B" Ref="R61"  Part="1" 
AR Path="/6051CE37/6033109B" Ref="R67"  Part="1" 
F 0 "R67" H 1970 4096 50  0000 L CNN
F 1 "10k" H 1970 4005 50  0000 L CNN
F 2 "Resistor_SMD:R_0603_1608Metric_Pad0.98x0.95mm_HandSolder" V 1830 4050 50  0001 C CNN
F 3 "~" H 1900 4050 50  0001 C CNN
	1    1900 4050
	1    0    0    -1  
$EndComp
Wire Wire Line
	1900 4200 1750 4200
Connection ~ 1900 4200
Wire Wire Line
	3450 3600 4100 3600
Connection ~ 4850 3600
Connection ~ 6250 3600
Wire Wire Line
	3000 2950 4450 2950
$Comp
L Device:R R?
U 1 1 6010A730
P 4100 3350
AR Path="/5FF29AD4/5FF2DE95/6010A730" Ref="R?"  Part="1" 
AR Path="/60403A40/6010A730" Ref="R61"  Part="1" 
AR Path="/5FF29AD4/604766AE/6010A730" Ref="R59"  Part="1" 
AR Path="/6051CE37/6010A730" Ref="R63"  Part="1" 
F 0 "R63" V 4000 3350 50  0000 C CNN
F 1 "10" V 4100 3350 50  0000 C CNN
F 2 "Resistor_SMD:R_0603_1608Metric_Pad0.98x0.95mm_HandSolder" V 4030 3350 50  0001 C CNN
F 3 "~" H 4100 3350 50  0001 C CNN
	1    4100 3350
	0    1    1    0   
$EndComp
$Comp
L Device:D_Schottky D?
U 1 1 6010CF9F
P 4100 3150
AR Path="/5FF29AD4/5FF2DE95/6010CF9F" Ref="D?"  Part="1" 
AR Path="/60403A40/6010CF9F" Ref="D18"  Part="1" 
AR Path="/5FF29AD4/604766AE/6010CF9F" Ref="D18"  Part="1" 
AR Path="/6051CE37/6010CF9F" Ref="D18"  Part="1" 
F 0 "D18" H 4100 3367 50  0000 C CNN
F 1 "D_Schottky" H 4100 3276 50  0000 C CNN
F 2 "Diode_SMD:D_SOD-123F" H 4100 3150 50  0001 C CNN
F 3 "~" H 4100 3150 50  0001 C CNN
	1    4100 3150
	1    0    0    -1  
$EndComp
Wire Wire Line
	4250 3150 4300 3150
Wire Wire Line
	4300 3150 4300 3350
Wire Wire Line
	4300 3350 4250 3350
Wire Wire Line
	3950 3350 3900 3350
Wire Wire Line
	3900 3350 3900 3150
Wire Wire Line
	3900 3150 3950 3150
Wire Wire Line
	4300 3350 4500 3350
Connection ~ 4300 3350
Wire Wire Line
	2850 3350 3900 3350
Connection ~ 3900 3350
$Comp
L Device:R R?
U 1 1 6011DED8
P 4100 2550
AR Path="/5FF29AD4/5FF2DE95/6011DED8" Ref="R?"  Part="1" 
AR Path="/60403A40/6011DED8" Ref="R59"  Part="1" 
AR Path="/5FF29AD4/604766AE/6011DED8" Ref="R57"  Part="1" 
AR Path="/6051CE37/6011DED8" Ref="R59"  Part="1" 
F 0 "R59" V 4000 2550 50  0000 C CNN
F 1 "10" V 4100 2550 50  0000 C CNN
F 2 "Resistor_SMD:R_0603_1608Metric_Pad0.98x0.95mm_HandSolder" V 4030 2550 50  0001 C CNN
F 3 "~" H 4100 2550 50  0001 C CNN
	1    4100 2550
	0    1    1    0   
$EndComp
$Comp
L Device:D_Schottky D?
U 1 1 6011DEDE
P 4100 2350
AR Path="/5FF29AD4/5FF2DE95/6011DEDE" Ref="D?"  Part="1" 
AR Path="/60403A40/6011DEDE" Ref="D12"  Part="1" 
AR Path="/5FF29AD4/604766AE/6011DEDE" Ref="D12"  Part="1" 
AR Path="/6051CE37/6011DEDE" Ref="D12"  Part="1" 
F 0 "D12" H 4100 2567 50  0000 C CNN
F 1 "D_Schottky" H 4100 2476 50  0000 C CNN
F 2 "Diode_SMD:D_SOD-123F" H 4100 2350 50  0001 C CNN
F 3 "~" H 4100 2350 50  0001 C CNN
	1    4100 2350
	1    0    0    -1  
$EndComp
Wire Wire Line
	4250 2350 4300 2350
Wire Wire Line
	4300 2350 4300 2550
Wire Wire Line
	4300 2550 4250 2550
Wire Wire Line
	3950 2550 3900 2550
Wire Wire Line
	3900 2550 3900 2350
Wire Wire Line
	3900 2350 3950 2350
Wire Wire Line
	4300 2550 4450 2550
Connection ~ 4300 2550
Wire Wire Line
	3900 2550 3900 2850
Wire Wire Line
	3900 2850 2850 2850
Connection ~ 3900 2550
Wire Wire Line
	4850 2750 4850 2950
Connection ~ 4850 2950
Wire Wire Line
	4850 2950 5150 2950
Wire Wire Line
	4850 2950 4850 3150
Wire Wire Line
	5150 2700 5150 2950
Connection ~ 5150 2950
Wire Wire Line
	5150 2950 5150 3050
Wire Wire Line
	5950 2700 5950 2850
Connection ~ 5950 2950
Wire Wire Line
	5950 2950 6250 2950
Wire Wire Line
	6250 2750 6250 2950
Connection ~ 6250 2950
Wire Wire Line
	6250 2950 6250 3150
Connection ~ 7200 2550
Wire Wire Line
	7200 2550 7200 2850
Connection ~ 6800 2550
Wire Wire Line
	6800 2550 6650 2550
Wire Wire Line
	7200 2350 7150 2350
Wire Wire Line
	7200 2550 7200 2350
Wire Wire Line
	7150 2550 7200 2550
Wire Wire Line
	6800 2550 6850 2550
Wire Wire Line
	6800 2350 6800 2550
Wire Wire Line
	6850 2350 6800 2350
$Comp
L Device:D_Schottky D?
U 1 1 60148DFB
P 7000 2350
AR Path="/5FF29AD4/5FF2DE95/60148DFB" Ref="D?"  Part="1" 
AR Path="/60403A40/60148DFB" Ref="D13"  Part="1" 
AR Path="/5FF29AD4/604766AE/60148DFB" Ref="D13"  Part="1" 
AR Path="/6051CE37/60148DFB" Ref="D13"  Part="1" 
F 0 "D13" H 7000 2567 50  0000 C CNN
F 1 "D_Schottky" H 7000 2476 50  0000 C CNN
F 2 "Diode_SMD:D_SOD-123F" H 7000 2350 50  0001 C CNN
F 3 "~" H 7000 2350 50  0001 C CNN
	1    7000 2350
	-1   0    0    -1  
$EndComp
$Comp
L Device:R R?
U 1 1 60148DF5
P 7000 2550
AR Path="/5FF29AD4/5FF2DE95/60148DF5" Ref="R?"  Part="1" 
AR Path="/60403A40/60148DF5" Ref="R60"  Part="1" 
AR Path="/5FF29AD4/604766AE/60148DF5" Ref="R58"  Part="1" 
AR Path="/6051CE37/60148DF5" Ref="R60"  Part="1" 
F 0 "R60" V 6900 2550 50  0000 C CNN
F 1 "10" V 7000 2550 50  0000 C CNN
F 2 "Resistor_SMD:R_0603_1608Metric_Pad0.98x0.95mm_HandSolder" V 6930 2550 50  0001 C CNN
F 3 "~" H 7000 2550 50  0001 C CNN
	1    7000 2550
	0    -1   1    0   
$EndComp
$Comp
L Device:R R?
U 1 1 6015A00A
P 7000 3350
AR Path="/5FF29AD4/5FF2DE95/6015A00A" Ref="R?"  Part="1" 
AR Path="/60403A40/6015A00A" Ref="R62"  Part="1" 
AR Path="/5FF29AD4/604766AE/6015A00A" Ref="R60"  Part="1" 
AR Path="/6051CE37/6015A00A" Ref="R64"  Part="1" 
F 0 "R64" V 6900 3350 50  0000 C CNN
F 1 "10" V 7000 3350 50  0000 C CNN
F 2 "Resistor_SMD:R_0603_1608Metric_Pad0.98x0.95mm_HandSolder" V 6930 3350 50  0001 C CNN
F 3 "~" H 7000 3350 50  0001 C CNN
	1    7000 3350
	0    -1   1    0   
$EndComp
$Comp
L Device:D_Schottky D?
U 1 1 6015A010
P 7000 3150
AR Path="/5FF29AD4/5FF2DE95/6015A010" Ref="D?"  Part="1" 
AR Path="/60403A40/6015A010" Ref="D19"  Part="1" 
AR Path="/5FF29AD4/604766AE/6015A010" Ref="D19"  Part="1" 
AR Path="/6051CE37/6015A010" Ref="D19"  Part="1" 
F 0 "D19" H 7000 3367 50  0000 C CNN
F 1 "D_Schottky" H 7000 3276 50  0000 C CNN
F 2 "Diode_SMD:D_SOD-123F" H 7000 3150 50  0001 C CNN
F 3 "~" H 7000 3150 50  0001 C CNN
	1    7000 3150
	-1   0    0    -1  
$EndComp
Wire Wire Line
	6850 3150 6800 3150
Wire Wire Line
	6800 3150 6800 3350
Wire Wire Line
	6800 3350 6850 3350
Wire Wire Line
	7150 3350 7200 3350
Wire Wire Line
	7200 3350 7200 3150
Wire Wire Line
	7200 3150 7150 3150
Wire Wire Line
	6800 3350 6600 3350
Connection ~ 6800 3350
Connection ~ 7200 3350
Connection ~ 8200 2300
Wire Wire Line
	8200 1900 8200 2300
Connection ~ 7900 3600
Wire Wire Line
	6250 3600 7000 3600
Wire Wire Line
	6250 2950 6650 2950
Wire Wire Line
	1900 4200 9750 4200
Wire Wire Line
	9650 3150 9750 3150
NoConn ~ 9650 3350
NoConn ~ 9650 3250
Wire Wire Line
	9650 2850 9850 2850
Wire Wire Line
	9650 2750 9850 2750
Wire Wire Line
	10450 3750 10450 3800
$Comp
L power:GND #PWR?
U 1 1 6029FD87
P 10450 3800
AR Path="/5FE135BD/6029FD87" Ref="#PWR?"  Part="1" 
AR Path="/5FF29AD4/5FF2DE95/6029FD87" Ref="#PWR?"  Part="1" 
AR Path="/60403A40/6029FD87" Ref="#PWR0131"  Part="1" 
AR Path="/5FF29AD4/604766AE/6029FD87" Ref="#PWR0123"  Part="1" 
AR Path="/6051CE37/6029FD87" Ref="#PWR0123"  Part="1" 
F 0 "#PWR0123" H 10450 3550 50  0001 C CNN
F 1 "GND" H 10455 3627 50  0000 C CNN
F 2 "" H 10450 3800 50  0001 C CNN
F 3 "" H 10450 3800 50  0001 C CNN
	1    10450 3800
	-1   0    0    -1  
$EndComp
Connection ~ 10450 3450
$Comp
L Device:C C?
U 1 1 6029FD8E
P 10450 3600
AR Path="/5FE135BD/6029FD8E" Ref="C?"  Part="1" 
AR Path="/5FF29AD4/5FF2DE95/6029FD8E" Ref="C?"  Part="1" 
AR Path="/60403A40/6029FD8E" Ref="C133"  Part="1" 
AR Path="/5FF29AD4/604766AE/6029FD8E" Ref="C136"  Part="1" 
AR Path="/6051CE37/6029FD8E" Ref="C146"  Part="1" 
F 0 "C146" H 10565 3646 50  0000 L CNN
F 1 "100n" H 10565 3555 50  0000 L CNN
F 2 "Capacitor_SMD:C_0603_1608Metric_Pad1.08x0.95mm_HandSolder" H 10488 3450 50  0001 C CNN
F 3 "~" H 10450 3600 50  0001 C CNN
	1    10450 3600
	-1   0    0    -1  
$EndComp
Wire Wire Line
	10450 2950 10450 3450
$Comp
L Device:C C?
U 1 1 6029FD9C
P 10800 3600
AR Path="/5FE135BD/6029FD9C" Ref="C?"  Part="1" 
AR Path="/5FF29AD4/5FF2DE95/6029FD9C" Ref="C?"  Part="1" 
AR Path="/60403A40/6029FD9C" Ref="C134"  Part="1" 
AR Path="/5FF29AD4/604766AE/6029FD9C" Ref="C145"  Part="1" 
AR Path="/6051CE37/6029FD9C" Ref="C147"  Part="1" 
F 0 "C147" H 10915 3646 50  0000 L CNN
F 1 "1u" H 10915 3555 50  0000 L CNN
F 2 "Capacitor_SMD:C_0805_2012Metric_Pad1.18x1.45mm_HandSolder" H 10838 3450 50  0001 C CNN
F 3 "~" H 10800 3600 50  0001 C CNN
	1    10800 3600
	-1   0    0    -1  
$EndComp
Wire Wire Line
	10800 3450 10450 3450
Wire Wire Line
	10800 3750 10450 3750
Connection ~ 10450 3750
$Comp
L power:GND #PWR?
U 1 1 6029FDA5
P 10200 3050
AR Path="/5FE135BD/6029FDA5" Ref="#PWR?"  Part="1" 
AR Path="/5FF29AD4/5FF2DE95/6029FDA5" Ref="#PWR?"  Part="1" 
AR Path="/60403A40/6029FDA5" Ref="#PWR0127"  Part="1" 
AR Path="/5FF29AD4/604766AE/6029FDA5" Ref="#PWR0125"  Part="1" 
AR Path="/6051CE37/6029FDA5" Ref="#PWR0125"  Part="1" 
F 0 "#PWR0125" H 10200 2800 50  0001 C CNN
F 1 "GND" H 10205 2877 50  0000 C CNN
F 2 "" H 10200 3050 50  0001 C CNN
F 3 "" H 10200 3050 50  0001 C CNN
	1    10200 3050
	-1   0    0    -1  
$EndComp
Wire Wire Line
	10450 2950 9650 2950
Wire Wire Line
	10450 3450 9650 3450
Wire Wire Line
	10200 3050 9650 3050
Wire Wire Line
	8500 2950 8650 2950
Connection ~ 8500 2950
Connection ~ 8500 2300
$Comp
L Device:C C?
U 1 1 6019AA9C
P 8350 2300
AR Path="/5FF29AD4/5FF2DE95/6019AA9C" Ref="C?"  Part="1" 
AR Path="/60403A40/6019AA9C" Ref="C126"  Part="1" 
AR Path="/5FF29AD4/604766AE/6019AA9C" Ref="C129"  Part="1" 
AR Path="/6051CE37/6019AA9C" Ref="C131"  Part="1" 
F 0 "C131" V 8098 2300 50  0000 C CNN
F 1 "100n" V 8189 2300 50  0000 C CNN
F 2 "Capacitor_SMD:C_0603_1608Metric_Pad1.08x0.95mm_HandSolder" H 8388 2150 50  0001 C CNN
F 3 "~" H 8350 2300 50  0001 C CNN
	1    8350 2300
	0    -1   1    0   
$EndComp
Wire Wire Line
	8500 1900 8500 2300
$Comp
L Device:C C?
U 1 1 6019AA94
P 8350 1900
AR Path="/5FF29AD4/5FF2DE95/6019AA94" Ref="C?"  Part="1" 
AR Path="/60403A40/6019AA94" Ref="C124"  Part="1" 
AR Path="/5FF29AD4/604766AE/6019AA94" Ref="C127"  Part="1" 
AR Path="/6051CE37/6019AA94" Ref="C129"  Part="1" 
F 0 "C129" V 8098 1900 50  0000 C CNN
F 1 "10u" V 8189 1900 50  0000 C CNN
F 2 "Capacitor_SMD:C_1210_3225Metric_Pad1.33x2.70mm_HandSolder" H 8388 1750 50  0001 C CNN
F 3 "~" H 8350 1900 50  0001 C CNN
	1    8350 1900
	0    -1   1    0   
$EndComp
$Comp
L power:+15V #PWR?
U 1 1 60123A52
P 7900 3200
AR Path="/5FF29AD4/5FF2DE95/60123A52" Ref="#PWR?"  Part="1" 
AR Path="/60403A40/60123A52" Ref="#PWR0129"  Part="1" 
AR Path="/5FF29AD4/604766AE/60123A52" Ref="#PWR0127"  Part="1" 
AR Path="/6051CE37/60123A52" Ref="#PWR0127"  Part="1" 
F 0 "#PWR0127" H 7900 3050 50  0001 C CNN
F 1 "+15V" H 7915 3373 50  0000 C CNN
F 2 "" H 7900 3200 50  0001 C CNN
F 3 "" H 7900 3200 50  0001 C CNN
	1    7900 3200
	1    0    0    -1  
$EndComp
Connection ~ 8300 3250
Wire Wire Line
	8300 3300 8300 3250
Wire Wire Line
	7900 3250 8300 3250
Wire Wire Line
	7900 3600 8300 3600
Wire Wire Line
	8300 3600 8550 3600
Connection ~ 8300 3600
$Comp
L Device:C C?
U 1 1 600FAB88
P 8300 3450
AR Path="/5FF29AD4/5FF2DE95/600FAB88" Ref="C?"  Part="1" 
AR Path="/60403A40/600FAB88" Ref="C130"  Part="1" 
AR Path="/5FF29AD4/604766AE/600FAB88" Ref="C133"  Part="1" 
AR Path="/6051CE37/600FAB88" Ref="C135"  Part="1" 
F 0 "C135" H 8415 3496 50  0000 L CNN
F 1 "10u" H 8415 3405 50  0000 L CNN
F 2 "Capacitor_SMD:C_1210_3225Metric_Pad1.33x2.70mm_HandSolder" H 8338 3300 50  0001 C CNN
F 3 "~" H 8300 3450 50  0001 C CNN
	1    8300 3450
	1    0    0    -1  
$EndComp
Wire Wire Line
	7900 3200 7900 3250
NoConn ~ 8650 3050
NoConn ~ 8650 3150
Wire Wire Line
	8550 3450 8650 3450
Wire Wire Line
	8550 3600 8550 3450
Wire Wire Line
	7200 2850 8650 2850
Wire Wire Line
	7200 3350 8650 3350
Wire Wire Line
	1650 4200 1750 4200
Connection ~ 1750 4200
Wire Wire Line
	5550 1050 5550 1300
$Comp
L Device:C C?
U 1 1 60190966
P 5750 1450
AR Path="/5FF29AD4/5FF2DE95/60190966" Ref="C?"  Part="1" 
AR Path="/60403A40/60190966" Ref="C116"  Part="1" 
AR Path="/5FF29AD4/604766AE/60190966" Ref="C119"  Part="1" 
AR Path="/6051CE37/60190966" Ref="C120"  Part="1" 
F 0 "C120" H 5865 1496 50  0000 L CNN
F 1 "1u" H 5865 1405 50  0000 L CNN
F 2 "Capacitor_SMD:C_2220_5650Metric_Pad1.97x5.40mm_HandSolder" H 5788 1300 50  0001 C CNN
F 3 "~" H 5750 1450 50  0001 C CNN
	1    5750 1450
	1    0    0    -1  
$EndComp
$Comp
L Device:C C?
U 1 1 601912B1
P 6100 1450
AR Path="/5FF29AD4/5FF2DE95/601912B1" Ref="C?"  Part="1" 
AR Path="/60403A40/601912B1" Ref="C117"  Part="1" 
AR Path="/5FF29AD4/604766AE/601912B1" Ref="C120"  Part="1" 
AR Path="/6051CE37/601912B1" Ref="C121"  Part="1" 
F 0 "C121" H 6215 1496 50  0000 L CNN
F 1 "1u" H 6215 1405 50  0000 L CNN
F 2 "Capacitor_SMD:C_2220_5650Metric_Pad1.97x5.40mm_HandSolder" H 6138 1300 50  0001 C CNN
F 3 "~" H 6100 1450 50  0001 C CNN
	1    6100 1450
	1    0    0    -1  
$EndComp
$Comp
L Device:C C?
U 1 1 60191939
P 6450 1450
AR Path="/5FF29AD4/5FF2DE95/60191939" Ref="C?"  Part="1" 
AR Path="/60403A40/60191939" Ref="C118"  Part="1" 
AR Path="/5FF29AD4/604766AE/60191939" Ref="C121"  Part="1" 
AR Path="/6051CE37/60191939" Ref="C126"  Part="1" 
F 0 "C126" H 6565 1496 50  0000 L CNN
F 1 "100n" H 6565 1405 50  0000 L CNN
F 2 "Capacitor_SMD:C_1206_3216Metric_Pad1.33x1.80mm_HandSolder" H 6488 1300 50  0001 C CNN
F 3 "~" H 6450 1450 50  0001 C CNN
	1    6450 1450
	1    0    0    -1  
$EndComp
Wire Wire Line
	5550 1300 5750 1300
Connection ~ 5550 1300
Wire Wire Line
	5550 1300 5550 2300
Connection ~ 5750 1300
Wire Wire Line
	5750 1300 6100 1300
Connection ~ 6100 1300
Wire Wire Line
	6100 1300 6450 1300
Wire Wire Line
	5750 1600 6100 1600
Connection ~ 6100 1600
Wire Wire Line
	6100 1600 6450 1600
$Comp
L power:GND #PWR?
U 1 1 6019C5BB
P 6100 1600
AR Path="/5FF29AD4/5FF2DE95/6019C5BB" Ref="#PWR?"  Part="1" 
AR Path="/60403A40/6019C5BB" Ref="#PWR0117"  Part="1" 
AR Path="/5FF29AD4/604766AE/6019C5BB" Ref="#PWR0128"  Part="1" 
AR Path="/6051CE37/6019C5BB" Ref="#PWR0128"  Part="1" 
F 0 "#PWR0128" H 6100 1350 50  0001 C CNN
F 1 "GND" H 6105 1427 50  0000 C CNN
F 2 "" H 6100 1600 50  0001 C CNN
F 3 "" H 6100 1600 50  0001 C CNN
	1    6100 1600
	1    0    0    -1  
$EndComp
Connection ~ 3450 3250
Connection ~ 7900 3250
Wire Wire Line
	8300 3250 8650 3250
Wire Wire Line
	1750 3150 1750 4200
Wire Wire Line
	9750 3150 9750 4200
Wire Wire Line
	8200 2750 8650 2750
Text HLabel 5550 1050 1    50   Input ~ 0
V_IN
Text HLabel 1650 4200 0    50   Input ~ 0
DISABLE
Text HLabel 1700 2850 0    50   Input ~ 0
IN1_L
Text HLabel 1700 2750 0    50   Input ~ 0
IN1_H
Text HLabel 9850 2750 2    50   Input ~ 0
IN2_H
Text HLabel 9850 2850 2    50   Input ~ 0
IN2_L
$Comp
L Device:Q_NMOS_GDS Q3
U 1 1 60578AE5
P 4750 2550
AR Path="/60403A40/60578AE5" Ref="Q3"  Part="1" 
AR Path="/5FF29AD4/604766AE/60578AE5" Ref="Q3"  Part="1" 
AR Path="/6051CE37/60578AE5" Ref="Q3"  Part="1" 
F 0 "Q3" H 4954 2596 50  0000 L CNN
F 1 "Q_NMOS_GDS" H 4954 2505 50  0000 L CNN
F 2 "Package_TO_SOT_THT:TO-220-3_Vertical" H 4950 2650 50  0001 C CNN
F 3 "~" H 4750 2550 50  0001 C CNN
	1    4750 2550
	1    0    0    -1  
$EndComp
$Comp
L Device:Q_NMOS_GDS Q5
U 1 1 60579C12
P 4750 3350
AR Path="/60403A40/60579C12" Ref="Q5"  Part="1" 
AR Path="/5FF29AD4/604766AE/60579C12" Ref="Q5"  Part="1" 
AR Path="/6051CE37/60579C12" Ref="Q5"  Part="1" 
F 0 "Q5" H 4954 3396 50  0000 L CNN
F 1 "Q_NMOS_GDS" H 4954 3305 50  0000 L CNN
F 2 "Package_TO_SOT_THT:TO-220-3_Vertical" H 4950 3450 50  0001 C CNN
F 3 "~" H 4750 3350 50  0001 C CNN
	1    4750 3350
	1    0    0    -1  
$EndComp
$Comp
L Device:Q_NMOS_GDS Q4
U 1 1 6057AB2E
P 6350 2550
AR Path="/60403A40/6057AB2E" Ref="Q4"  Part="1" 
AR Path="/5FF29AD4/604766AE/6057AB2E" Ref="Q4"  Part="1" 
AR Path="/6051CE37/6057AB2E" Ref="Q4"  Part="1" 
F 0 "Q4" H 6555 2596 50  0000 L CNN
F 1 "Q_NMOS_GDS" H 6555 2505 50  0000 L CNN
F 2 "Package_TO_SOT_THT:TO-220-3_Vertical" H 6550 2650 50  0001 C CNN
F 3 "~" H 6350 2550 50  0001 C CNN
	1    6350 2550
	-1   0    0    -1  
$EndComp
$Comp
L Device:Q_NMOS_GDS Q6
U 1 1 6057C200
P 6350 3350
AR Path="/60403A40/6057C200" Ref="Q6"  Part="1" 
AR Path="/5FF29AD4/604766AE/6057C200" Ref="Q6"  Part="1" 
AR Path="/6051CE37/6057C200" Ref="Q6"  Part="1" 
F 0 "Q6" H 6555 3396 50  0000 L CNN
F 1 "Q_NMOS_GDS" H 6555 3305 50  0000 L CNN
F 2 "Package_TO_SOT_THT:TO-220-3_Vertical" H 6550 3450 50  0001 C CNN
F 3 "~" H 6350 3350 50  0001 C CNN
	1    6350 3350
	-1   0    0    -1  
$EndComp
$Comp
L Device:D_Schottky D20
U 1 1 6070DC73
P 5150 3350
AR Path="/60403A40/6070DC73" Ref="D20"  Part="1" 
AR Path="/5FF29AD4/604766AE/6070DC73" Ref="D20"  Part="1" 
AR Path="/6051CE37/6070DC73" Ref="D20"  Part="1" 
F 0 "D20" V 5104 3430 50  0000 L CNN
F 1 "D_Schottky" V 5195 3430 50  0000 L CNN
F 2 "Diode_SMD:D_SMB_Handsoldering" H 5150 3350 50  0001 C CNN
F 3 "~" H 5150 3350 50  0001 C CNN
	1    5150 3350
	0    1    1    0   
$EndComp
$Comp
L Device:D_Schottky D21
U 1 1 6070E946
P 5950 3350
AR Path="/60403A40/6070E946" Ref="D21"  Part="1" 
AR Path="/5FF29AD4/604766AE/6070E946" Ref="D21"  Part="1" 
AR Path="/6051CE37/6070E946" Ref="D21"  Part="1" 
F 0 "D21" V 5904 3430 50  0000 L CNN
F 1 "D_Schottky" V 5995 3430 50  0000 L CNN
F 2 "Diode_SMD:D_SMB_Handsoldering" H 5950 3350 50  0001 C CNN
F 3 "~" H 5950 3350 50  0001 C CNN
	1    5950 3350
	0    1    1    0   
$EndComp
$Comp
L Device:D_Schottky D15
U 1 1 6070F196
P 5950 2550
AR Path="/60403A40/6070F196" Ref="D15"  Part="1" 
AR Path="/5FF29AD4/604766AE/6070F196" Ref="D15"  Part="1" 
AR Path="/6051CE37/6070F196" Ref="D15"  Part="1" 
F 0 "D15" V 5904 2630 50  0000 L CNN
F 1 "D_Schottky" V 5995 2630 50  0000 L CNN
F 2 "Diode_SMD:D_SMB_Handsoldering" H 5950 2550 50  0001 C CNN
F 3 "~" H 5950 2550 50  0001 C CNN
	1    5950 2550
	0    1    1    0   
$EndComp
$Comp
L Device:D_Schottky D14
U 1 1 60710192
P 5150 2550
AR Path="/60403A40/60710192" Ref="D14"  Part="1" 
AR Path="/5FF29AD4/604766AE/60710192" Ref="D14"  Part="1" 
AR Path="/6051CE37/60710192" Ref="D14"  Part="1" 
F 0 "D14" V 5104 2630 50  0000 L CNN
F 1 "D_Schottky" V 5195 2630 50  0000 L CNN
F 2 "Diode_SMD:D_SMB_Handsoldering" H 5150 2550 50  0001 C CNN
F 3 "~" H 5150 2550 50  0001 C CNN
	1    5150 2550
	0    1    1    0   
$EndComp
Text HLabel 5900 2850 0    50   Input ~ 0
SR_COIL-
$Comp
L Device:CP C?
U 1 1 604A45F2
P 4700 1450
AR Path="/5FDB46C8/604A45F2" Ref="C?"  Part="1" 
AR Path="/5FF29AD4/604A45F2" Ref="C?"  Part="1" 
AR Path="/5FF29AD4/604766AE/604A45F2" Ref="C117"  Part="1" 
AR Path="/6051CE37/604A45F2" Ref="C118"  Part="1" 
F 0 "C118" H 4818 1496 50  0000 L CNN
F 1 "100u" H 4818 1405 50  0000 L CNN
F 2 "Capacitor_THT:CP_Radial_D12.5mm_P5.00mm" H 4738 1300 50  0001 C CNN
F 3 "~" H 4700 1450 50  0001 C CNN
	1    4700 1450
	1    0    0    -1  
$EndComp
$Comp
L power:GND #PWR?
U 1 1 604A45F8
P 4700 1650
AR Path="/5FF29AD4/604A45F8" Ref="#PWR?"  Part="1" 
AR Path="/5FF29AD4/604766AE/604A45F8" Ref="#PWR0154"  Part="1" 
AR Path="/6051CE37/604A45F8" Ref="#PWR0136"  Part="1" 
F 0 "#PWR0136" H 4700 1400 50  0001 C CNN
F 1 "GND" H 4705 1477 50  0000 C CNN
F 2 "" H 4700 1650 50  0001 C CNN
F 3 "" H 4700 1650 50  0001 C CNN
	1    4700 1650
	1    0    0    -1  
$EndComp
Wire Wire Line
	4700 1650 4700 1600
Wire Wire Line
	3300 2300 3300 2750
Wire Wire Line
	3000 2300 3000 2950
Text HLabel 2600 1700 0    50   Input ~ 0
GND_1
Text HLabel 2600 1550 0    50   Input ~ 0
15V_1
Wire Wire Line
	2600 1700 3000 1700
Wire Wire Line
	3000 1700 3000 1900
Connection ~ 3000 1900
Wire Wire Line
	2600 1550 3300 1550
Wire Wire Line
	3300 1550 3300 1900
Connection ~ 3300 1900
Text HLabel 8900 1700 2    50   Input ~ 0
GND_2
Text HLabel 8900 1550 2    50   Input ~ 0
15V_2
Wire Wire Line
	8900 1700 8500 1700
Wire Wire Line
	8500 1700 8500 1900
Wire Wire Line
	8900 1550 8200 1550
Wire Wire Line
	8200 1550 8200 1900
Wire Wire Line
	8200 2300 8200 2750
Wire Wire Line
	8500 2300 8500 2950
$Comp
L Device:R R66
U 1 1 609E3DB2
P 4450 2750
AR Path="/5FF29AD4/604766AE/609E3DB2" Ref="R66"  Part="1" 
AR Path="/6051CE37/609E3DB2" Ref="R61"  Part="1" 
F 0 "R61" H 4520 2796 50  0000 L CNN
F 1 "10k" H 4520 2705 50  0000 L CNN
F 2 "Resistor_SMD:R_0603_1608Metric_Pad0.98x0.95mm_HandSolder" V 4380 2750 50  0001 C CNN
F 3 "~" H 4450 2750 50  0001 C CNN
	1    4450 2750
	1    0    0    -1  
$EndComp
Wire Wire Line
	4450 2600 4450 2550
Connection ~ 4450 2550
Wire Wire Line
	4450 2550 4550 2550
Wire Wire Line
	4450 2900 4450 2950
Connection ~ 4450 2950
Wire Wire Line
	4450 2950 4850 2950
$Comp
L Device:R R67
U 1 1 609F3E0E
P 6650 2750
AR Path="/5FF29AD4/604766AE/609F3E0E" Ref="R67"  Part="1" 
AR Path="/6051CE37/609F3E0E" Ref="R62"  Part="1" 
F 0 "R62" H 6720 2796 50  0000 L CNN
F 1 "10k" H 6720 2705 50  0000 L CNN
F 2 "Resistor_SMD:R_0603_1608Metric_Pad0.98x0.95mm_HandSolder" V 6580 2750 50  0001 C CNN
F 3 "~" H 6650 2750 50  0001 C CNN
	1    6650 2750
	1    0    0    -1  
$EndComp
Wire Wire Line
	6650 2600 6650 2550
Connection ~ 6650 2550
Wire Wire Line
	6650 2550 6550 2550
Wire Wire Line
	6650 2900 6650 2950
Connection ~ 6650 2950
Wire Wire Line
	6650 2950 8500 2950
$Comp
L Device:R R74
U 1 1 60A2995D
P 4300 3500
AR Path="/5FF29AD4/604766AE/60A2995D" Ref="R74"  Part="1" 
AR Path="/6051CE37/60A2995D" Ref="R65"  Part="1" 
F 0 "R65" H 4100 3550 50  0000 L CNN
F 1 "10k" H 4100 3450 50  0000 L CNN
F 2 "Resistor_SMD:R_0603_1608Metric_Pad0.98x0.95mm_HandSolder" V 4230 3500 50  0001 C CNN
F 3 "~" H 4300 3500 50  0001 C CNN
	1    4300 3500
	0    -1   -1   0   
$EndComp
Wire Wire Line
	4150 3500 4100 3500
Wire Wire Line
	4450 3500 4500 3500
Wire Wire Line
	4500 3500 4500 3350
Connection ~ 4500 3350
Wire Wire Line
	4500 3350 4550 3350
Wire Wire Line
	4100 3500 4100 3600
Connection ~ 4100 3600
Wire Wire Line
	4100 3600 4850 3600
$Comp
L Device:R R75
U 1 1 60A43A31
P 6800 3500
AR Path="/5FF29AD4/604766AE/60A43A31" Ref="R75"  Part="1" 
AR Path="/6051CE37/60A43A31" Ref="R66"  Part="1" 
F 0 "R66" H 6600 3550 50  0000 L CNN
F 1 "10k" H 6600 3450 50  0000 L CNN
F 2 "Resistor_SMD:R_0603_1608Metric_Pad0.98x0.95mm_HandSolder" V 6730 3500 50  0001 C CNN
F 3 "~" H 6800 3500 50  0001 C CNN
	1    6800 3500
	0    1    -1   0   
$EndComp
Wire Wire Line
	6950 3500 7000 3500
Wire Wire Line
	6650 3500 6600 3500
Wire Wire Line
	6600 3500 6600 3350
Connection ~ 6600 3350
Wire Wire Line
	6600 3350 6550 3350
Wire Wire Line
	7000 3500 7000 3600
Connection ~ 7000 3600
Wire Wire Line
	7000 3600 7900 3600
Wire Wire Line
	5700 5350 5800 5350
$Comp
L power:GND #PWR?
U 1 1 6005DCE6
P 5550 5850
AR Path="/5FE135BD/6005DCE6" Ref="#PWR?"  Part="1" 
AR Path="/5FF29AD4/5FF2DE95/6005DCE6" Ref="#PWR?"  Part="1" 
AR Path="/60403A40/6005DCE6" Ref="#PWR0136"  Part="1" 
AR Path="/5FF29AD4/604766AE/6005DCE6" Ref="#PWR0116"  Part="1" 
AR Path="/6051CE37/6005DCE6" Ref="#PWR0146"  Part="1" 
F 0 "#PWR0146" H 5550 5600 50  0001 C CNN
F 1 "GND" H 5555 5677 50  0000 C CNN
F 2 "" H 5550 5850 50  0001 C CNN
F 3 "" H 5550 5850 50  0001 C CNN
	1    5550 5850
	1    0    0    -1  
$EndComp
Text HLabel 7350 5450 2    50   Input ~ 0
CURRENT_SENSE
Wire Wire Line
	6950 5150 6400 5150
Wire Wire Line
	6500 5750 6950 5750
Wire Wire Line
	6100 5350 6200 5350
$Comp
L Device:R R64
U 1 1 606900FF
P 5950 5350
AR Path="/60403A40/606900FF" Ref="R64"  Part="1" 
AR Path="/5FF29AD4/604766AE/606900FF" Ref="R62"  Part="1" 
AR Path="/6051CE37/606900FF" Ref="R68"  Part="1" 
F 0 "R68" V 6150 5350 50  0000 L CNN
F 1 "10k" V 6050 5300 50  0000 L CNN
F 2 "Resistor_SMD:R_0603_1608Metric_Pad0.98x0.95mm_HandSolder" V 5880 5350 50  0001 C CNN
F 3 "~" H 5950 5350 50  0001 C CNN
	1    5950 5350
	0    -1   -1   0   
$EndComp
Wire Wire Line
	6400 4450 6400 4500
Wire Wire Line
	6800 4800 6950 4800
$Comp
L power:GND #PWR0134
U 1 1 606A6A93
P 6800 4800
AR Path="/60403A40/606A6A93" Ref="#PWR0134"  Part="1" 
AR Path="/5FF29AD4/604766AE/606A6A93" Ref="#PWR0138"  Part="1" 
AR Path="/6051CE37/606A6A93" Ref="#PWR0153"  Part="1" 
F 0 "#PWR0153" H 6800 4550 50  0001 C CNN
F 1 "GND" H 6805 4627 50  0000 C CNN
F 2 "" H 6800 4800 50  0001 C CNN
F 3 "" H 6800 4800 50  0001 C CNN
	1    6800 4800
	1    0    0    -1  
$EndComp
Wire Wire Line
	6850 5800 6850 5450
Wire Wire Line
	6150 6150 6150 5550
Wire Wire Line
	6850 6150 6850 6200
Wire Wire Line
	6850 6150 6150 6150
Wire Wire Line
	6850 5450 6800 5450
Wire Wire Line
	6850 6550 6850 6500
$Comp
L power:GND #PWR0138
U 1 1 60624D51
P 6850 6550
AR Path="/60403A40/60624D51" Ref="#PWR0138"  Part="1" 
AR Path="/5FF29AD4/604766AE/60624D51" Ref="#PWR0137"  Part="1" 
AR Path="/6051CE37/60624D51" Ref="#PWR0154"  Part="1" 
F 0 "#PWR0154" H 6850 6300 50  0001 C CNN
F 1 "GND" H 6855 6377 50  0000 C CNN
F 2 "" H 6850 6550 50  0001 C CNN
F 3 "" H 6850 6550 50  0001 C CNN
	1    6850 6550
	1    0    0    -1  
$EndComp
Connection ~ 6850 6150
Wire Wire Line
	6850 6100 6850 6150
Wire Wire Line
	6150 5550 6200 5550
$Comp
L power:GND #PWR0135
U 1 1 60541616
P 6400 5750
AR Path="/60403A40/60541616" Ref="#PWR0135"  Part="1" 
AR Path="/5FF29AD4/604766AE/60541616" Ref="#PWR0135"  Part="1" 
AR Path="/6051CE37/60541616" Ref="#PWR0155"  Part="1" 
F 0 "#PWR0155" H 6400 5500 50  0001 C CNN
F 1 "GND" H 6405 5577 50  0000 C CNN
F 2 "" H 6400 5750 50  0001 C CNN
F 3 "" H 6400 5750 50  0001 C CNN
	1    6400 5750
	1    0    0    -1  
$EndComp
$Comp
L Device:R R67
U 1 1 60531C1C
P 6850 6350
AR Path="/60403A40/60531C1C" Ref="R67"  Part="1" 
AR Path="/5FF29AD4/604766AE/60531C1C" Ref="R65"  Part="1" 
AR Path="/6051CE37/60531C1C" Ref="R75"  Part="1" 
F 0 "R75" H 6920 6396 50  0000 L CNN
F 1 "1.3k" H 6920 6305 50  0000 L CNN
F 2 "Resistor_SMD:R_0603_1608Metric_Pad0.98x0.95mm_HandSolder" V 6780 6350 50  0001 C CNN
F 3 "~" H 6850 6350 50  0001 C CNN
	1    6850 6350
	1    0    0    -1  
$EndComp
$Comp
L Device:R R66
U 1 1 60531195
P 6850 5950
AR Path="/60403A40/60531195" Ref="R66"  Part="1" 
AR Path="/5FF29AD4/604766AE/60531195" Ref="R64"  Part="1" 
AR Path="/6051CE37/60531195" Ref="R74"  Part="1" 
F 0 "R74" H 6920 5996 50  0000 L CNN
F 1 "4.7k" H 6920 5905 50  0000 L CNN
F 2 "Resistor_SMD:R_0603_1608Metric_Pad0.98x0.95mm_HandSolder" V 6780 5950 50  0001 C CNN
F 3 "~" H 6850 5950 50  0001 C CNN
	1    6850 5950
	1    0    0    -1  
$EndComp
Wire Wire Line
	6950 5750 6950 5150
Connection ~ 6400 4500
Wire Wire Line
	6400 4500 6400 5150
$Comp
L Device:C C?
U 1 1 604F015D
P 6950 4650
AR Path="/5FF29AD4/5FFEE41D/604F015D" Ref="C?"  Part="1" 
AR Path="/604014AF/604F015D" Ref="C?"  Part="1" 
AR Path="/60403A40/604F015D" Ref="C136"  Part="1" 
AR Path="/5FF29AD4/604766AE/604F015D" Ref="C147"  Part="1" 
AR Path="/6051CE37/604F015D" Ref="C156"  Part="1" 
F 0 "C156" H 7065 4696 50  0000 L CNN
F 1 "100n" H 7065 4605 50  0000 L CNN
F 2 "Capacitor_SMD:C_0603_1608Metric_Pad1.08x0.95mm_HandSolder" H 6988 4500 50  0001 C CNN
F 3 "~" H 6950 4650 50  0001 C CNN
	1    6950 4650
	1    0    0    -1  
$EndComp
Connection ~ 6800 4800
Wire Wire Line
	6650 4800 6800 4800
Wire Wire Line
	6400 4500 6650 4500
Wire Wire Line
	6950 4500 6650 4500
Connection ~ 6650 4500
$Comp
L Device:C C?
U 1 1 604F0141
P 6650 4650
AR Path="/5FF29AD4/5FFEE41D/604F0141" Ref="C?"  Part="1" 
AR Path="/604014AF/604F0141" Ref="C?"  Part="1" 
AR Path="/60403A40/604F0141" Ref="C135"  Part="1" 
AR Path="/5FF29AD4/604766AE/604F0141" Ref="C146"  Part="1" 
AR Path="/6051CE37/604F0141" Ref="C154"  Part="1" 
F 0 "C154" H 6765 4696 50  0000 L CNN
F 1 "1u" H 6765 4605 50  0000 L CNN
F 2 "Capacitor_SMD:C_0805_2012Metric_Pad1.18x1.45mm_HandSolder" H 6688 4500 50  0001 C CNN
F 3 "~" H 6650 4650 50  0001 C CNN
	1    6650 4650
	1    0    0    -1  
$EndComp
Connection ~ 6400 5150
$Comp
L AMR_1D_magnetometer-rescue:ADA4805-Amplifier_Operational U27
U 1 1 604E6C58
P 6500 5450
AR Path="/60403A40/604E6C58" Ref="U27"  Part="1" 
AR Path="/5FF29AD4/604766AE/604E6C58" Ref="U27"  Part="1" 
AR Path="/6051CE37/604E6C58" Ref="U27"  Part="1" 
F 0 "U27" H 6150 5700 50  0000 L CNN
F 1 "ADA4805" H 6050 5800 50  0000 L CNN
F 2 "Package_TO_SOT_SMD:SOT-23-6_Handsoldering" H 6550 5750 50  0001 C CNN
F 3 "" H 6550 5750 50  0001 C CNN
	1    6500 5450
	1    0    0    -1  
$EndComp
$Comp
L Device:C C?
U 1 1 6050F0B0
P 6750 1450
AR Path="/5FF29AD4/5FF2DE95/6050F0B0" Ref="C?"  Part="1" 
AR Path="/60403A40/6050F0B0" Ref="C?"  Part="1" 
AR Path="/5FF29AD4/604766AE/6050F0B0" Ref="C158"  Part="1" 
AR Path="/6051CE37/6050F0B0" Ref="C127"  Part="1" 
F 0 "C127" H 6865 1496 50  0000 L CNN
F 1 "100n" H 6865 1405 50  0000 L CNN
F 2 "Capacitor_SMD:C_1206_3216Metric_Pad1.33x1.80mm_HandSolder" H 6788 1300 50  0001 C CNN
F 3 "~" H 6750 1450 50  0001 C CNN
	1    6750 1450
	1    0    0    -1  
$EndComp
Wire Wire Line
	6450 1300 6750 1300
Connection ~ 6450 1300
Wire Wire Line
	6450 1600 6750 1600
Connection ~ 6450 1600
Wire Wire Line
	4700 1300 5550 1300
Text HLabel 5200 3050 2    50   Input ~ 0
SR_COIL+
Wire Wire Line
	5200 3050 5150 3050
Connection ~ 5150 3050
Wire Wire Line
	5150 3050 5150 3200
Wire Wire Line
	5900 2850 5950 2850
Connection ~ 5950 2850
Wire Wire Line
	5950 2850 5950 2950
Wire Wire Line
	5950 2950 5950 3200
$Comp
L power:+3.3V #PWR016
U 1 1 60598B73
P 1050 2950
F 0 "#PWR016" H 1050 2800 50  0001 C CNN
F 1 "+3.3V" H 1065 3123 50  0000 C CNN
F 2 "" H 1050 2950 50  0001 C CNN
F 3 "" H 1050 2950 50  0001 C CNN
	1    1050 2950
	1    0    0    -1  
$EndComp
Connection ~ 1050 2950
$Comp
L power:+3.3V #PWR0120
U 1 1 605A23D8
P 10450 2950
F 0 "#PWR0120" H 10450 2800 50  0001 C CNN
F 1 "+3.3V" H 10465 3123 50  0000 C CNN
F 2 "" H 10450 2950 50  0001 C CNN
F 3 "" H 10450 2950 50  0001 C CNN
	1    10450 2950
	1    0    0    -1  
$EndComp
Connection ~ 10450 2950
$Comp
L GE:ADUM4223 U25
U 1 1 605BF335
P 2350 3100
F 0 "U25" H 2350 3715 50  0000 C CNN
F 1 "ADUM4223" H 2350 3624 50  0000 C CNN
F 2 "Package_SO:SOIC-16W_7.5x10.3mm_P1.27mm" H 2350 3700 50  0001 C CNN
F 3 "" H 2350 3700 50  0001 C CNN
	1    2350 3100
	1    0    0    -1  
$EndComp
$Comp
L GE:ADUM4223 U26
U 1 1 605C1355
P 9150 3100
F 0 "U26" H 9150 3715 50  0000 C CNN
F 1 "ADUM4223" H 9150 3624 50  0000 C CNN
F 2 "Package_SO:SOIC-16W_7.5x10.3mm_P1.27mm" H 9150 3700 50  0001 C CNN
F 3 "" H 9150 3700 50  0001 C CNN
	1    9150 3100
	-1   0    0    -1  
$EndComp
$Comp
L Device:R R?
U 1 1 6080A1AB
P 7150 5450
AR Path="/60403A40/6080A1AB" Ref="R?"  Part="1" 
AR Path="/5FF29AD4/604766AE/6080A1AB" Ref="R?"  Part="1" 
AR Path="/6051CE37/6080A1AB" Ref="R42"  Part="1" 
F 0 "R42" H 7220 5496 50  0000 L CNN
F 1 "1k" H 7220 5405 50  0000 L CNN
F 2 "Resistor_SMD:R_0603_1608Metric_Pad0.98x0.95mm_HandSolder" V 7080 5450 50  0001 C CNN
F 3 "~" H 7150 5450 50  0001 C CNN
	1    7150 5450
	0    -1   -1   0   
$EndComp
Wire Wire Line
	7300 5450 7350 5450
Wire Wire Line
	7000 5450 6850 5450
Connection ~ 6850 5450
$Comp
L power:+3.3V #PWR0140
U 1 1 6082FBF2
P 6400 4450
F 0 "#PWR0140" H 6400 4300 50  0001 C CNN
F 1 "+3.3V" H 6415 4623 50  0000 C CNN
F 2 "" H 6400 4450 50  0001 C CNN
F 3 "" H 6400 4450 50  0001 C CNN
	1    6400 4450
	1    0    0    -1  
$EndComp
$Comp
L Device:R R?
U 1 1 60B39B15
P 5550 5450
AR Path="/60403A40/60B39B15" Ref="R?"  Part="1" 
AR Path="/5FF29AD4/604766AE/60B39B15" Ref="R?"  Part="1" 
AR Path="/6051CE37/60B39B15" Ref="R70"  Part="1" 
F 0 "R70" V 5750 5450 50  0000 L CNN
F 1 "Rs" V 5650 5400 50  0000 L CNN
F 2 "Resistor_SMD:R_1210_3225Metric_Pad1.30x2.65mm_HandSolder" V 5480 5450 50  0001 C CNN
F 3 "~" H 5550 5450 50  0001 C CNN
	1    5550 5450
	1    0    0    -1  
$EndComp
Wire Wire Line
	5550 5600 5550 5850
Wire Wire Line
	5550 3600 5550 5250
Wire Wire Line
	5700 5350 5700 5250
Wire Wire Line
	5700 5250 5550 5250
Connection ~ 5550 5250
Wire Wire Line
	5550 5250 5550 5300
$EndSCHEMATC
