EESchema Schematic File Version 4
EELAYER 30 0
EELAYER END
$Descr A4 11693 8268
encoding utf-8
Sheet 7 13
Title ""
Date ""
Rev ""
Comp ""
Comment1 ""
Comment2 ""
Comment3 ""
Comment4 ""
$EndDescr
$Comp
L AMR_1D_magnetometer-rescue:DRV8844-Driver_Motor U?
U 1 1 5FFB32AC
P 5450 3350
F 0 "U?" H 5450 4265 50  0000 C CNN
F 1 "DRV8844" H 5450 4174 50  0000 C CNN
F 2 "" H 5450 4300 50  0001 C CNN
F 3 "" H 5450 4300 50  0001 C CNN
	1    5450 3350
	1    0    0    -1  
$EndComp
Wire Wire Line
	4900 3100 4800 3100
Wire Wire Line
	4800 3100 4800 3300
Wire Wire Line
	4800 3300 4900 3300
Wire Wire Line
	4900 3400 4800 3400
Wire Wire Line
	4800 3600 4900 3600
Wire Wire Line
	4900 3500 4700 3500
Wire Wire Line
	4700 3500 4700 3200
Wire Wire Line
	4700 3200 4900 3200
Connection ~ 4700 3500
Text HLabel 4500 3100 0    50   Input ~ 0
OUT1
Text HLabel 4500 3400 0    50   Input ~ 0
OUT2
$Comp
L power:GND #PWR?
U 1 1 5FFB65DC
P 6250 2550
F 0 "#PWR?" H 6250 2300 50  0001 C CNN
F 1 "GND" H 6255 2377 50  0000 C CNN
F 2 "" H 6250 2550 50  0001 C CNN
F 3 "" H 6250 2550 50  0001 C CNN
	1    6250 2550
	1    0    0    -1  
$EndComp
Wire Wire Line
	6250 2550 6250 2500
Wire Wire Line
	6250 2500 6100 2500
Wire Wire Line
	6100 2500 6100 2700
Wire Wire Line
	6100 2700 6000 2700
$Comp
L power:GND #PWR?
U 1 1 5FFB7741
P 6300 3450
F 0 "#PWR?" H 6300 3200 50  0001 C CNN
F 1 "GND" H 6305 3277 50  0000 C CNN
F 2 "" H 6300 3450 50  0001 C CNN
F 3 "" H 6300 3450 50  0001 C CNN
	1    6300 3450
	1    0    0    -1  
$EndComp
$Comp
L Device:C C?
U 1 1 5FFB8166
P 4550 2650
F 0 "C?" H 4665 2696 50  0000 L CNN
F 1 "100n" H 4665 2605 50  0000 L CNN
F 2 "" H 4588 2500 50  0001 C CNN
F 3 "~" H 4550 2650 50  0001 C CNN
	1    4550 2650
	1    0    0    -1  
$EndComp
Wire Wire Line
	4900 2800 4550 2800
Wire Wire Line
	4550 2500 4900 2500
Wire Wire Line
	4900 2500 4900 2700
$Comp
L Device:C C?
U 1 1 5FFB8DB4
P 3550 2850
F 0 "C?" H 3665 2896 50  0000 L CNN
F 1 "100n" H 3665 2805 50  0000 L CNN
F 2 "" H 3588 2700 50  0001 C CNN
F 3 "~" H 3550 2850 50  0001 C CNN
	1    3550 2850
	1    0    0    -1  
$EndComp
Wire Wire Line
	4900 3000 4600 3000
Wire Wire Line
	4900 2900 4250 2900
Wire Wire Line
	4250 2900 4250 2700
Wire Wire Line
	4800 3400 4800 3600
Wire Wire Line
	4800 3400 4500 3400
Connection ~ 4800 3400
Wire Wire Line
	4500 3100 4800 3100
Connection ~ 4800 3100
$Comp
L power:GND #PWR?
U 1 1 5FFBBADA
P 3550 3300
F 0 "#PWR?" H 3550 3050 50  0001 C CNN
F 1 "GND" H 3555 3127 50  0000 C CNN
F 2 "" H 3550 3300 50  0001 C CNN
F 3 "" H 3550 3300 50  0001 C CNN
	1    3550 3300
	1    0    0    -1  
$EndComp
$Comp
L power:GND #PWR?
U 1 1 5FFB5D42
P 4700 4050
F 0 "#PWR?" H 4700 3800 50  0001 C CNN
F 1 "GND" H 4705 3877 50  0000 C CNN
F 2 "" H 4700 4050 50  0001 C CNN
F 3 "" H 4700 4050 50  0001 C CNN
	1    4700 4050
	1    0    0    -1  
$EndComp
Wire Wire Line
	4700 3500 4700 4000
Wire Wire Line
	4900 4000 4700 4000
Connection ~ 4700 4000
Wire Wire Line
	4700 4000 4700 4050
Wire Wire Line
	4900 3700 4600 3700
Wire Wire Line
	4600 3700 4600 3000
NoConn ~ 4900 3800
NoConn ~ 4900 3900
$Comp
L power:GND #PWR?
U 1 1 5FFBEF7E
P 5450 4200
F 0 "#PWR?" H 5450 3950 50  0001 C CNN
F 1 "GND" H 5455 4027 50  0000 C CNN
F 2 "" H 5450 4200 50  0001 C CNN
F 3 "" H 5450 4200 50  0001 C CNN
	1    5450 4200
	1    0    0    -1  
$EndComp
$Comp
L Device:C C?
U 1 1 5FFBF2CE
P 6100 4200
F 0 "C?" H 6215 4246 50  0000 L CNN
F 1 "470n" H 6215 4155 50  0000 L CNN
F 2 "" H 6138 4050 50  0001 C CNN
F 3 "~" H 6100 4200 50  0001 C CNN
	1    6100 4200
	1    0    0    -1  
$EndComp
Wire Wire Line
	6000 4000 6100 4000
Wire Wire Line
	6100 4000 6100 4050
$Comp
L power:GND #PWR?
U 1 1 5FFC0127
P 6100 4350
F 0 "#PWR?" H 6100 4100 50  0001 C CNN
F 1 "GND" H 6105 4177 50  0000 C CNN
F 2 "" H 6100 4350 50  0001 C CNN
F 3 "" H 6100 4350 50  0001 C CNN
	1    6100 4350
	1    0    0    -1  
$EndComp
Wire Wire Line
	6000 2800 6100 2800
Wire Wire Line
	6100 2800 6100 3000
Wire Wire Line
	6100 3000 6000 3000
Wire Wire Line
	6000 2900 6050 2900
Wire Wire Line
	6050 2900 6050 3100
Wire Wire Line
	6050 3100 6000 3100
Wire Wire Line
	6000 3200 6100 3200
Wire Wire Line
	6100 3200 6100 3400
Wire Wire Line
	6100 3400 6000 3400
Wire Wire Line
	6000 3300 6050 3300
Wire Wire Line
	6050 3300 6050 3500
Wire Wire Line
	6050 3500 6000 3500
Wire Wire Line
	6000 3600 6200 3600
Wire Wire Line
	6200 3600 6200 3400
Wire Wire Line
	6200 3400 6300 3400
Wire Wire Line
	6300 3400 6300 3450
Text HLabel 7050 3700 2    50   Input ~ 0
nFAULT
Text HLabel 7050 3800 2    50   Input ~ 0
nSLEEP
Text HLabel 7050 3900 2    50   Input ~ 0
nRESET
$Comp
L Device:R R?
U 1 1 5FFCA32E
P 6950 3550
F 0 "R?" H 7020 3596 50  0000 L CNN
F 1 "10k" H 7020 3505 50  0000 L CNN
F 2 "" V 6880 3550 50  0001 C CNN
F 3 "~" H 6950 3550 50  0001 C CNN
	1    6950 3550
	1    0    0    -1  
$EndComp
Connection ~ 6950 3700
Wire Wire Line
	6950 3700 7050 3700
$Comp
L power:+3.3V #PWR?
U 1 1 5FFCAA4A
P 6950 3400
F 0 "#PWR?" H 6950 3250 50  0001 C CNN
F 1 "+3.3V" H 6965 3573 50  0000 C CNN
F 2 "" H 6950 3400 50  0001 C CNN
F 3 "" H 6950 3400 50  0001 C CNN
	1    6950 3400
	1    0    0    -1  
$EndComp
Wire Wire Line
	6000 3700 6950 3700
Wire Wire Line
	6000 3800 7050 3800
Wire Wire Line
	6000 3900 7050 3900
Text HLabel 6500 2800 2    50   Input ~ 0
IN1
Text HLabel 6500 2900 2    50   Input ~ 0
EN1
Text HLabel 6500 3200 2    50   Input ~ 0
IN2
Text HLabel 6500 3300 2    50   Input ~ 0
EN2
Wire Wire Line
	6050 3300 6500 3300
Connection ~ 6050 3300
Wire Wire Line
	6500 3200 6100 3200
Connection ~ 6100 3200
Wire Wire Line
	6050 2900 6500 2900
Connection ~ 6050 2900
Wire Wire Line
	6500 2800 6100 2800
Connection ~ 6100 2800
$Comp
L Device:CP C?
U 1 1 5FFD2C55
P 3550 3150
F 0 "C?" H 3668 3196 50  0000 L CNN
F 1 "10u" H 3668 3105 50  0000 L CNN
F 2 "" H 3588 3000 50  0001 C CNN
F 3 "~" H 3550 3150 50  0001 C CNN
	1    3550 3150
	1    0    0    -1  
$EndComp
Connection ~ 3550 3000
Text HLabel 3350 3000 0    50   Input ~ 0
V_IN
Wire Wire Line
	3350 3000 3550 3000
Wire Wire Line
	3550 2700 4250 2700
Wire Wire Line
	3550 3000 3950 3000
Connection ~ 4600 3000
$Comp
L Device:C C?
U 1 1 5FFEFE54
P 3950 3150
F 0 "C?" H 4065 3196 50  0000 L CNN
F 1 "100n" H 4065 3105 50  0000 L CNN
F 2 "" H 3988 3000 50  0001 C CNN
F 3 "~" H 3950 3150 50  0001 C CNN
	1    3950 3150
	1    0    0    -1  
$EndComp
Connection ~ 3950 3000
Wire Wire Line
	3950 3000 4600 3000
Wire Wire Line
	3550 3300 3950 3300
Connection ~ 3550 3300
$EndSCHEMATC
