EESchema Schematic File Version 4
EELAYER 30 0
EELAYER END
$Descr A4 11693 8268
encoding utf-8
Sheet 14 14
Title ""
Date ""
Rev ""
Comp ""
Comment1 ""
Comment2 ""
Comment3 ""
Comment4 ""
$EndDescr
$Comp
L Device:C C?
U 1 1 601AB75F
P 5900 3100
AR Path="/5FF29AD4/5FFF09C6/601AB75F" Ref="C?"  Part="1" 
AR Path="/5FF29AD4/601A7EC2/601AB75F" Ref="C?"  Part="1" 
F 0 "C?" H 6015 3146 50  0000 L CNN
F 1 "100n" H 6015 3055 50  0000 L CNN
F 2 "" H 5938 2950 50  0001 C CNN
F 3 "~" H 5900 3100 50  0001 C CNN
	1    5900 3100
	1    0    0    -1  
$EndComp
$Comp
L power:GND #PWR?
U 1 1 601AB76E
P 5650 4050
AR Path="/5FF29AD4/5FFF09C6/601AB76E" Ref="#PWR?"  Part="1" 
AR Path="/5FF29AD4/601A7EC2/601AB76E" Ref="#PWR?"  Part="1" 
F 0 "#PWR?" H 5650 3800 50  0001 C CNN
F 1 "GND" H 5655 3877 50  0000 C CNN
F 2 "" H 5650 4050 50  0001 C CNN
F 3 "" H 5650 4050 50  0001 C CNN
	1    5650 4050
	1    0    0    -1  
$EndComp
Text HLabel 4600 3750 0    50   Input ~ 0
ENABLE
Wire Wire Line
	7350 3250 7350 3550
$Comp
L Device:R R?
U 1 1 601AB77B
P 6800 3750
AR Path="/5FF29AD4/601AB77B" Ref="R?"  Part="1" 
AR Path="/5FF29AD4/5FFF09C6/601AB77B" Ref="R?"  Part="1" 
AR Path="/5FF29AD4/601A7EC2/601AB77B" Ref="R?"  Part="1" 
F 0 "R?" V 6593 3750 50  0000 C CNN
F 1 "10" V 6684 3750 50  0000 C CNN
F 2 "" V 6730 3750 50  0001 C CNN
F 3 "~" H 6800 3750 50  0001 C CNN
	1    6800 3750
	0    1    1    0   
$EndComp
Text HLabel 7350 3250 1    50   Input ~ 0
DRAIN
Wire Wire Line
	7350 3950 7350 4150
$Comp
L Device:Q_NMOS_DGS Q?
U 1 1 601AB796
P 7250 3750
AR Path="/5FF29AD4/601AB796" Ref="Q?"  Part="1" 
AR Path="/5FF29AD4/5FFF09C6/601AB796" Ref="Q?"  Part="1" 
AR Path="/5FF29AD4/601A7EC2/601AB796" Ref="Q?"  Part="1" 
F 0 "Q?" H 7454 3796 50  0000 L CNN
F 1 "Q_NMOS_DGS" H 7454 3705 50  0000 L CNN
F 2 "" H 7450 3850 50  0001 C CNN
F 3 "~" H 7250 3750 50  0001 C CNN
	1    7250 3750
	1    0    0    -1  
$EndComp
$Comp
L Device:R R?
U 1 1 601AB79E
P 4900 3900
AR Path="/5FF29AD4/5FFF09C6/601AB79E" Ref="R?"  Part="1" 
AR Path="/5FF29AD4/601A7EC2/601AB79E" Ref="R?"  Part="1" 
F 0 "R?" H 4970 3946 50  0000 L CNN
F 1 "10k" H 4970 3855 50  0000 L CNN
F 2 "" V 4830 3900 50  0001 C CNN
F 3 "~" H 4900 3900 50  0001 C CNN
	1    4900 3900
	1    0    0    -1  
$EndComp
$Comp
L power:GND #PWR?
U 1 1 601AB7A6
P 4900 4050
AR Path="/5FF29AD4/5FFF09C6/601AB7A6" Ref="#PWR?"  Part="1" 
AR Path="/5FF29AD4/601A7EC2/601AB7A6" Ref="#PWR?"  Part="1" 
F 0 "#PWR?" H 4900 3800 50  0001 C CNN
F 1 "GND" H 4905 3877 50  0000 C CNN
F 2 "" H 4900 4050 50  0001 C CNN
F 3 "" H 4900 4050 50  0001 C CNN
	1    4900 4050
	1    0    0    -1  
$EndComp
$Comp
L Driver_FET:MCP1416 U?
U 1 1 601BC5BA
P 5650 3750
F 0 "U?" H 6094 3796 50  0000 L CNN
F 1 "MCP1416" H 6094 3705 50  0000 L CNN
F 2 "Package_TO_SOT_SMD:SOT-23-5" H 5650 3350 50  0001 C CIN
F 3 "http://ww1.microchip.com/downloads/en/DeviceDoc/20002092F.pdf" H 5450 4000 50  0001 C CNN
	1    5650 3750
	1    0    0    -1  
$EndComp
Wire Wire Line
	6050 3750 6650 3750
Wire Wire Line
	6950 3750 7050 3750
$Comp
L power:GND #PWR?
U 1 1 601BD624
P 7350 4150
F 0 "#PWR?" H 7350 3900 50  0001 C CNN
F 1 "GND" H 7355 3977 50  0000 C CNN
F 2 "" H 7350 4150 50  0001 C CNN
F 3 "" H 7350 4150 50  0001 C CNN
	1    7350 4150
	1    0    0    -1  
$EndComp
$Comp
L power:+15V #PWR?
U 1 1 601BE54A
P 5650 2900
F 0 "#PWR?" H 5650 2750 50  0001 C CNN
F 1 "+15V" H 5665 3073 50  0000 C CNN
F 2 "" H 5650 2900 50  0001 C CNN
F 3 "" H 5650 2900 50  0001 C CNN
	1    5650 2900
	1    0    0    -1  
$EndComp
$Comp
L power:GND #PWR?
U 1 1 601BF6E5
P 5900 3250
F 0 "#PWR?" H 5900 3000 50  0001 C CNN
F 1 "GND" H 5905 3077 50  0000 C CNN
F 2 "" H 5900 3250 50  0001 C CNN
F 3 "" H 5900 3250 50  0001 C CNN
	1    5900 3250
	1    0    0    -1  
$EndComp
Wire Wire Line
	5650 3450 5650 2950
Wire Wire Line
	5900 2950 5650 2950
Connection ~ 5650 2950
Wire Wire Line
	5650 2950 5650 2900
Connection ~ 4900 3750
Wire Wire Line
	4900 3750 5350 3750
Wire Wire Line
	4600 3750 4900 3750
$Comp
L Device:C C?
U 1 1 601C110D
P 6350 3100
F 0 "C?" H 6465 3146 50  0000 L CNN
F 1 "1u" H 6465 3055 50  0000 L CNN
F 2 "" H 6388 2950 50  0001 C CNN
F 3 "~" H 6350 3100 50  0001 C CNN
	1    6350 3100
	1    0    0    -1  
$EndComp
Wire Wire Line
	5900 2950 6350 2950
Connection ~ 5900 2950
$Comp
L power:GND #PWR?
U 1 1 601C17FF
P 6350 3250
F 0 "#PWR?" H 6350 3000 50  0001 C CNN
F 1 "GND" H 6355 3077 50  0000 C CNN
F 2 "" H 6350 3250 50  0001 C CNN
F 3 "" H 6350 3250 50  0001 C CNN
	1    6350 3250
	1    0    0    -1  
$EndComp
$EndSCHEMATC
