EESchema Schematic File Version 4
EELAYER 30 0
EELAYER END
$Descr A4 11693 8268
encoding utf-8
Sheet 5 12
Title ""
Date ""
Rev ""
Comp ""
Comment1 ""
Comment2 ""
Comment3 ""
Comment4 ""
$EndDescr
$Comp
L Device:R R?
U 1 1 60042743
P 9900 4200
AR Path="/5FE7E32F/60042743" Ref="R?"  Part="1" 
AR Path="/5FF29AD4/60042743" Ref="R?"  Part="1" 
AR Path="/5FF29AD4/6003ADD4/60042743" Ref="R?"  Part="1" 
AR Path="/60403A4F/60042743" Ref="R45"  Part="1" 
F 0 "R45" H 9970 4246 50  0000 L CNN
F 1 "300" H 9970 4155 50  0000 L CNN
F 2 "Resistor_SMD:R_0805_2012Metric_Pad1.20x1.40mm_HandSolder" V 9830 4200 50  0001 C CNN
F 3 "~" H 9900 4200 50  0001 C CNN
	1    9900 4200
	1    0    0    -1  
$EndComp
$Comp
L Device:R R?
U 1 1 6004277A
P 8450 4000
AR Path="/5FF29AD4/6004277A" Ref="R?"  Part="1" 
AR Path="/5FF29AD4/6003ADD4/6004277A" Ref="R?"  Part="1" 
AR Path="/60403A4F/6004277A" Ref="R44"  Part="1" 
F 0 "R44" H 8520 4046 50  0000 L CNN
F 1 "10k" H 8520 3955 50  0000 L CNN
F 2 "Resistor_SMD:R_0603_1608Metric_Pad0.98x0.95mm_HandSolder" V 8380 4000 50  0001 C CNN
F 3 "~" H 8450 4000 50  0001 C CNN
	1    8450 4000
	1    0    0    -1  
$EndComp
Wire Wire Line
	5950 3000 5900 3000
$Comp
L Device:C C?
U 1 1 6016017F
P 5100 2350
AR Path="/5FF29AD4/6003ADD4/6016017F" Ref="C?"  Part="1" 
AR Path="/60403A4F/6016017F" Ref="C82"  Part="1" 
F 0 "C82" H 5215 2396 50  0000 L CNN
F 1 "10u" H 5215 2305 50  0000 L CNN
F 2 "Capacitor_SMD:C_1210_3225Metric_Pad1.33x2.70mm_HandSolder" H 5138 2200 50  0001 C CNN
F 3 "~" H 5100 2350 50  0001 C CNN
	1    5100 2350
	1    0    0    -1  
$EndComp
$Comp
L Device:C C?
U 1 1 60160A59
P 5500 2350
AR Path="/5FF29AD4/6003ADD4/60160A59" Ref="C?"  Part="1" 
AR Path="/60403A4F/60160A59" Ref="C83"  Part="1" 
F 0 "C83" H 5615 2396 50  0000 L CNN
F 1 "100n" H 5615 2305 50  0000 L CNN
F 2 "Capacitor_SMD:C_0603_1608Metric_Pad1.08x0.95mm_HandSolder" H 5538 2200 50  0001 C CNN
F 3 "~" H 5500 2350 50  0001 C CNN
	1    5500 2350
	1    0    0    -1  
$EndComp
Wire Wire Line
	5100 2500 5300 2500
Wire Wire Line
	4950 2200 5100 2200
Wire Wire Line
	4950 2200 4950 2700
$Comp
L power:GND #PWR?
U 1 1 6016BCE1
P 5300 2500
AR Path="/5FF29AD4/6003ADD4/6016BCE1" Ref="#PWR?"  Part="1" 
AR Path="/60403A4F/6016BCE1" Ref="#PWR078"  Part="1" 
F 0 "#PWR078" H 5300 2250 50  0001 C CNN
F 1 "GND" H 5305 2327 50  0000 C CNN
F 2 "" H 5300 2500 50  0001 C CNN
F 3 "" H 5300 2500 50  0001 C CNN
	1    5300 2500
	1    0    0    -1  
$EndComp
Connection ~ 5300 2500
Wire Wire Line
	5300 2500 5500 2500
Connection ~ 5100 2200
$Sheet
S 6800 2850 700  600 
U 600CDF27
F0 "PWM1 DAC" 50
F1 "pwm_dac.sch" 50
F2 "PWM" I L 6800 3300 50 
F3 "V_REF" I L 6800 3000 50 
F4 "V_OUT" I R 7500 3150 50 
$EndSheet
Wire Wire Line
	6600 3300 6800 3300
$Sheet
S 6800 4350 700  600 
U 600E50B3
F0 "PWM2 DAC" 50
F1 "pwm_dac.sch" 50
F2 "PWM" I L 6800 4800 50 
F3 "V_REF" I L 6800 4500 50 
F4 "V_OUT" I R 7500 4650 50 
$EndSheet
Wire Wire Line
	6600 4800 6800 4800
$Comp
L AMR_1D_magnetometer-rescue:ADA4805-Amplifier_Operational U?
U 1 1 600FFEA9
P 8950 4750
AR Path="/5FF29AD4/6003ADD4/600FFEA9" Ref="U?"  Part="1" 
AR Path="/60403A4F/600FFEA9" Ref="U18"  Part="1" 
F 0 "U18" H 8550 5100 50  0000 L CNN
F 1 "ADA4805" H 8400 5000 50  0000 L CNN
F 2 "Package_TO_SOT_SMD:SOT-23-6_Handsoldering" H 9000 5050 50  0001 C CNN
F 3 "" H 9000 5050 50  0001 C CNN
	1    8950 4750
	1    0    0    -1  
$EndComp
Wire Wire Line
	8650 3350 8550 3350
Wire Wire Line
	8550 3350 8550 3750
Wire Wire Line
	9900 3750 9900 4050
Wire Wire Line
	9900 4750 9900 4350
$Comp
L Device:R R?
U 1 1 6011918D
P 9650 4750
AR Path="/5FF29AD4/6003ADD4/6011918D" Ref="R?"  Part="1" 
AR Path="/60403A4F/6011918D" Ref="R47"  Part="1" 
F 0 "R47" V 9443 4750 50  0000 C CNN
F 1 "22" V 9534 4750 50  0000 C CNN
F 2 "Resistor_SMD:R_0603_1608Metric_Pad0.98x0.95mm_HandSolder" V 9580 4750 50  0001 C CNN
F 3 "~" H 9650 4750 50  0001 C CNN
	1    9650 4750
	0    1    1    0   
$EndComp
Wire Wire Line
	9800 4750 9900 4750
$Comp
L Device:R R?
U 1 1 6011AF85
P 9650 5250
AR Path="/5FF29AD4/6003ADD4/6011AF85" Ref="R?"  Part="1" 
AR Path="/60403A4F/6011AF85" Ref="R48"  Part="1" 
F 0 "R48" V 9443 5250 50  0000 C CNN
F 1 "100k" V 9534 5250 50  0000 C CNN
F 2 "Resistor_SMD:R_0603_1608Metric_Pad0.98x0.95mm_HandSolder" V 9580 5250 50  0001 C CNN
F 3 "~" H 9650 5250 50  0001 C CNN
	1    9650 5250
	0    1    1    0   
$EndComp
$Comp
L Device:C C?
U 1 1 6011B7D6
P 9250 5000
AR Path="/5FF29AD4/6003ADD4/6011B7D6" Ref="C?"  Part="1" 
AR Path="/60403A4F/6011B7D6" Ref="C94"  Part="1" 
F 0 "C94" H 9365 5046 50  0000 L CNN
F 1 "100n" H 9365 4955 50  0000 L CNN
F 2 "Capacitor_SMD:C_0603_1608Metric_Pad1.08x0.95mm_HandSolder" H 9288 4850 50  0001 C CNN
F 3 "~" H 9250 5000 50  0001 C CNN
	1    9250 5000
	1    0    0    -1  
$EndComp
Wire Wire Line
	9250 4850 9250 4750
Connection ~ 9250 4750
Wire Wire Line
	9250 5150 9250 5250
Wire Wire Line
	9800 5250 9900 5250
Wire Wire Line
	9900 5250 9900 4750
Connection ~ 9900 4750
Wire Wire Line
	9250 5250 8550 5250
Wire Wire Line
	8550 5250 8550 4850
Wire Wire Line
	8550 4850 8650 4850
Connection ~ 9250 5250
Wire Wire Line
	9250 5250 9500 5250
Wire Wire Line
	9250 4750 9500 4750
Wire Wire Line
	9900 3750 10000 3750
Wire Wire Line
	5950 3000 5950 3500
$Comp
L AMR_1D_magnetometer-rescue:ADA4805-Amplifier_Operational U?
U 1 1 601273F7
P 5050 3000
AR Path="/5FF29AD4/6003ADD4/601273F7" Ref="U?"  Part="1" 
AR Path="/60403A4F/601273F7" Ref="U16"  Part="1" 
F 0 "U16" H 5100 3250 50  0000 L CNN
F 1 "ADA4805" H 5100 3150 50  0000 L CNN
F 2 "Package_TO_SOT_SMD:SOT-23-6_Handsoldering" H 5100 3300 50  0001 C CNN
F 3 "" H 5100 3300 50  0001 C CNN
	1    5050 3000
	1    0    0    -1  
$EndComp
$Comp
L Device:R R?
U 1 1 601273FE
P 5750 3000
AR Path="/5FF29AD4/6003ADD4/601273FE" Ref="R?"  Part="1" 
AR Path="/60403A4F/601273FE" Ref="R40"  Part="1" 
F 0 "R40" V 5543 3000 50  0000 C CNN
F 1 "22" V 5634 3000 50  0000 C CNN
F 2 "Resistor_SMD:R_0603_1608Metric_Pad0.98x0.95mm_HandSolder" V 5680 3000 50  0001 C CNN
F 3 "~" H 5750 3000 50  0001 C CNN
	1    5750 3000
	0    1    1    0   
$EndComp
$Comp
L Device:R R?
U 1 1 60127404
P 5750 3500
AR Path="/5FF29AD4/6003ADD4/60127404" Ref="R?"  Part="1" 
AR Path="/60403A4F/60127404" Ref="R43"  Part="1" 
F 0 "R43" V 5543 3500 50  0000 C CNN
F 1 "10k" V 5634 3500 50  0000 C CNN
F 2 "Resistor_SMD:R_0603_1608Metric_Pad0.98x0.95mm_HandSolder" V 5680 3500 50  0001 C CNN
F 3 "~" H 5750 3500 50  0001 C CNN
	1    5750 3500
	0    1    1    0   
$EndComp
$Comp
L Device:C C?
U 1 1 6012740A
P 5350 3250
AR Path="/5FF29AD4/6003ADD4/6012740A" Ref="C?"  Part="1" 
AR Path="/60403A4F/6012740A" Ref="C90"  Part="1" 
F 0 "C90" H 5465 3296 50  0000 L CNN
F 1 "100n" H 5465 3205 50  0000 L CNN
F 2 "Capacitor_SMD:C_0603_1608Metric_Pad1.08x0.95mm_HandSolder" H 5388 3100 50  0001 C CNN
F 3 "~" H 5350 3250 50  0001 C CNN
	1    5350 3250
	1    0    0    -1  
$EndComp
Wire Wire Line
	5350 3100 5350 3000
Wire Wire Line
	5350 3400 5350 3500
Wire Wire Line
	5350 3500 4650 3500
Wire Wire Line
	4650 3500 4650 3100
Wire Wire Line
	4650 3100 4750 3100
Connection ~ 5350 3500
Wire Wire Line
	5350 3500 5600 3500
Wire Wire Line
	5350 3000 5600 3000
Wire Wire Line
	5900 3500 5950 3500
Connection ~ 5950 3500
Wire Wire Line
	5950 3500 5950 4500
Wire Wire Line
	5150 3300 5050 3300
$Comp
L power:GND #PWR?
U 1 1 6012D0A3
P 4950 3300
AR Path="/5FF29AD4/6003ADD4/6012D0A3" Ref="#PWR?"  Part="1" 
AR Path="/60403A4F/6012D0A3" Ref="#PWR085"  Part="1" 
F 0 "#PWR085" H 4950 3050 50  0001 C CNN
F 1 "GND" H 4955 3127 50  0000 C CNN
F 2 "" H 4950 3300 50  0001 C CNN
F 3 "" H 4950 3300 50  0001 C CNN
	1    4950 3300
	1    0    0    -1  
$EndComp
$Comp
L Device:C C?
U 1 1 6012F122
P 9000 4250
AR Path="/5FF29AD4/6003ADD4/6012F122" Ref="C?"  Part="1" 
AR Path="/60403A4F/6012F122" Ref="C92"  Part="1" 
F 0 "C92" H 9115 4296 50  0000 L CNN
F 1 "10u" H 9115 4205 50  0000 L CNN
F 2 "Capacitor_SMD:C_1210_3225Metric_Pad1.33x2.70mm_HandSolder" H 9038 4100 50  0001 C CNN
F 3 "~" H 9000 4250 50  0001 C CNN
	1    9000 4250
	1    0    0    -1  
$EndComp
$Comp
L Device:C C?
U 1 1 6012F128
P 9400 4250
AR Path="/5FF29AD4/6003ADD4/6012F128" Ref="C?"  Part="1" 
AR Path="/60403A4F/6012F128" Ref="C93"  Part="1" 
F 0 "C93" H 9515 4296 50  0000 L CNN
F 1 "100n" H 9515 4205 50  0000 L CNN
F 2 "Capacitor_SMD:C_0603_1608Metric_Pad1.08x0.95mm_HandSolder" H 9438 4100 50  0001 C CNN
F 3 "~" H 9400 4250 50  0001 C CNN
	1    9400 4250
	1    0    0    -1  
$EndComp
Wire Wire Line
	9000 4400 9200 4400
Wire Wire Line
	8850 4100 9000 4100
$Comp
L power:GND #PWR?
U 1 1 6012F132
P 9200 4400
AR Path="/5FF29AD4/6003ADD4/6012F132" Ref="#PWR?"  Part="1" 
AR Path="/60403A4F/6012F132" Ref="#PWR090"  Part="1" 
F 0 "#PWR090" H 9200 4150 50  0001 C CNN
F 1 "GND" H 9205 4227 50  0000 C CNN
F 2 "" H 9200 4400 50  0001 C CNN
F 3 "" H 9200 4400 50  0001 C CNN
	1    9200 4400
	1    0    0    -1  
$EndComp
Connection ~ 9200 4400
Wire Wire Line
	9200 4400 9400 4400
Connection ~ 9000 4100
$Comp
L Device:C C?
U 1 1 60132BBD
P 9000 2700
AR Path="/5FF29AD4/6003ADD4/60132BBD" Ref="C?"  Part="1" 
AR Path="/60403A4F/60132BBD" Ref="C84"  Part="1" 
F 0 "C84" H 9115 2746 50  0000 L CNN
F 1 "10u" H 9115 2655 50  0000 L CNN
F 2 "Capacitor_SMD:C_1210_3225Metric_Pad1.33x2.70mm_HandSolder" H 9038 2550 50  0001 C CNN
F 3 "~" H 9000 2700 50  0001 C CNN
	1    9000 2700
	1    0    0    -1  
$EndComp
$Comp
L Device:C C?
U 1 1 60132BC3
P 9400 2700
AR Path="/5FF29AD4/6003ADD4/60132BC3" Ref="C?"  Part="1" 
AR Path="/60403A4F/60132BC3" Ref="C85"  Part="1" 
F 0 "C85" H 9515 2746 50  0000 L CNN
F 1 "100n" H 9515 2655 50  0000 L CNN
F 2 "Capacitor_SMD:C_0603_1608Metric_Pad1.08x0.95mm_HandSolder" H 9438 2550 50  0001 C CNN
F 3 "~" H 9400 2700 50  0001 C CNN
	1    9400 2700
	1    0    0    -1  
$EndComp
Wire Wire Line
	9000 2850 9200 2850
Wire Wire Line
	8850 2550 9000 2550
$Comp
L power:GND #PWR?
U 1 1 60132BCB
P 9200 2850
AR Path="/5FF29AD4/6003ADD4/60132BCB" Ref="#PWR?"  Part="1" 
AR Path="/60403A4F/60132BCB" Ref="#PWR081"  Part="1" 
F 0 "#PWR081" H 9200 2600 50  0001 C CNN
F 1 "GND" H 9205 2677 50  0000 C CNN
F 2 "" H 9200 2850 50  0001 C CNN
F 3 "" H 9200 2850 50  0001 C CNN
	1    9200 2850
	1    0    0    -1  
$EndComp
Connection ~ 9200 2850
Wire Wire Line
	9200 2850 9400 2850
Connection ~ 9000 2550
Wire Wire Line
	8850 2550 8850 2950
$Comp
L power:GND #PWR?
U 1 1 60138717
P 8850 5050
AR Path="/5FF29AD4/6003ADD4/60138717" Ref="#PWR?"  Part="1" 
AR Path="/60403A4F/60138717" Ref="#PWR091"  Part="1" 
F 0 "#PWR091" H 8850 4800 50  0001 C CNN
F 1 "GND" H 8855 4877 50  0000 C CNN
F 2 "" H 8850 5050 50  0001 C CNN
F 3 "" H 8850 5050 50  0001 C CNN
	1    8850 5050
	1    0    0    -1  
$EndComp
$Comp
L power:GND #PWR?
U 1 1 60139093
P 8850 3550
AR Path="/5FF29AD4/6003ADD4/60139093" Ref="#PWR?"  Part="1" 
AR Path="/60403A4F/60139093" Ref="#PWR087"  Part="1" 
F 0 "#PWR087" H 8850 3300 50  0001 C CNN
F 1 "GND" H 8855 3377 50  0000 C CNN
F 2 "" H 8850 3550 50  0001 C CNN
F 3 "" H 8850 3550 50  0001 C CNN
	1    8850 3550
	1    0    0    -1  
$EndComp
$Comp
L AMR_1D_magnetometer-rescue:ADA4805-Amplifier_Operational U?
U 1 1 601357C8
P 8950 3250
AR Path="/5FF29AD4/6003ADD4/601357C8" Ref="U?"  Part="1" 
AR Path="/60403A4F/601357C8" Ref="U17"  Part="1" 
F 0 "U17" H 8550 3600 50  0000 L CNN
F 1 "ADA4805" H 8400 3500 50  0000 L CNN
F 2 "Package_TO_SOT_SMD:SOT-23-6_Handsoldering" H 9000 3550 50  0001 C CNN
F 3 "" H 9000 3550 50  0001 C CNN
	1    8950 3250
	1    0    0    -1  
$EndComp
Wire Wire Line
	8950 3550 8950 3850
Wire Wire Line
	8950 5050 8950 5350
$Comp
L power:GND #PWR?
U 1 1 6014D44F
P 8450 4200
AR Path="/5FF29AD4/6003ADD4/6014D44F" Ref="#PWR?"  Part="1" 
AR Path="/60403A4F/6014D44F" Ref="#PWR089"  Part="1" 
F 0 "#PWR089" H 8450 3950 50  0001 C CNN
F 1 "GND" H 8455 4027 50  0000 C CNN
F 2 "" H 8450 4200 50  0001 C CNN
F 3 "" H 8450 4200 50  0001 C CNN
	1    8450 4200
	1    0    0    -1  
$EndComp
Wire Wire Line
	8450 4200 8450 4150
$Comp
L Device:C C?
U 1 1 60161243
P 10300 5000
AR Path="/5FF29AD4/6003ADD4/60161243" Ref="C?"  Part="1" 
AR Path="/60403A4F/60161243" Ref="C95"  Part="1" 
F 0 "C95" H 10415 5046 50  0000 L CNN
F 1 "1u" H 10415 4955 50  0000 L CNN
F 2 "Capacitor_SMD:C_0805_2012Metric_Pad1.18x1.45mm_HandSolder" H 10338 4850 50  0001 C CNN
F 3 "~" H 10300 5000 50  0001 C CNN
	1    10300 5000
	1    0    0    -1  
$EndComp
Wire Wire Line
	10300 4850 10300 4750
$Comp
L power:GND #PWR?
U 1 1 601633DC
P 10300 5200
AR Path="/5FF29AD4/6003ADD4/601633DC" Ref="#PWR?"  Part="1" 
AR Path="/60403A4F/601633DC" Ref="#PWR092"  Part="1" 
F 0 "#PWR092" H 10300 4950 50  0001 C CNN
F 1 "GND" H 10305 5027 50  0000 C CNN
F 2 "" H 10300 5200 50  0001 C CNN
F 3 "" H 10300 5200 50  0001 C CNN
	1    10300 5200
	1    0    0    -1  
$EndComp
Wire Wire Line
	10300 5200 10300 5150
Connection ~ 5350 3000
Wire Wire Line
	8850 4100 8850 4450
$Comp
L power:GND #PWR?
U 1 1 6017AEBD
P 1350 3150
AR Path="/5FE7E32F/6017AEBD" Ref="#PWR?"  Part="1" 
AR Path="/5FDA6F72/6017AEBD" Ref="#PWR?"  Part="1" 
AR Path="/5FF29AD4/6003ADD4/6017AEBD" Ref="#PWR?"  Part="1" 
AR Path="/60403A4F/6017AEBD" Ref="#PWR082"  Part="1" 
F 0 "#PWR082" H 1350 2900 50  0001 C CNN
F 1 "GND" H 1355 2977 50  0000 C CNN
F 2 "" H 1350 3150 50  0001 C CNN
F 3 "" H 1350 3150 50  0001 C CNN
	1    1350 3150
	1    0    0    -1  
$EndComp
Wire Wire Line
	1350 3150 1350 3100
$Comp
L Device:C C?
U 1 1 6017AEC4
P 3500 3050
AR Path="/5FE7E32F/6017AEC4" Ref="C?"  Part="1" 
AR Path="/5FDA6F72/6017AEC4" Ref="C?"  Part="1" 
AR Path="/5FF29AD4/6003ADD4/6017AEC4" Ref="C?"  Part="1" 
AR Path="/60403A4F/6017AEC4" Ref="C88"  Part="1" 
F 0 "C88" H 3615 3096 50  0000 L CNN
F 1 "10u" H 3615 3005 50  0000 L CNN
F 2 "Capacitor_SMD:C_1210_3225Metric_Pad1.33x2.70mm_HandSolder" H 3538 2900 50  0001 C CNN
F 3 "~" H 3500 3050 50  0001 C CNN
	1    3500 3050
	1    0    0    -1  
$EndComp
$Comp
L Device:C C?
U 1 1 6017AECA
P 1700 2950
AR Path="/5FE7E32F/6017AECA" Ref="C?"  Part="1" 
AR Path="/5FDA6F72/6017AECA" Ref="C?"  Part="1" 
AR Path="/5FF29AD4/6003ADD4/6017AECA" Ref="C?"  Part="1" 
AR Path="/60403A4F/6017AECA" Ref="C87"  Part="1" 
F 0 "C87" H 1815 2996 50  0000 L CNN
F 1 "100n" H 1815 2905 50  0000 L CNN
F 2 "Capacitor_SMD:C_0603_1608Metric_Pad1.08x0.95mm_HandSolder" H 1738 2800 50  0001 C CNN
F 3 "~" H 1700 2950 50  0001 C CNN
	1    1700 2950
	1    0    0    -1  
$EndComp
Wire Wire Line
	1700 2800 2100 2800
Wire Wire Line
	2100 2800 2100 2900
Wire Wire Line
	2100 2900 2200 2900
Wire Wire Line
	2100 2800 2200 2800
Connection ~ 2100 2800
Wire Wire Line
	2200 3100 1700 3100
Connection ~ 1700 2800
Wire Wire Line
	3200 3000 3300 3000
Wire Wire Line
	3300 3000 3300 2900
Wire Wire Line
	3300 2900 3200 2900
$Comp
L power:GND #PWR?
U 1 1 6017AEDA
P 3500 3200
AR Path="/5FDA6F72/6017AEDA" Ref="#PWR?"  Part="1" 
AR Path="/5FF29AD4/6003ADD4/6017AEDA" Ref="#PWR?"  Part="1" 
AR Path="/60403A4F/6017AEDA" Ref="#PWR083"  Part="1" 
F 0 "#PWR083" H 3500 2950 50  0001 C CNN
F 1 "GND" H 3505 3027 50  0000 C CNN
F 2 "" H 3500 3200 50  0001 C CNN
F 3 "" H 3500 3200 50  0001 C CNN
	1    3500 3200
	1    0    0    -1  
$EndComp
Wire Wire Line
	3300 2900 3500 2900
Connection ~ 3300 2900
Connection ~ 3500 2900
$Comp
L AMR_1D_magnetometer-rescue:LTC6655-3-Reference_Voltage U?
U 1 1 6017AEE4
P 2700 2950
AR Path="/5FDA6F72/6017AEE4" Ref="U?"  Part="1" 
AR Path="/5FF29AD4/6003ADD4/6017AEE4" Ref="U?"  Part="1" 
AR Path="/60403A4F/6017AEE4" Ref="U15"  Part="1" 
F 0 "U15" H 2670 3365 50  0000 C CNN
F 1 "LTC6655-3" H 2670 3274 50  0000 C CNN
F 2 "Package_SO:MSOP-8_3x3mm_P0.65mm" H 2700 3400 50  0001 C CNN
F 3 "" H 2700 3400 50  0001 C CNN
	1    2700 2950
	1    0    0    -1  
$EndComp
$Comp
L Device:C C?
U 1 1 6017AEEA
P 3900 3050
AR Path="/5FDA6F72/6017AEEA" Ref="C?"  Part="1" 
AR Path="/5FF29AD4/6003ADD4/6017AEEA" Ref="C?"  Part="1" 
AR Path="/60403A4F/6017AEEA" Ref="C89"  Part="1" 
F 0 "C89" H 4015 3096 50  0000 L CNN
F 1 "100n" H 4015 3005 50  0000 L CNN
F 2 "Capacitor_SMD:C_0603_1608Metric_Pad1.08x0.95mm_HandSolder" H 3938 2900 50  0001 C CNN
F 3 "~" H 3900 3050 50  0001 C CNN
	1    3900 3050
	1    0    0    -1  
$EndComp
$Comp
L power:GND #PWR?
U 1 1 6017AEF0
P 3900 3200
AR Path="/5FDA6F72/6017AEF0" Ref="#PWR?"  Part="1" 
AR Path="/5FF29AD4/6003ADD4/6017AEF0" Ref="#PWR?"  Part="1" 
AR Path="/60403A4F/6017AEF0" Ref="#PWR084"  Part="1" 
F 0 "#PWR084" H 3900 2950 50  0001 C CNN
F 1 "GND" H 3905 3027 50  0000 C CNN
F 2 "" H 3900 3200 50  0001 C CNN
F 3 "" H 3900 3200 50  0001 C CNN
	1    3900 3200
	1    0    0    -1  
$EndComp
Wire Wire Line
	3500 2900 3900 2900
$Comp
L Device:R R?
U 1 1 6017AEF9
P 1000 2800
AR Path="/5FDA6F72/6017AEF9" Ref="R?"  Part="1" 
AR Path="/5FF29AD4/6003ADD4/6017AEF9" Ref="R?"  Part="1" 
AR Path="/60403A4F/6017AEF9" Ref="R38"  Part="1" 
F 0 "R38" V 793 2800 50  0000 C CNN
F 1 "10" V 884 2800 50  0000 C CNN
F 2 "Resistor_SMD:R_0603_1608Metric_Pad0.98x0.95mm_HandSolder" V 930 2800 50  0001 C CNN
F 3 "~" H 1000 2800 50  0001 C CNN
	1    1000 2800
	0    1    1    0   
$EndComp
$Comp
L Device:C C?
U 1 1 6017AEFF
P 1350 2950
AR Path="/5FDA6F72/6017AEFF" Ref="C?"  Part="1" 
AR Path="/5FF26FEA/6017AEFF" Ref="C?"  Part="1" 
AR Path="/5FF29AD4/5FFEE41D/6010CEC8/6017AEFF" Ref="C?"  Part="1" 
AR Path="/5FF29AD4/5FFEE41D/6017AEFF" Ref="C?"  Part="1" 
AR Path="/5FF29AD4/5FFEE41D/602775D5/6017AEFF" Ref="C?"  Part="1" 
AR Path="/5FF29AD4/6003ADD4/6017AEFF" Ref="C?"  Part="1" 
AR Path="/60403A4F/6017AEFF" Ref="C86"  Part="1" 
F 0 "C86" H 1465 2996 50  0000 L CNN
F 1 "10u" H 1465 2905 50  0000 L CNN
F 2 "Capacitor_SMD:C_1210_3225Metric_Pad1.33x2.70mm_HandSolder" H 1388 2800 50  0001 C CNN
F 3 "~" H 1350 2950 50  0001 C CNN
	1    1350 2950
	1    0    0    -1  
$EndComp
Wire Wire Line
	1350 2800 1700 2800
Wire Wire Line
	1350 3100 1700 3100
Wire Wire Line
	1150 2800 1350 2800
Connection ~ 1350 2800
Connection ~ 1350 3100
Connection ~ 1700 3100
Wire Wire Line
	800  2750 800  2800
Wire Wire Line
	800  2800 850  2800
Wire Wire Line
	5950 4500 6800 4500
Wire Wire Line
	5950 3000 6800 3000
Connection ~ 5950 3000
Text HLabel 8250 3850 0    50   Input ~ 0
OFFSET_ENABLE
Text HLabel 6600 3300 0    50   Input ~ 0
OFFSET_PWM2
Text HLabel 6600 4800 0    50   Input ~ 0
OFFSET_PWM1
Text HLabel 10000 3750 2    50   Input ~ 0
OFFSET_COIL-
Text HLabel 10000 3250 2    50   Input ~ 0
OFFSET_COIL+
Connection ~ 3900 2900
Wire Wire Line
	8350 3850 8350 5350
Wire Wire Line
	8350 3850 8450 3850
Wire Wire Line
	8350 5350 8950 5350
Wire Wire Line
	2200 3100 2200 3200
Connection ~ 2200 3100
Connection ~ 2200 3200
Wire Wire Line
	2200 3200 2200 3300
Connection ~ 2200 3300
Wire Wire Line
	2200 3300 2200 3400
Wire Wire Line
	3900 2900 4300 2900
Wire Wire Line
	7500 3150 8650 3150
$Comp
L Device:R R?
U 1 1 605BA5B7
P 4450 2900
AR Path="/5FF29AD4/6003ADD4/605BA5B7" Ref="R?"  Part="1" 
AR Path="/60403A4F/605BA5B7" Ref="R39"  Part="1" 
F 0 "R39" V 4243 2900 50  0000 C CNN
F 1 "10k" V 4334 2900 50  0000 C CNN
F 2 "Resistor_SMD:R_0603_1608Metric_Pad0.98x0.95mm_HandSolder" V 4380 2900 50  0001 C CNN
F 3 "~" H 4450 2900 50  0001 C CNN
	1    4450 2900
	0    1    1    0   
$EndComp
Wire Wire Line
	4600 2900 4750 2900
Wire Wire Line
	7500 4650 8650 4650
$Comp
L Device:C C?
U 1 1 601176E9
P 9300 3500
AR Path="/5FF29AD4/6003ADD4/601176E9" Ref="C?"  Part="1" 
AR Path="/60403A4F/601176E9" Ref="C91"  Part="1" 
F 0 "C91" H 9415 3546 50  0000 L CNN
F 1 "100p" H 9415 3455 50  0000 L CNN
F 2 "Capacitor_SMD:C_0603_1608Metric_Pad1.08x0.95mm_HandSolder" H 9338 3350 50  0001 C CNN
F 3 "~" H 9300 3500 50  0001 C CNN
	1    9300 3500
	1    0    0    -1  
$EndComp
Wire Wire Line
	9250 3250 9300 3250
Wire Wire Line
	9300 3350 9300 3250
Wire Wire Line
	8550 3750 9300 3750
Wire Wire Line
	9300 3750 9300 3650
$Comp
L Device:R R?
U 1 1 605E624E
P 9600 3750
AR Path="/5FF29AD4/6003ADD4/605E624E" Ref="R?"  Part="1" 
AR Path="/60403A4F/605E624E" Ref="R41"  Part="1" 
F 0 "R41" V 9800 3750 50  0000 C CNN
F 1 "100k" V 9700 3750 50  0000 C CNN
F 2 "Resistor_SMD:R_0603_1608Metric_Pad0.98x0.95mm_HandSolder" V 9530 3750 50  0001 C CNN
F 3 "~" H 9600 3750 50  0001 C CNN
	1    9600 3750
	0    1    1    0   
$EndComp
Wire Wire Line
	9450 3750 9300 3750
Connection ~ 9300 3750
Wire Wire Line
	9750 3750 9900 3750
Connection ~ 9900 3750
$Comp
L power:VDDA #PWR086
U 1 1 6087E47E
P 800 2750
F 0 "#PWR086" H 800 2600 50  0001 C CNN
F 1 "VDDA" H 815 2923 50  0000 C CNN
F 2 "" H 800 2750 50  0001 C CNN
F 3 "" H 800 2750 50  0001 C CNN
	1    800  2750
	1    0    0    -1  
$EndComp
Wire Wire Line
	5100 2200 5300 2200
$Comp
L power:VDDA #PWR079
U 1 1 6088128A
P 5300 2200
F 0 "#PWR079" H 5300 2050 50  0001 C CNN
F 1 "VDDA" H 5315 2373 50  0000 C CNN
F 2 "" H 5300 2200 50  0001 C CNN
F 3 "" H 5300 2200 50  0001 C CNN
	1    5300 2200
	1    0    0    -1  
$EndComp
Connection ~ 5300 2200
Wire Wire Line
	5300 2200 5500 2200
$Comp
L power:VDDA #PWR088
U 1 1 60884211
P 5150 3300
F 0 "#PWR088" H 5150 3150 50  0001 C CNN
F 1 "VDDA" H 5165 3473 50  0000 C CNN
F 2 "" H 5150 3300 50  0001 C CNN
F 3 "" H 5150 3300 50  0001 C CNN
	1    5150 3300
	1    0    0    -1  
$EndComp
Wire Wire Line
	9000 2550 9200 2550
$Comp
L power:VDDA #PWR080
U 1 1 60886CC1
P 9200 2550
F 0 "#PWR080" H 9200 2400 50  0001 C CNN
F 1 "VDDA" H 9215 2723 50  0000 C CNN
F 2 "" H 9200 2550 50  0001 C CNN
F 3 "" H 9200 2550 50  0001 C CNN
	1    9200 2550
	1    0    0    -1  
$EndComp
Connection ~ 9200 2550
Wire Wire Line
	9200 2550 9400 2550
Wire Wire Line
	9000 4100 9200 4100
$Comp
L power:VDDA #PWR093
U 1 1 608897F5
P 9200 4100
F 0 "#PWR093" H 9200 3950 50  0001 C CNN
F 1 "VDDA" H 9215 4273 50  0000 C CNN
F 2 "" H 9200 4100 50  0001 C CNN
F 3 "" H 9200 4100 50  0001 C CNN
	1    9200 4100
	1    0    0    -1  
$EndComp
Connection ~ 9200 4100
Wire Wire Line
	9200 4100 9400 4100
$Comp
L Device:R R?
U 1 1 60AD17CE
P 9600 3250
AR Path="/5FF29AD4/6003ADD4/60AD17CE" Ref="R?"  Part="1" 
AR Path="/60403A4F/60AD17CE" Ref="R25"  Part="1" 
F 0 "R25" V 9393 3250 50  0000 C CNN
F 1 "22" V 9484 3250 50  0000 C CNN
F 2 "Resistor_SMD:R_0603_1608Metric_Pad0.98x0.95mm_HandSolder" V 9530 3250 50  0001 C CNN
F 3 "~" H 9600 3250 50  0001 C CNN
	1    9600 3250
	0    1    1    0   
$EndComp
Wire Wire Line
	9450 3250 9300 3250
Connection ~ 9300 3250
Wire Wire Line
	9750 3250 10000 3250
Connection ~ 8450 3850
Wire Wire Line
	8450 3850 8950 3850
Wire Wire Line
	8250 3850 8350 3850
Connection ~ 8350 3850
Text Label 7800 3150 0    50   ~ 0
u1
Text Label 7800 4650 0    50   ~ 0
u2
Wire Wire Line
	10300 4750 9900 4750
$EndSCHEMATC
