EESchema Schematic File Version 4
EELAYER 30 0
EELAYER END
$Descr A4 11693 8268
encoding utf-8
Sheet 5 7
Title ""
Date ""
Rev ""
Comp ""
Comment1 ""
Comment2 ""
Comment3 ""
Comment4 ""
$EndDescr
$Comp
L pspice:OPAMP U?
U 1 1 5FE9196A
P 4750 2500
F 0 "U?" H 4800 2750 50  0000 L CNN
F 1 "OPAMP" H 4800 2650 50  0000 L CNN
F 2 "" H 4750 2500 50  0001 C CNN
F 3 "~" H 4750 2500 50  0001 C CNN
	1    4750 2500
	1    0    0    -1  
$EndComp
$Comp
L Device:R R?
U 1 1 5FE92DBC
P 6200 3250
F 0 "R?" H 6270 3296 50  0000 L CNN
F 1 "R" H 6270 3205 50  0000 L CNN
F 2 "" V 6130 3250 50  0001 C CNN
F 3 "~" H 6200 3250 50  0001 C CNN
	1    6200 3250
	1    0    0    -1  
$EndComp
Wire Wire Line
	6300 2600 6200 2600
Wire Wire Line
	5600 2700 5550 2700
Wire Wire Line
	5050 2500 5150 2500
$Comp
L Device:R R?
U 1 1 5FE93C72
P 4350 2850
F 0 "R?" V 4143 2850 50  0000 C CNN
F 1 "R" V 4234 2850 50  0000 C CNN
F 2 "" V 4280 2850 50  0001 C CNN
F 3 "~" H 4350 2850 50  0001 C CNN
	1    4350 2850
	0    1    1    0   
$EndComp
$Comp
L pspice:OPAMP U?
U 1 1 5FE91EB0
P 5900 2600
F 0 "U?" H 5950 2850 50  0000 L CNN
F 1 "OPAMP" H 5950 2750 50  0000 L CNN
F 2 "" H 5900 2600 50  0001 C CNN
F 3 "~" H 5900 2600 50  0001 C CNN
	1    5900 2600
	1    0    0    -1  
$EndComp
Wire Wire Line
	5150 2850 5150 2500
Connection ~ 5150 2500
Wire Wire Line
	5150 2500 5600 2500
$Comp
L Device:R R?
U 1 1 5FE95342
P 3950 2850
F 0 "R?" V 3743 2850 50  0000 C CNN
F 1 "R" V 3834 2850 50  0000 C CNN
F 2 "" V 3880 2850 50  0001 C CNN
F 3 "~" H 3950 2850 50  0001 C CNN
	1    3950 2850
	0    1    1    0   
$EndComp
$Comp
L power:+3.3VA #PWR?
U 1 1 5FE95BDE
P 3700 2800
F 0 "#PWR?" H 3700 2650 50  0001 C CNN
F 1 "+3.3VA" H 3715 2973 50  0000 C CNN
F 2 "" H 3700 2800 50  0001 C CNN
F 3 "" H 3700 2800 50  0001 C CNN
	1    3700 2800
	1    0    0    -1  
$EndComp
Wire Wire Line
	3800 2850 3700 2850
Wire Wire Line
	3700 2850 3700 2800
Wire Wire Line
	4500 2850 5150 2850
Wire Wire Line
	4100 2850 4150 2850
Wire Wire Line
	4150 2850 4150 2600
Wire Wire Line
	4150 2600 4450 2600
Connection ~ 4150 2850
Wire Wire Line
	4150 2850 4200 2850
Text HLabel 4300 2400 0    50   Input ~ 0
ANALOG_IN
Wire Wire Line
	4300 2400 4450 2400
Wire Wire Line
	5550 2700 5550 3000
Wire Wire Line
	5550 3000 6200 3000
Text HLabel 6300 2600 2    50   Input ~ 0
OFFSET_A
Text HLabel 6300 3000 2    50   Input ~ 0
OFFSET_B
$Comp
L power:GND #PWR?
U 1 1 5FE9B84B
P 6200 3450
F 0 "#PWR?" H 6200 3200 50  0001 C CNN
F 1 "GND" H 6205 3277 50  0000 C CNN
F 2 "" H 6200 3450 50  0001 C CNN
F 3 "" H 6200 3450 50  0001 C CNN
	1    6200 3450
	1    0    0    -1  
$EndComp
Wire Wire Line
	6200 3450 6200 3400
Wire Wire Line
	6200 3100 6200 3000
Connection ~ 6200 3000
Wire Wire Line
	6200 3000 6300 3000
$EndSCHEMATC
