EESchema Schematic File Version 4
EELAYER 30 0
EELAYER END
$Descr A4 11693 8268
encoding utf-8
Sheet 7 12
Title ""
Date ""
Rev ""
Comp ""
Comment1 ""
Comment2 ""
Comment3 ""
Comment4 ""
$EndDescr
$Comp
L Device:R R?
U 1 1 600D565C
P 5700 2600
AR Path="/5FF29AD4/6003ADD4/600D565C" Ref="R?"  Part="1" 
AR Path="/5FF29AD4/6003ADD4/600CDF27/600D565C" Ref="R?"  Part="1" 
AR Path="/5FF29AD4/6003ADD4/601417DB/600D565C" Ref="R?"  Part="1" 
AR Path="/5FF29AD4/6003ADD4/600E50B3/600D565C" Ref="R?"  Part="1" 
AR Path="/60403A4F/600CDF27/600D565C" Ref="R49"  Part="1" 
AR Path="/60403A4F/600E50B3/600D565C" Ref="R53"  Part="1" 
F 0 "R53" V 5493 2600 50  0000 C CNN
F 1 "33k" V 5584 2600 50  0000 C CNN
F 2 "Resistor_SMD:R_0603_1608Metric_Pad0.98x0.95mm_HandSolder" V 5630 2600 50  0001 C CNN
F 3 "~" H 5700 2600 50  0001 C CNN
	1    5700 2600
	0    1    1    0   
$EndComp
$Comp
L Device:C C?
U 1 1 600D5662
P 6150 2600
AR Path="/5FF29AD4/6003ADD4/600D5662" Ref="C?"  Part="1" 
AR Path="/5FF29AD4/6003ADD4/600CDF27/600D5662" Ref="C?"  Part="1" 
AR Path="/5FF29AD4/6003ADD4/601417DB/600D5662" Ref="C?"  Part="1" 
AR Path="/5FF29AD4/6003ADD4/600E50B3/600D5662" Ref="C?"  Part="1" 
AR Path="/60403A4F/600CDF27/600D5662" Ref="C100"  Part="1" 
AR Path="/60403A4F/600E50B3/600D5662" Ref="C110"  Part="1" 
F 0 "C110" V 5898 2600 50  0000 C CNN
F 1 "15n" V 5989 2600 50  0000 C CNN
F 2 "Capacitor_SMD:C_0603_1608Metric_Pad1.08x0.95mm_HandSolder" H 6188 2450 50  0001 C CNN
F 3 "~" H 6150 2600 50  0001 C CNN
	1    6150 2600
	0    1    1    0   
$EndComp
Wire Wire Line
	5850 2600 6000 2600
$Comp
L Device:R R?
U 1 1 600D5669
P 5700 3100
AR Path="/5FF29AD4/6003ADD4/600D5669" Ref="R?"  Part="1" 
AR Path="/5FF29AD4/6003ADD4/600CDF27/600D5669" Ref="R?"  Part="1" 
AR Path="/5FF29AD4/6003ADD4/601417DB/600D5669" Ref="R?"  Part="1" 
AR Path="/5FF29AD4/6003ADD4/600E50B3/600D5669" Ref="R?"  Part="1" 
AR Path="/60403A4F/600CDF27/600D5669" Ref="R50"  Part="1" 
AR Path="/60403A4F/600E50B3/600D5669" Ref="R54"  Part="1" 
F 0 "R54" V 5493 3100 50  0000 C CNN
F 1 "33k" V 5584 3100 50  0000 C CNN
F 2 "Resistor_SMD:R_0603_1608Metric_Pad0.98x0.95mm_HandSolder" V 5630 3100 50  0001 C CNN
F 3 "~" H 5700 3100 50  0001 C CNN
	1    5700 3100
	0    1    1    0   
$EndComp
Wire Wire Line
	5850 3100 6450 3100
Wire Wire Line
	6450 2600 6300 2600
$Comp
L Device:C C?
U 1 1 600D5671
P 6450 3350
AR Path="/5FF29AD4/6003ADD4/600D5671" Ref="C?"  Part="1" 
AR Path="/5FF29AD4/6003ADD4/600CDF27/600D5671" Ref="C?"  Part="1" 
AR Path="/5FF29AD4/6003ADD4/601417DB/600D5671" Ref="C?"  Part="1" 
AR Path="/5FF29AD4/6003ADD4/600E50B3/600D5671" Ref="C?"  Part="1" 
AR Path="/60403A4F/600CDF27/600D5671" Ref="C103"  Part="1" 
AR Path="/60403A4F/600E50B3/600D5671" Ref="C113"  Part="1" 
F 0 "C113" H 6565 3396 50  0000 L CNN
F 1 "15n" H 6565 3305 50  0000 L CNN
F 2 "Capacitor_SMD:C_0603_1608Metric_Pad1.08x0.95mm_HandSolder" H 6488 3200 50  0001 C CNN
F 3 "~" H 6450 3350 50  0001 C CNN
	1    6450 3350
	1    0    0    -1  
$EndComp
Wire Wire Line
	6450 3200 6450 3100
Connection ~ 6450 3100
$Comp
L power:GND #PWR?
U 1 1 600D5679
P 6450 3550
AR Path="/5FF29AD4/6003ADD4/600D5679" Ref="#PWR?"  Part="1" 
AR Path="/5FF29AD4/6003ADD4/600CDF27/600D5679" Ref="#PWR?"  Part="1" 
AR Path="/5FF29AD4/6003ADD4/601417DB/600D5679" Ref="#PWR?"  Part="1" 
AR Path="/5FF29AD4/6003ADD4/600E50B3/600D5679" Ref="#PWR?"  Part="1" 
AR Path="/60403A4F/600CDF27/600D5679" Ref="#PWR0100"  Part="1" 
AR Path="/60403A4F/600E50B3/600D5679" Ref="#PWR0111"  Part="1" 
F 0 "#PWR0111" H 6450 3300 50  0001 C CNN
F 1 "GND" H 6455 3377 50  0000 C CNN
F 2 "" H 6450 3550 50  0001 C CNN
F 3 "" H 6450 3550 50  0001 C CNN
	1    6450 3550
	1    0    0    -1  
$EndComp
Wire Wire Line
	6450 3550 6450 3500
$Comp
L Device:C C?
U 1 1 600D5680
P 7050 3350
AR Path="/5FF29AD4/6003ADD4/600D5680" Ref="C?"  Part="1" 
AR Path="/5FF29AD4/6003ADD4/600CDF27/600D5680" Ref="C?"  Part="1" 
AR Path="/5FF29AD4/6003ADD4/601417DB/600D5680" Ref="C?"  Part="1" 
AR Path="/5FF29AD4/6003ADD4/600E50B3/600D5680" Ref="C?"  Part="1" 
AR Path="/60403A4F/600CDF27/600D5680" Ref="C104"  Part="1" 
AR Path="/60403A4F/600E50B3/600D5680" Ref="C114"  Part="1" 
F 0 "C114" H 7165 3396 50  0000 L CNN
F 1 "6.8n" H 7165 3305 50  0000 L CNN
F 2 "Capacitor_SMD:C_0603_1608Metric_Pad1.08x0.95mm_HandSolder" H 7088 3200 50  0001 C CNN
F 3 "~" H 7050 3350 50  0001 C CNN
	1    7050 3350
	1    0    0    -1  
$EndComp
$Comp
L Device:R R?
U 1 1 600D5686
P 6750 3100
AR Path="/5FF29AD4/6003ADD4/600D5686" Ref="R?"  Part="1" 
AR Path="/5FF29AD4/6003ADD4/600CDF27/600D5686" Ref="R?"  Part="1" 
AR Path="/5FF29AD4/6003ADD4/601417DB/600D5686" Ref="R?"  Part="1" 
AR Path="/5FF29AD4/6003ADD4/600E50B3/600D5686" Ref="R?"  Part="1" 
AR Path="/60403A4F/600CDF27/600D5686" Ref="R51"  Part="1" 
AR Path="/60403A4F/600E50B3/600D5686" Ref="R55"  Part="1" 
F 0 "R55" V 6543 3100 50  0000 C CNN
F 1 "66k" V 6634 3100 50  0000 C CNN
F 2 "Resistor_SMD:R_0603_1608Metric_Pad0.98x0.95mm_HandSolder" V 6680 3100 50  0001 C CNN
F 3 "~" H 6750 3100 50  0001 C CNN
	1    6750 3100
	0    1    1    0   
$EndComp
Wire Wire Line
	6450 3100 6600 3100
Wire Wire Line
	6900 3100 7050 3100
Wire Wire Line
	7050 3100 7050 3200
$Comp
L power:GND #PWR?
U 1 1 600D568F
P 7050 3550
AR Path="/5FF29AD4/6003ADD4/600D568F" Ref="#PWR?"  Part="1" 
AR Path="/5FF29AD4/6003ADD4/600CDF27/600D568F" Ref="#PWR?"  Part="1" 
AR Path="/5FF29AD4/6003ADD4/601417DB/600D568F" Ref="#PWR?"  Part="1" 
AR Path="/5FF29AD4/6003ADD4/600E50B3/600D568F" Ref="#PWR?"  Part="1" 
AR Path="/60403A4F/600CDF27/600D568F" Ref="#PWR0101"  Part="1" 
AR Path="/60403A4F/600E50B3/600D568F" Ref="#PWR0112"  Part="1" 
F 0 "#PWR0112" H 7050 3300 50  0001 C CNN
F 1 "GND" H 7055 3377 50  0000 C CNN
F 2 "" H 7050 3550 50  0001 C CNN
F 3 "" H 7050 3550 50  0001 C CNN
	1    7050 3550
	1    0    0    -1  
$EndComp
Wire Wire Line
	7050 3550 7050 3500
Connection ~ 7050 3100
$Comp
L 74xGxx:74LVC1G3157 U?
U 1 1 600D5699
P 4600 3100
AR Path="/5FF29AD4/6003ADD4/600D5699" Ref="U?"  Part="1" 
AR Path="/5FF29AD4/6003ADD4/600CDF27/600D5699" Ref="U?"  Part="1" 
AR Path="/5FF29AD4/6003ADD4/601417DB/600D5699" Ref="U?"  Part="1" 
AR Path="/5FF29AD4/6003ADD4/600E50B3/600D5699" Ref="U?"  Part="1" 
AR Path="/60403A4F/600CDF27/600D5699" Ref="U20"  Part="1" 
AR Path="/60403A4F/600E50B3/600D5699" Ref="U22"  Part="1" 
F 0 "U22" H 4300 3350 50  0000 C CNN
F 1 "74LVC1G3157" H 4200 3250 50  0000 C CNN
F 2 "Package_TO_SOT_SMD:SOT-23-6_Handsoldering" H 4600 3100 50  0001 C CNN
F 3 "http://www.ti.com/lit/sg/scyt129e/scyt129e.pdf" H 4600 3100 50  0001 C CNN
	1    4600 3100
	-1   0    0    -1  
$EndComp
Wire Wire Line
	4100 2600 5550 2600
Wire Wire Line
	4800 3100 5550 3100
$Comp
L Device:C C?
U 1 1 600D56A7
P 3500 2050
AR Path="/5FF29AD4/6003ADD4/600D56A7" Ref="C?"  Part="1" 
AR Path="/5FF29AD4/6003ADD4/600CDF27/600D56A7" Ref="C?"  Part="1" 
AR Path="/5FF29AD4/6003ADD4/601417DB/600D56A7" Ref="C?"  Part="1" 
AR Path="/5FF29AD4/6003ADD4/600E50B3/600D56A7" Ref="C?"  Part="1" 
AR Path="/60403A4F/600CDF27/600D56A7" Ref="C96"  Part="1" 
AR Path="/60403A4F/600E50B3/600D56A7" Ref="C106"  Part="1" 
F 0 "C106" H 3615 2096 50  0000 L CNN
F 1 "100n" H 3615 2005 50  0000 L CNN
F 2 "Capacitor_SMD:C_0603_1608Metric_Pad1.08x0.95mm_HandSolder" H 3538 1900 50  0001 C CNN
F 3 "~" H 3500 2050 50  0001 C CNN
	1    3500 2050
	-1   0    0    -1  
$EndComp
$Comp
L Device:C C?
U 1 1 600D56AD
P 3100 2050
AR Path="/5FF29AD4/6003ADD4/600D56AD" Ref="C?"  Part="1" 
AR Path="/5FF29AD4/6003ADD4/600CDF27/600D56AD" Ref="C?"  Part="1" 
AR Path="/5FF29AD4/6003ADD4/601417DB/600D56AD" Ref="C?"  Part="1" 
AR Path="/5FF29AD4/6003ADD4/600E50B3/600D56AD" Ref="C?"  Part="1" 
AR Path="/60403A4F/600CDF27/600D56AD" Ref="C97"  Part="1" 
AR Path="/60403A4F/600E50B3/600D56AD" Ref="C107"  Part="1" 
F 0 "C107" H 3215 2096 50  0000 L CNN
F 1 "100n" H 3215 2005 50  0000 L CNN
F 2 "Capacitor_SMD:C_0603_1608Metric_Pad1.08x0.95mm_HandSolder" H 3138 1900 50  0001 C CNN
F 3 "~" H 3100 2050 50  0001 C CNN
	1    3100 2050
	-1   0    0    -1  
$EndComp
$Comp
L Device:C C?
U 1 1 600D56B3
P 2700 2050
AR Path="/5FF29AD4/6003ADD4/600D56B3" Ref="C?"  Part="1" 
AR Path="/5FF29AD4/6003ADD4/600CDF27/600D56B3" Ref="C?"  Part="1" 
AR Path="/5FF29AD4/6003ADD4/601417DB/600D56B3" Ref="C?"  Part="1" 
AR Path="/5FF29AD4/6003ADD4/600E50B3/600D56B3" Ref="C?"  Part="1" 
AR Path="/60403A4F/600CDF27/600D56B3" Ref="C98"  Part="1" 
AR Path="/60403A4F/600E50B3/600D56B3" Ref="C108"  Part="1" 
F 0 "C108" H 2815 2096 50  0000 L CNN
F 1 "1u" H 2815 2005 50  0000 L CNN
F 2 "Capacitor_SMD:C_0805_2012Metric_Pad1.18x1.45mm_HandSolder" H 2738 1900 50  0001 C CNN
F 3 "~" H 2700 2050 50  0001 C CNN
	1    2700 2050
	-1   0    0    -1  
$EndComp
Wire Wire Line
	2700 1850 2700 1900
Wire Wire Line
	3100 1900 3100 1850
Connection ~ 3100 1850
Wire Wire Line
	3100 1850 2700 1850
Wire Wire Line
	3500 1900 3500 1850
Connection ~ 3500 1850
Wire Wire Line
	3500 1850 3100 1850
Wire Wire Line
	3500 2200 3500 2250
Wire Wire Line
	3500 2250 3100 2250
Wire Wire Line
	2700 2250 2700 2200
Wire Wire Line
	3100 2200 3100 2250
Connection ~ 3100 2250
Wire Wire Line
	3100 2250 2900 2250
$Comp
L power:GND #PWR?
U 1 1 600D56CA
P 2900 2250
AR Path="/5FF29AD4/6003ADD4/600D56CA" Ref="#PWR?"  Part="1" 
AR Path="/5FF29AD4/6003ADD4/600CDF27/600D56CA" Ref="#PWR?"  Part="1" 
AR Path="/5FF29AD4/6003ADD4/601417DB/600D56CA" Ref="#PWR?"  Part="1" 
AR Path="/5FF29AD4/6003ADD4/600E50B3/600D56CA" Ref="#PWR?"  Part="1" 
AR Path="/60403A4F/600CDF27/600D56CA" Ref="#PWR094"  Part="1" 
AR Path="/60403A4F/600E50B3/600D56CA" Ref="#PWR0105"  Part="1" 
F 0 "#PWR0105" H 2900 2000 50  0001 C CNN
F 1 "GND" H 2905 2077 50  0000 C CNN
F 2 "" H 2900 2250 50  0001 C CNN
F 3 "" H 2900 2250 50  0001 C CNN
	1    2900 2250
	-1   0    0    -1  
$EndComp
Wire Wire Line
	3900 2150 4600 2150
Connection ~ 3900 2150
Wire Wire Line
	3900 2150 3900 2400
$Comp
L power:GND #PWR?
U 1 1 600D56D3
P 4600 3550
AR Path="/5FF29AD4/6003ADD4/600D56D3" Ref="#PWR?"  Part="1" 
AR Path="/5FF29AD4/6003ADD4/600CDF27/600D56D3" Ref="#PWR?"  Part="1" 
AR Path="/5FF29AD4/6003ADD4/601417DB/600D56D3" Ref="#PWR?"  Part="1" 
AR Path="/5FF29AD4/6003ADD4/600E50B3/600D56D3" Ref="#PWR?"  Part="1" 
AR Path="/60403A4F/600CDF27/600D56D3" Ref="#PWR099"  Part="1" 
AR Path="/60403A4F/600E50B3/600D56D3" Ref="#PWR0110"  Part="1" 
F 0 "#PWR0110" H 4600 3300 50  0001 C CNN
F 1 "GND" H 4605 3377 50  0000 C CNN
F 2 "" H 4600 3550 50  0001 C CNN
F 3 "" H 4600 3550 50  0001 C CNN
	1    4600 3550
	1    0    0    -1  
$EndComp
Wire Wire Line
	4600 3300 4600 3550
Wire Wire Line
	4850 3300 4800 3300
$Comp
L power:GND #PWR?
U 1 1 600D56DB
P 3900 3250
AR Path="/5FF29AD4/6003ADD4/600D56DB" Ref="#PWR?"  Part="1" 
AR Path="/5FF29AD4/6003ADD4/600CDF27/600D56DB" Ref="#PWR?"  Part="1" 
AR Path="/5FF29AD4/6003ADD4/601417DB/600D56DB" Ref="#PWR?"  Part="1" 
AR Path="/5FF29AD4/6003ADD4/600E50B3/600D56DB" Ref="#PWR?"  Part="1" 
AR Path="/60403A4F/600CDF27/600D56DB" Ref="#PWR097"  Part="1" 
AR Path="/60403A4F/600E50B3/600D56DB" Ref="#PWR0108"  Part="1" 
F 0 "#PWR0108" H 3900 3000 50  0001 C CNN
F 1 "GND" H 3905 3077 50  0000 C CNN
F 2 "" H 3900 3250 50  0001 C CNN
F 3 "" H 3900 3250 50  0001 C CNN
	1    3900 3250
	1    0    0    -1  
$EndComp
Wire Wire Line
	3600 3000 4400 3000
Wire Wire Line
	4400 3200 4250 3200
$Comp
L power:GND #PWR?
U 1 1 600D56E3
P 3600 3250
AR Path="/5FF29AD4/6003ADD4/600D56E3" Ref="#PWR?"  Part="1" 
AR Path="/5FF29AD4/6003ADD4/600CDF27/600D56E3" Ref="#PWR?"  Part="1" 
AR Path="/5FF29AD4/6003ADD4/601417DB/600D56E3" Ref="#PWR?"  Part="1" 
AR Path="/5FF29AD4/6003ADD4/600E50B3/600D56E3" Ref="#PWR?"  Part="1" 
AR Path="/60403A4F/600CDF27/600D56E3" Ref="#PWR096"  Part="1" 
AR Path="/60403A4F/600E50B3/600D56E3" Ref="#PWR0107"  Part="1" 
F 0 "#PWR0107" H 3600 3000 50  0001 C CNN
F 1 "GND" H 3605 3077 50  0000 C CNN
F 2 "" H 3600 3250 50  0001 C CNN
F 3 "" H 3600 3250 50  0001 C CNN
	1    3600 3250
	1    0    0    -1  
$EndComp
Wire Wire Line
	3600 3250 3600 3000
$Comp
L Device:C C?
U 1 1 600D56EA
P 3200 2700
AR Path="/5FF29AD4/6003ADD4/600D56EA" Ref="C?"  Part="1" 
AR Path="/5FF29AD4/6003ADD4/600CDF27/600D56EA" Ref="C?"  Part="1" 
AR Path="/5FF29AD4/6003ADD4/601417DB/600D56EA" Ref="C?"  Part="1" 
AR Path="/5FF29AD4/6003ADD4/600E50B3/600D56EA" Ref="C?"  Part="1" 
AR Path="/60403A4F/600CDF27/600D56EA" Ref="C101"  Part="1" 
AR Path="/60403A4F/600E50B3/600D56EA" Ref="C111"  Part="1" 
F 0 "C111" H 3085 2654 50  0000 R CNN
F 1 "1u" H 3085 2745 50  0000 R CNN
F 2 "Capacitor_SMD:C_0805_2012Metric_Pad1.18x1.45mm_HandSolder" H 3238 2550 50  0001 C CNN
F 3 "~" H 3200 2700 50  0001 C CNN
	1    3200 2700
	-1   0    0    1   
$EndComp
Wire Wire Line
	4850 3300 4850 3900
$Comp
L Device:C C?
U 1 1 600D56F1
P 4250 3350
AR Path="/5FF29AD4/6003ADD4/600D56F1" Ref="C?"  Part="1" 
AR Path="/5FF29AD4/6003ADD4/600CDF27/600D56F1" Ref="C?"  Part="1" 
AR Path="/5FF29AD4/6003ADD4/601417DB/600D56F1" Ref="C?"  Part="1" 
AR Path="/5FF29AD4/6003ADD4/600E50B3/600D56F1" Ref="C?"  Part="1" 
AR Path="/60403A4F/600CDF27/600D56F1" Ref="C102"  Part="1" 
AR Path="/60403A4F/600E50B3/600D56F1" Ref="C112"  Part="1" 
F 0 "C112" H 4365 3396 50  0000 L CNN
F 1 "1u" H 4365 3305 50  0000 L CNN
F 2 "Capacitor_SMD:C_0805_2012Metric_Pad1.18x1.45mm_HandSolder" H 4288 3200 50  0001 C CNN
F 3 "~" H 4250 3350 50  0001 C CNN
	1    4250 3350
	1    0    0    -1  
$EndComp
Wire Wire Line
	3700 2700 3600 2700
Wire Wire Line
	3500 2500 3700 2500
$Comp
L 74xGxx:74LVC1G3157 U?
U 1 1 600D56F9
P 3900 2600
AR Path="/5FF29AD4/6003ADD4/600D56F9" Ref="U?"  Part="1" 
AR Path="/5FF29AD4/6003ADD4/600CDF27/600D56F9" Ref="U?"  Part="1" 
AR Path="/5FF29AD4/6003ADD4/601417DB/600D56F9" Ref="U?"  Part="1" 
AR Path="/5FF29AD4/6003ADD4/600E50B3/600D56F9" Ref="U?"  Part="1" 
AR Path="/60403A4F/600CDF27/600D56F9" Ref="U19"  Part="1" 
AR Path="/60403A4F/600E50B3/600D56F9" Ref="U21"  Part="1" 
F 0 "U21" H 4150 2950 50  0000 C CNN
F 1 "74LVC1G3157" H 4200 2850 50  0000 C CNN
F 2 "Package_TO_SOT_SMD:SOT-23-6_Handsoldering" H 3900 2600 50  0001 C CNN
F 3 "http://www.ti.com/lit/sg/scyt129e/scyt129e.pdf" H 3900 2600 50  0001 C CNN
	1    3900 2600
	-1   0    0    -1  
$EndComp
Connection ~ 4250 3200
Wire Wire Line
	4250 3200 3500 3200
$Comp
L power:GND #PWR?
U 1 1 600D5701
P 4250 3550
AR Path="/5FF29AD4/6003ADD4/600D5701" Ref="#PWR?"  Part="1" 
AR Path="/5FF29AD4/6003ADD4/600CDF27/600D5701" Ref="#PWR?"  Part="1" 
AR Path="/5FF29AD4/6003ADD4/601417DB/600D5701" Ref="#PWR?"  Part="1" 
AR Path="/5FF29AD4/6003ADD4/600E50B3/600D5701" Ref="#PWR?"  Part="1" 
AR Path="/60403A4F/600CDF27/600D5701" Ref="#PWR098"  Part="1" 
AR Path="/60403A4F/600E50B3/600D5701" Ref="#PWR0109"  Part="1" 
F 0 "#PWR0109" H 4250 3300 50  0001 C CNN
F 1 "GND" H 4255 3377 50  0000 C CNN
F 2 "" H 4250 3550 50  0001 C CNN
F 3 "" H 4250 3550 50  0001 C CNN
	1    4250 3550
	1    0    0    -1  
$EndComp
Wire Wire Line
	4250 3550 4250 3500
$Comp
L power:GND #PWR?
U 1 1 600D5708
P 3200 2900
AR Path="/5FF29AD4/6003ADD4/600D5708" Ref="#PWR?"  Part="1" 
AR Path="/5FF29AD4/6003ADD4/600CDF27/600D5708" Ref="#PWR?"  Part="1" 
AR Path="/5FF29AD4/6003ADD4/601417DB/600D5708" Ref="#PWR?"  Part="1" 
AR Path="/5FF29AD4/6003ADD4/600E50B3/600D5708" Ref="#PWR?"  Part="1" 
AR Path="/60403A4F/600CDF27/600D5708" Ref="#PWR095"  Part="1" 
AR Path="/60403A4F/600E50B3/600D5708" Ref="#PWR0106"  Part="1" 
F 0 "#PWR0106" H 3200 2650 50  0001 C CNN
F 1 "GND" H 3205 2727 50  0000 C CNN
F 2 "" H 3200 2900 50  0001 C CNN
F 3 "" H 3200 2900 50  0001 C CNN
	1    3200 2900
	1    0    0    -1  
$EndComp
Wire Wire Line
	3200 2900 3200 2850
Wire Wire Line
	3200 2500 3500 2500
Connection ~ 3500 2500
Wire Wire Line
	3200 2550 3200 2500
Wire Wire Line
	3500 3600 3700 3600
Wire Wire Line
	3600 2700 3600 3000
Connection ~ 3600 3000
Wire Wire Line
	3900 2800 3900 3250
Wire Wire Line
	3500 2500 3500 3200
Wire Wire Line
	4600 2150 4600 2900
Wire Wire Line
	4100 2800 4100 3600
Wire Wire Line
	4100 3900 4850 3900
Wire Wire Line
	6450 2600 6450 3100
Connection ~ 3200 2500
Wire Wire Line
	2650 2500 3200 2500
Connection ~ 4100 3600
Wire Wire Line
	4100 3600 4100 3900
$Comp
L Device:R R?
U 1 1 600D571F
P 3700 3750
AR Path="/5FF29AD4/6003ADD4/600D571F" Ref="R?"  Part="1" 
AR Path="/5FF29AD4/6003ADD4/600CDF27/600D571F" Ref="R?"  Part="1" 
AR Path="/5FF29AD4/6003ADD4/601417DB/600D571F" Ref="R?"  Part="1" 
AR Path="/5FF29AD4/6003ADD4/600E50B3/600D571F" Ref="R?"  Part="1" 
AR Path="/60403A4F/600CDF27/600D571F" Ref="R52"  Part="1" 
AR Path="/60403A4F/600E50B3/600D571F" Ref="R56"  Part="1" 
F 0 "R56" H 3770 3796 50  0000 L CNN
F 1 "10k" H 3770 3705 50  0000 L CNN
F 2 "Resistor_SMD:R_0603_1608Metric_Pad0.98x0.95mm_HandSolder" V 3630 3750 50  0001 C CNN
F 3 "~" H 3700 3750 50  0001 C CNN
	1    3700 3750
	1    0    0    -1  
$EndComp
Connection ~ 3700 3600
Wire Wire Line
	3700 3600 4100 3600
$Comp
L power:GND #PWR?
U 1 1 600D5727
P 3700 3900
AR Path="/5FF29AD4/6003ADD4/600D5727" Ref="#PWR?"  Part="1" 
AR Path="/5FF29AD4/6003ADD4/600CDF27/600D5727" Ref="#PWR?"  Part="1" 
AR Path="/5FF29AD4/6003ADD4/601417DB/600D5727" Ref="#PWR?"  Part="1" 
AR Path="/5FF29AD4/6003ADD4/600E50B3/600D5727" Ref="#PWR?"  Part="1" 
AR Path="/60403A4F/600CDF27/600D5727" Ref="#PWR0103"  Part="1" 
AR Path="/60403A4F/600E50B3/600D5727" Ref="#PWR0114"  Part="1" 
F 0 "#PWR0114" H 3700 3650 50  0001 C CNN
F 1 "GND" H 3705 3727 50  0000 C CNN
F 2 "" H 3700 3900 50  0001 C CNN
F 3 "" H 3700 3900 50  0001 C CNN
	1    3700 3900
	1    0    0    -1  
$EndComp
Text HLabel 2650 2500 0    50   Input ~ 0
V_REF
Text HLabel 7900 3100 2    50   Input ~ 0
V_OUT
$Comp
L Device:C C?
U 1 1 6015AF7D
P 2350 2050
AR Path="/5FF29AD4/6003ADD4/6015AF7D" Ref="C?"  Part="1" 
AR Path="/5FF29AD4/6003ADD4/600CDF27/6015AF7D" Ref="C?"  Part="1" 
AR Path="/5FF29AD4/6003ADD4/601417DB/6015AF7D" Ref="C?"  Part="1" 
AR Path="/5FF29AD4/6003ADD4/600E50B3/6015AF7D" Ref="C?"  Part="1" 
AR Path="/60403A4F/600CDF27/6015AF7D" Ref="C99"  Part="1" 
AR Path="/60403A4F/600E50B3/6015AF7D" Ref="C109"  Part="1" 
F 0 "C109" H 2465 2096 50  0000 L CNN
F 1 "1u" H 2465 2005 50  0000 L CNN
F 2 "Capacitor_SMD:C_0805_2012Metric_Pad1.18x1.45mm_HandSolder" H 2388 1900 50  0001 C CNN
F 3 "~" H 2350 2050 50  0001 C CNN
	1    2350 2050
	-1   0    0    -1  
$EndComp
Wire Wire Line
	2350 1850 2350 1900
Wire Wire Line
	2350 2250 2350 2200
Wire Wire Line
	2700 1850 2350 1850
Connection ~ 2700 1850
Wire Wire Line
	2700 2250 2350 2250
Connection ~ 2700 2250
Connection ~ 2900 2250
Wire Wire Line
	2900 2250 2700 2250
Wire Wire Line
	7050 3100 7900 3100
$Comp
L power:VDDA #PWR0104
U 1 1 605D7ADA
P 3900 1850
AR Path="/60403A4F/600CDF27/605D7ADA" Ref="#PWR0104"  Part="1" 
AR Path="/60403A4F/600E50B3/605D7ADA" Ref="#PWR0157"  Part="1" 
F 0 "#PWR0157" H 3900 1700 50  0001 C CNN
F 1 "VDDA" H 3915 2023 50  0000 C CNN
F 2 "" H 3900 1850 50  0001 C CNN
F 3 "" H 3900 1850 50  0001 C CNN
	1    3900 1850
	1    0    0    -1  
$EndComp
Wire Wire Line
	3500 1850 3900 1850
Wire Wire Line
	3900 1850 3900 2150
Connection ~ 3900 1850
Text HLabel 3500 3600 0    50   Input ~ 0
PWM
$EndSCHEMATC
