EESchema Schematic File Version 4
EELAYER 30 0
EELAYER END
$Descr A4 11693 8268
encoding utf-8
Sheet 3 12
Title ""
Date ""
Rev ""
Comp ""
Comment1 ""
Comment2 ""
Comment3 ""
Comment4 ""
$EndDescr
$Comp
L Regulator_Linear:LP2985-3.3 U2
U 1 1 5FDA7347
P 7300 1750
F 0 "U2" H 7300 2092 50  0000 C CNN
F 1 "LP2985-3.3" H 7300 2001 50  0000 C CNN
F 2 "Package_TO_SOT_SMD:SOT-23-5" H 7300 2075 50  0001 C CNN
F 3 "http://www.ti.com/lit/ds/symlink/lp2985.pdf" H 7300 1750 50  0001 C CNN
	1    7300 1750
	1    0    0    -1  
$EndComp
$Comp
L power:GND #PWR027
U 1 1 5FDAB2DE
P 7300 2050
F 0 "#PWR027" H 7300 1800 50  0001 C CNN
F 1 "GND" H 7305 1877 50  0000 C CNN
F 2 "" H 7300 2050 50  0001 C CNN
F 3 "" H 7300 2050 50  0001 C CNN
	1    7300 2050
	1    0    0    -1  
$EndComp
$Comp
L Device:C C13
U 1 1 5FDAB77D
P 6050 1800
F 0 "C13" H 6165 1846 50  0000 L CNN
F 1 "10u" H 6165 1755 50  0000 L CNN
F 2 "Capacitor_SMD:C_0805_2012Metric_Pad1.18x1.45mm_HandSolder" H 6088 1650 50  0001 C CNN
F 3 "~" H 6050 1800 50  0001 C CNN
	1    6050 1800
	1    0    0    -1  
$EndComp
$Comp
L Device:C C14
U 1 1 5FDABD70
P 8250 1800
F 0 "C14" H 8365 1846 50  0000 L CNN
F 1 "10u" H 8365 1755 50  0000 L CNN
F 2 "Capacitor_SMD:C_0805_2012Metric_Pad1.18x1.45mm_HandSolder" H 8288 1650 50  0001 C CNN
F 3 "~" H 8250 1800 50  0001 C CNN
	1    8250 1800
	1    0    0    -1  
$EndComp
$Comp
L Device:C C15
U 1 1 5FDAC179
P 7900 1900
F 0 "C15" H 8015 1946 50  0000 L CNN
F 1 "10n" H 8015 1855 50  0000 L CNN
F 2 "Capacitor_SMD:C_0603_1608Metric_Pad1.08x0.95mm_HandSolder" H 7938 1750 50  0001 C CNN
F 3 "~" H 7900 1900 50  0001 C CNN
	1    7900 1900
	1    0    0    -1  
$EndComp
Wire Wire Line
	7700 1650 8250 1650
Wire Wire Line
	7900 1750 7700 1750
$Comp
L power:GND #PWR026
U 1 1 5FDAC792
P 6050 2050
F 0 "#PWR026" H 6050 1800 50  0001 C CNN
F 1 "GND" H 6055 1877 50  0000 C CNN
F 2 "" H 6050 2050 50  0001 C CNN
F 3 "" H 6050 2050 50  0001 C CNN
	1    6050 2050
	1    0    0    -1  
$EndComp
$Comp
L power:GND #PWR028
U 1 1 5FDACCDA
P 7900 2050
F 0 "#PWR028" H 7900 1800 50  0001 C CNN
F 1 "GND" H 7905 1877 50  0000 C CNN
F 2 "" H 7900 2050 50  0001 C CNN
F 3 "" H 7900 2050 50  0001 C CNN
	1    7900 2050
	1    0    0    -1  
$EndComp
$Comp
L power:GND #PWR029
U 1 1 5FDACEF9
P 8250 2050
F 0 "#PWR029" H 8250 1800 50  0001 C CNN
F 1 "GND" H 8255 1877 50  0000 C CNN
F 2 "" H 8250 2050 50  0001 C CNN
F 3 "" H 8250 2050 50  0001 C CNN
	1    8250 2050
	1    0    0    -1  
$EndComp
Wire Wire Line
	6900 1750 6800 1750
Wire Wire Line
	6800 1750 6800 1650
Wire Wire Line
	6800 1650 6900 1650
$Comp
L power:+3.3V #PWR022
U 1 1 5FDAD56B
P 8250 1650
F 0 "#PWR022" H 8250 1500 50  0001 C CNN
F 1 "+3.3V" H 8265 1823 50  0000 C CNN
F 2 "" H 8250 1650 50  0001 C CNN
F 3 "" H 8250 1650 50  0001 C CNN
	1    8250 1650
	1    0    0    -1  
$EndComp
Connection ~ 8250 1650
$Comp
L power:+5V #PWR021
U 1 1 5FDAE180
P 6050 1650
F 0 "#PWR021" H 6050 1500 50  0001 C CNN
F 1 "+5V" H 6065 1823 50  0000 C CNN
F 2 "" H 6050 1650 50  0001 C CNN
F 3 "" H 6050 1650 50  0001 C CNN
	1    6050 1650
	1    0    0    -1  
$EndComp
Wire Wire Line
	8250 1950 8250 2050
Wire Wire Line
	6050 1950 6050 2050
$Comp
L Device:D_Zener D4
U 1 1 5FDAFA96
P 5000 1800
F 0 "D4" V 4954 1880 50  0000 L CNN
F 1 "D_Zener" V 5045 1880 50  0000 L CNN
F 2 "Diode_SMD:D_SOD-128" H 5000 1800 50  0001 C CNN
F 3 "~" H 5000 1800 50  0001 C CNN
	1    5000 1800
	0    1    1    0   
$EndComp
$Comp
L power:GND #PWR024
U 1 1 5FDB0BF1
P 5000 2050
F 0 "#PWR024" H 5000 1800 50  0001 C CNN
F 1 "GND" H 5005 1877 50  0000 C CNN
F 2 "" H 5000 2050 50  0001 C CNN
F 3 "" H 5000 2050 50  0001 C CNN
	1    5000 2050
	1    0    0    -1  
$EndComp
Wire Wire Line
	5000 1950 5000 2050
$Comp
L Device:L L1
U 1 1 5FDB11F1
P 4250 1650
F 0 "L1" V 4069 1650 50  0000 C CNN
F 1 "100u" V 4160 1650 50  0000 C CNN
F 2 "Inductor_SMD:L_Bourns_SRR1260" H 4250 1650 50  0001 C CNN
F 3 "~" H 4250 1650 50  0001 C CNN
	1    4250 1650
	0    1    1    0   
$EndComp
$Comp
L Device:Polyfuse F1
U 1 1 5FDB2B01
P 4700 1650
F 0 "F1" V 4475 1650 50  0000 C CNN
F 1 "Polyfuse" V 4566 1650 50  0000 C CNN
F 2 "Fuse:Fuse_1206_3216Metric_Pad1.42x1.75mm_HandSolder" H 4750 1450 50  0001 L CNN
F 3 "~" H 4700 1650 50  0001 C CNN
	1    4700 1650
	0    1    1    0   
$EndComp
Wire Wire Line
	4400 1650 4550 1650
Wire Wire Line
	4850 1650 5000 1650
Connection ~ 6050 1650
$Comp
L Device:LED D5
U 1 1 5FE47934
P 6450 2100
F 0 "D5" V 6489 1982 50  0000 R CNN
F 1 "LED" V 6398 1982 50  0000 R CNN
F 2 "LED_SMD:LED_0805_2012Metric" H 6450 2100 50  0001 C CNN
F 3 "~" H 6450 2100 50  0001 C CNN
	1    6450 2100
	0    -1   -1   0   
$EndComp
$Comp
L Device:R R9
U 1 1 5FE48C3E
P 6450 1800
F 0 "R9" H 6520 1846 50  0000 L CNN
F 1 "1k" H 6520 1755 50  0000 L CNN
F 2 "Resistor_SMD:R_0603_1608Metric_Pad0.98x0.95mm_HandSolder" V 6380 1800 50  0001 C CNN
F 3 "~" H 6450 1800 50  0001 C CNN
	1    6450 1800
	1    0    0    -1  
$EndComp
$Comp
L power:GND #PWR030
U 1 1 5FE498DB
P 6450 2250
F 0 "#PWR030" H 6450 2000 50  0001 C CNN
F 1 "GND" H 6455 2077 50  0000 C CNN
F 2 "" H 6450 2250 50  0001 C CNN
F 3 "" H 6450 2250 50  0001 C CNN
	1    6450 2250
	1    0    0    -1  
$EndComp
Wire Wire Line
	6050 1650 6450 1650
Connection ~ 6450 1650
Wire Wire Line
	6450 1650 6800 1650
Connection ~ 6800 1650
$Comp
L power:+15V #PWR033
U 1 1 60132F29
P 7400 3000
F 0 "#PWR033" H 7400 2850 50  0001 C CNN
F 1 "+15V" H 7415 3173 50  0000 C CNN
F 2 "" H 7400 3000 50  0001 C CNN
F 3 "" H 7400 3000 50  0001 C CNN
	1    7400 3000
	1    0    0    -1  
$EndComp
$Comp
L Connector:Barrel_Jack J9
U 1 1 6020D219
P 3400 1750
F 0 "J9" H 3457 2075 50  0000 C CNN
F 1 "Barrel_Jack" H 3457 1984 50  0000 C CNN
F 2 "Connector_BarrelJack:BarrelJack_CUI_PJ-102AH_Horizontal" H 3450 1710 50  0001 C CNN
F 3 "~" H 3450 1710 50  0001 C CNN
	1    3400 1750
	1    0    0    -1  
$EndComp
Wire Wire Line
	3700 1650 4100 1650
$Comp
L power:GND #PWR023
U 1 1 602118A5
P 3800 2050
F 0 "#PWR023" H 3800 1800 50  0001 C CNN
F 1 "GND" H 3805 1877 50  0000 C CNN
F 2 "" H 3800 2050 50  0001 C CNN
F 3 "" H 3800 2050 50  0001 C CNN
	1    3800 2050
	1    0    0    -1  
$EndComp
Wire Wire Line
	3800 1850 3700 1850
Wire Wire Line
	3800 1850 3800 2050
$Comp
L Device:C C12
U 1 1 6010A059
P 5600 1800
F 0 "C12" H 5715 1846 50  0000 L CNN
F 1 "100n" H 5715 1755 50  0000 L CNN
F 2 "Capacitor_SMD:C_0603_1608Metric_Pad1.08x0.95mm_HandSolder" H 5638 1650 50  0001 C CNN
F 3 "~" H 5600 1800 50  0001 C CNN
	1    5600 1800
	1    0    0    -1  
$EndComp
Wire Wire Line
	5000 1650 5600 1650
Connection ~ 5000 1650
$Comp
L power:GND #PWR025
U 1 1 6010C619
P 5600 2050
F 0 "#PWR025" H 5600 1800 50  0001 C CNN
F 1 "GND" H 5605 1877 50  0000 C CNN
F 2 "" H 5600 2050 50  0001 C CNN
F 3 "" H 5600 2050 50  0001 C CNN
	1    5600 2050
	1    0    0    -1  
$EndComp
Wire Wire Line
	5600 2050 5600 1950
Connection ~ 5600 1650
Wire Wire Line
	5600 1650 6050 1650
$Comp
L power:GND #PWR?
U 1 1 6085A375
P 5000 4450
AR Path="/5FF26FEA/6085A375" Ref="#PWR?"  Part="1" 
AR Path="/5FF29AD4/5FFF09C6/6085A375" Ref="#PWR?"  Part="1" 
AR Path="/5FF29AD4/5FF2DE95/6085A375" Ref="#PWR?"  Part="1" 
AR Path="/60403A40/6085A375" Ref="#PWR?"  Part="1" 
AR Path="/5FF29AD4/604766AE/6085A375" Ref="#PWR?"  Part="1" 
AR Path="/5FDA6F72/6085A375" Ref="#PWR0118"  Part="1" 
F 0 "#PWR0118" H 5000 4200 50  0001 C CNN
F 1 "GND" H 5005 4277 50  0000 C CNN
F 2 "" H 5000 4450 50  0001 C CNN
F 3 "" H 5000 4450 50  0001 C CNN
	1    5000 4450
	1    0    0    -1  
$EndComp
Wire Wire Line
	5000 4450 5000 4150
Wire Wire Line
	5000 4150 5100 4150
$Comp
L Device:C C?
U 1 1 6085A37E
P 7400 4200
AR Path="/5FF29AD4/5FF2DE95/6085A37E" Ref="C?"  Part="1" 
AR Path="/60403A40/6085A37E" Ref="C?"  Part="1" 
AR Path="/5FF29AD4/604766AE/6085A37E" Ref="C?"  Part="1" 
AR Path="/5FDA6F72/6085A37E" Ref="C125"  Part="1" 
F 0 "C125" V 7148 4200 50  0000 C CNN
F 1 "10u" V 7239 4200 50  0000 C CNN
F 2 "Capacitor_SMD:C_1210_3225Metric_Pad1.33x2.70mm_HandSolder" H 7438 4050 50  0001 C CNN
F 3 "~" H 7400 4200 50  0001 C CNN
	1    7400 4200
	1    0    0    -1  
$EndComp
$Comp
L Device:C C?
U 1 1 6085A386
P 7000 4200
AR Path="/5FF29AD4/5FF2DE95/6085A386" Ref="C?"  Part="1" 
AR Path="/60403A40/6085A386" Ref="C?"  Part="1" 
AR Path="/5FF29AD4/604766AE/6085A386" Ref="C?"  Part="1" 
AR Path="/5FDA6F72/6085A386" Ref="C124"  Part="1" 
F 0 "C124" V 6748 4200 50  0000 C CNN
F 1 "100n" V 6839 4200 50  0000 C CNN
F 2 "Capacitor_SMD:C_0603_1608Metric_Pad1.08x0.95mm_HandSolder" H 7038 4050 50  0001 C CNN
F 3 "~" H 7000 4200 50  0001 C CNN
	1    7000 4200
	1    0    0    -1  
$EndComp
$Comp
L Device:D_Zener D?
U 1 1 6085A393
P 6600 4200
AR Path="/5FF29AD4/5FF2DE95/6085A393" Ref="D?"  Part="1" 
AR Path="/60403A40/6085A393" Ref="D?"  Part="1" 
AR Path="/5FF29AD4/604766AE/6085A393" Ref="D?"  Part="1" 
AR Path="/5FDA6F72/6085A393" Ref="D16"  Part="1" 
F 0 "D16" H 6600 3983 50  0000 C CNN
F 1 "16V" H 6600 4074 50  0000 C CNN
F 2 "Diode_SMD:D_SOD-123" H 6600 4200 50  0001 C CNN
F 3 "~" H 6600 4200 50  0001 C CNN
	1    6600 4200
	0    1    1    0   
$EndComp
$Comp
L Device:C C123
U 1 1 6085A39D
P 4650 4200
AR Path="/5FDA6F72/6085A39D" Ref="C123"  Part="1" 
AR Path="/5FF26FEA/6085A39D" Ref="C?"  Part="1" 
AR Path="/5FF29AD4/5FFEE41D/6010CEC8/6085A39D" Ref="C?"  Part="1" 
AR Path="/5FF29AD4/5FFEE41D/6085A39D" Ref="C?"  Part="1" 
AR Path="/5FF29AD4/5FFEE41D/602775D5/6085A39D" Ref="C?"  Part="1" 
AR Path="/5FF29AD4/5FF2DE95/6085A39D" Ref="C?"  Part="1" 
AR Path="/60403A40/6085A39D" Ref="C?"  Part="1" 
AR Path="/5FF29AD4/604766AE/6085A39D" Ref="C?"  Part="1" 
F 0 "C123" H 4765 4246 50  0000 L CNN
F 1 "10u" H 4765 4155 50  0000 L CNN
F 2 "Capacitor_SMD:C_1210_3225Metric_Pad1.33x2.70mm_HandSolder" H 4688 4050 50  0001 C CNN
F 3 "~" H 4650 4200 50  0001 C CNN
	1    4650 4200
	1    0    0    -1  
$EndComp
$Comp
L power:GND #PWR0126
U 1 1 6085A3A3
P 4650 4450
AR Path="/5FDA6F72/6085A3A3" Ref="#PWR0126"  Part="1" 
AR Path="/5FF26FEA/6085A3A3" Ref="#PWR?"  Part="1" 
AR Path="/5FF29AD4/5FFEE41D/6010CEC8/6085A3A3" Ref="#PWR?"  Part="1" 
AR Path="/5FF29AD4/5FFEE41D/6085A3A3" Ref="#PWR?"  Part="1" 
AR Path="/5FF29AD4/5FFEE41D/602775D5/6085A3A3" Ref="#PWR?"  Part="1" 
AR Path="/5FF29AD4/5FF2DE95/6085A3A3" Ref="#PWR?"  Part="1" 
AR Path="/60403A40/6085A3A3" Ref="#PWR?"  Part="1" 
AR Path="/5FF29AD4/604766AE/6085A3A3" Ref="#PWR?"  Part="1" 
F 0 "#PWR0126" H 4650 4200 50  0001 C CNN
F 1 "GND" H 4655 4277 50  0000 C CNN
F 2 "" H 4650 4450 50  0001 C CNN
F 3 "" H 4650 4450 50  0001 C CNN
	1    4650 4450
	1    0    0    -1  
$EndComp
Wire Wire Line
	4650 4350 4650 4450
$Comp
L power:+5V #PWR?
U 1 1 6085A3AA
P 3900 4050
AR Path="/5FF26FEA/6085A3AA" Ref="#PWR?"  Part="1" 
AR Path="/5FF29AD4/5FFEE41D/6010CEC8/6085A3AA" Ref="#PWR?"  Part="1" 
AR Path="/5FF29AD4/5FFEE41D/6085A3AA" Ref="#PWR?"  Part="1" 
AR Path="/5FF29AD4/5FFEE41D/602775D5/6085A3AA" Ref="#PWR?"  Part="1" 
AR Path="/5FF29AD4/5FF2DE95/6085A3AA" Ref="#PWR?"  Part="1" 
AR Path="/60403A40/6085A3AA" Ref="#PWR?"  Part="1" 
AR Path="/5FF29AD4/604766AE/6085A3AA" Ref="#PWR?"  Part="1" 
AR Path="/5FDA6F72/6085A3AA" Ref="#PWR0129"  Part="1" 
F 0 "#PWR0129" H 3900 3900 50  0001 C CNN
F 1 "+5V" H 3915 4223 50  0000 C CNN
F 2 "" H 3900 4050 50  0001 C CNN
F 3 "" H 3900 4050 50  0001 C CNN
	1    3900 4050
	1    0    0    -1  
$EndComp
$Comp
L Device:C C?
U 1 1 6085A3B0
P 3900 4200
AR Path="/5FF29AD4/5FFF09C6/6085A3B0" Ref="C?"  Part="1" 
AR Path="/5FF26FEA/6085A3B0" Ref="C?"  Part="1" 
AR Path="/5FF29AD4/5FFEE41D/6010CEC8/6085A3B0" Ref="C?"  Part="1" 
AR Path="/5FF29AD4/5FFEE41D/6085A3B0" Ref="C?"  Part="1" 
AR Path="/5FF29AD4/5FFEE41D/602775D5/6085A3B0" Ref="C?"  Part="1" 
AR Path="/5FF29AD4/5FF2DE95/6085A3B0" Ref="C?"  Part="1" 
AR Path="/60403A40/6085A3B0" Ref="C?"  Part="1" 
AR Path="/5FF29AD4/604766AE/6085A3B0" Ref="C?"  Part="1" 
AR Path="/5FDA6F72/6085A3B0" Ref="C122"  Part="1" 
F 0 "C122" H 4015 4246 50  0000 L CNN
F 1 "10u" H 4015 4155 50  0000 L CNN
F 2 "Capacitor_SMD:C_1210_3225Metric_Pad1.33x2.70mm_HandSolder" H 3938 4050 50  0001 C CNN
F 3 "~" H 3900 4200 50  0001 C CNN
	1    3900 4200
	1    0    0    -1  
$EndComp
$Comp
L power:GND #PWR?
U 1 1 6085A3B6
P 3900 4450
AR Path="/5FF29AD4/5FFF09C6/6085A3B6" Ref="#PWR?"  Part="1" 
AR Path="/5FF26FEA/6085A3B6" Ref="#PWR?"  Part="1" 
AR Path="/5FF29AD4/5FFEE41D/6010CEC8/6085A3B6" Ref="#PWR?"  Part="1" 
AR Path="/5FF29AD4/5FFEE41D/6085A3B6" Ref="#PWR?"  Part="1" 
AR Path="/5FF29AD4/5FFEE41D/602775D5/6085A3B6" Ref="#PWR?"  Part="1" 
AR Path="/5FF29AD4/5FF2DE95/6085A3B6" Ref="#PWR?"  Part="1" 
AR Path="/60403A40/6085A3B6" Ref="#PWR?"  Part="1" 
AR Path="/5FF29AD4/604766AE/6085A3B6" Ref="#PWR?"  Part="1" 
AR Path="/5FDA6F72/6085A3B6" Ref="#PWR0130"  Part="1" 
F 0 "#PWR0130" H 3900 4200 50  0001 C CNN
F 1 "GND" H 3905 4277 50  0000 C CNN
F 2 "" H 3900 4450 50  0001 C CNN
F 3 "" H 3900 4450 50  0001 C CNN
	1    3900 4450
	1    0    0    -1  
$EndComp
Wire Wire Line
	3900 4450 3900 4350
$Comp
L Device:L L6
U 1 1 6085A3BD
P 4300 4050
AR Path="/5FDA6F72/6085A3BD" Ref="L6"  Part="1" 
AR Path="/5FF29AD4/5FFEE41D/602775D5/6085A3BD" Ref="L?"  Part="1" 
AR Path="/5FF29AD4/5FF2DE95/6085A3BD" Ref="L?"  Part="1" 
AR Path="/60403A40/6085A3BD" Ref="L?"  Part="1" 
AR Path="/5FF29AD4/604766AE/6085A3BD" Ref="L?"  Part="1" 
F 0 "L6" V 4119 4050 50  0000 C CNN
F 1 "12u" V 4210 4050 50  0000 C CNN
F 2 "Inductor_SMD:L_1210_3225Metric_Pad1.42x2.65mm_HandSolder" H 4300 4050 50  0001 C CNN
F 3 "~" H 4300 4050 50  0001 C CNN
	1    4300 4050
	0    1    1    0   
$EndComp
Connection ~ 4650 4050
Wire Wire Line
	3900 4050 4150 4050
Connection ~ 3900 4050
Wire Wire Line
	4450 4050 4650 4050
Wire Wire Line
	4650 4050 5100 4050
$Comp
L Device:R R?
U 1 1 6085A3C8
P 6250 4050
AR Path="/5FF29AD4/5FF2DE95/6085A3C8" Ref="R?"  Part="1" 
AR Path="/60403A40/6085A3C8" Ref="R?"  Part="1" 
AR Path="/5FF29AD4/604766AE/6085A3C8" Ref="R?"  Part="1" 
AR Path="/5FDA6F72/6085A3C8" Ref="R13"  Part="1" 
F 0 "R13" V 6150 4050 50  0000 C CNN
F 1 "10" V 6250 4050 50  0000 C CNN
F 2 "Resistor_SMD:R_0603_1608Metric_Pad0.98x0.95mm_HandSolder" V 6180 4050 50  0001 C CNN
F 3 "~" H 6250 4050 50  0001 C CNN
	1    6250 4050
	0    1    1    0   
$EndComp
Wire Wire Line
	5900 4050 6100 4050
Wire Wire Line
	5900 4150 6150 4150
Wire Wire Line
	6150 4150 6150 4350
Wire Wire Line
	6150 4350 6600 4350
Connection ~ 6600 4350
Wire Wire Line
	6600 4350 7000 4350
Connection ~ 7000 4350
Wire Wire Line
	7000 4350 7400 4350
Wire Wire Line
	6400 4050 6600 4050
Connection ~ 6600 4050
Wire Wire Line
	6600 4050 7000 4050
Connection ~ 7000 4050
Wire Wire Line
	7000 4050 7400 4050
Connection ~ 7400 4050
Connection ~ 7400 4350
Text HLabel 8100 4050 2    50   Input ~ 0
15V_1
Text HLabel 8100 4350 2    50   Input ~ 0
GND_1
$Comp
L power:GND #PWR?
U 1 1 60884270
P 5000 5400
AR Path="/5FF26FEA/60884270" Ref="#PWR?"  Part="1" 
AR Path="/5FF29AD4/5FFF09C6/60884270" Ref="#PWR?"  Part="1" 
AR Path="/5FF29AD4/5FF2DE95/60884270" Ref="#PWR?"  Part="1" 
AR Path="/60403A40/60884270" Ref="#PWR?"  Part="1" 
AR Path="/5FF29AD4/604766AE/60884270" Ref="#PWR?"  Part="1" 
AR Path="/5FDA6F72/60884270" Ref="#PWR0131"  Part="1" 
F 0 "#PWR0131" H 5000 5150 50  0001 C CNN
F 1 "GND" H 5005 5227 50  0000 C CNN
F 2 "" H 5000 5400 50  0001 C CNN
F 3 "" H 5000 5400 50  0001 C CNN
	1    5000 5400
	1    0    0    -1  
$EndComp
Wire Wire Line
	5000 5400 5000 5100
Wire Wire Line
	5000 5100 5100 5100
$Comp
L Device:C C?
U 1 1 60884278
P 7400 5150
AR Path="/5FF29AD4/5FF2DE95/60884278" Ref="C?"  Part="1" 
AR Path="/60403A40/60884278" Ref="C?"  Part="1" 
AR Path="/5FF29AD4/604766AE/60884278" Ref="C?"  Part="1" 
AR Path="/5FDA6F72/60884278" Ref="C152"  Part="1" 
F 0 "C152" V 7148 5150 50  0000 C CNN
F 1 "10u" V 7239 5150 50  0000 C CNN
F 2 "Capacitor_SMD:C_1210_3225Metric_Pad1.33x2.70mm_HandSolder" H 7438 5000 50  0001 C CNN
F 3 "~" H 7400 5150 50  0001 C CNN
	1    7400 5150
	1    0    0    -1  
$EndComp
$Comp
L Device:C C?
U 1 1 6088427E
P 7000 5150
AR Path="/5FF29AD4/5FF2DE95/6088427E" Ref="C?"  Part="1" 
AR Path="/60403A40/6088427E" Ref="C?"  Part="1" 
AR Path="/5FF29AD4/604766AE/6088427E" Ref="C?"  Part="1" 
AR Path="/5FDA6F72/6088427E" Ref="C151"  Part="1" 
F 0 "C151" V 6748 5150 50  0000 C CNN
F 1 "100n" V 6839 5150 50  0000 C CNN
F 2 "Capacitor_SMD:C_0603_1608Metric_Pad1.08x0.95mm_HandSolder" H 7038 5000 50  0001 C CNN
F 3 "~" H 7000 5150 50  0001 C CNN
	1    7000 5150
	1    0    0    -1  
$EndComp
$Comp
L Device:D_Zener D?
U 1 1 60884284
P 6600 5150
AR Path="/5FF29AD4/5FF2DE95/60884284" Ref="D?"  Part="1" 
AR Path="/60403A40/60884284" Ref="D?"  Part="1" 
AR Path="/5FF29AD4/604766AE/60884284" Ref="D?"  Part="1" 
AR Path="/5FDA6F72/60884284" Ref="D17"  Part="1" 
F 0 "D17" H 6600 4933 50  0000 C CNN
F 1 "16V" H 6600 5024 50  0000 C CNN
F 2 "Diode_SMD:D_SOD-123" H 6600 5150 50  0001 C CNN
F 3 "~" H 6600 5150 50  0001 C CNN
	1    6600 5150
	0    1    1    0   
$EndComp
$Comp
L Device:C C150
U 1 1 6088428A
P 4650 5150
AR Path="/5FDA6F72/6088428A" Ref="C150"  Part="1" 
AR Path="/5FF26FEA/6088428A" Ref="C?"  Part="1" 
AR Path="/5FF29AD4/5FFEE41D/6010CEC8/6088428A" Ref="C?"  Part="1" 
AR Path="/5FF29AD4/5FFEE41D/6088428A" Ref="C?"  Part="1" 
AR Path="/5FF29AD4/5FFEE41D/602775D5/6088428A" Ref="C?"  Part="1" 
AR Path="/5FF29AD4/5FF2DE95/6088428A" Ref="C?"  Part="1" 
AR Path="/60403A40/6088428A" Ref="C?"  Part="1" 
AR Path="/5FF29AD4/604766AE/6088428A" Ref="C?"  Part="1" 
F 0 "C150" H 4765 5196 50  0000 L CNN
F 1 "10u" H 4765 5105 50  0000 L CNN
F 2 "Capacitor_SMD:C_1210_3225Metric_Pad1.33x2.70mm_HandSolder" H 4688 5000 50  0001 C CNN
F 3 "~" H 4650 5150 50  0001 C CNN
	1    4650 5150
	1    0    0    -1  
$EndComp
$Comp
L power:GND #PWR0132
U 1 1 60884290
P 4650 5400
AR Path="/5FDA6F72/60884290" Ref="#PWR0132"  Part="1" 
AR Path="/5FF26FEA/60884290" Ref="#PWR?"  Part="1" 
AR Path="/5FF29AD4/5FFEE41D/6010CEC8/60884290" Ref="#PWR?"  Part="1" 
AR Path="/5FF29AD4/5FFEE41D/60884290" Ref="#PWR?"  Part="1" 
AR Path="/5FF29AD4/5FFEE41D/602775D5/60884290" Ref="#PWR?"  Part="1" 
AR Path="/5FF29AD4/5FF2DE95/60884290" Ref="#PWR?"  Part="1" 
AR Path="/60403A40/60884290" Ref="#PWR?"  Part="1" 
AR Path="/5FF29AD4/604766AE/60884290" Ref="#PWR?"  Part="1" 
F 0 "#PWR0132" H 4650 5150 50  0001 C CNN
F 1 "GND" H 4655 5227 50  0000 C CNN
F 2 "" H 4650 5400 50  0001 C CNN
F 3 "" H 4650 5400 50  0001 C CNN
	1    4650 5400
	1    0    0    -1  
$EndComp
Wire Wire Line
	4650 5300 4650 5400
$Comp
L power:+5V #PWR?
U 1 1 60884297
P 3900 5000
AR Path="/5FF26FEA/60884297" Ref="#PWR?"  Part="1" 
AR Path="/5FF29AD4/5FFEE41D/6010CEC8/60884297" Ref="#PWR?"  Part="1" 
AR Path="/5FF29AD4/5FFEE41D/60884297" Ref="#PWR?"  Part="1" 
AR Path="/5FF29AD4/5FFEE41D/602775D5/60884297" Ref="#PWR?"  Part="1" 
AR Path="/5FF29AD4/5FF2DE95/60884297" Ref="#PWR?"  Part="1" 
AR Path="/60403A40/60884297" Ref="#PWR?"  Part="1" 
AR Path="/5FF29AD4/604766AE/60884297" Ref="#PWR?"  Part="1" 
AR Path="/5FDA6F72/60884297" Ref="#PWR0133"  Part="1" 
F 0 "#PWR0133" H 3900 4850 50  0001 C CNN
F 1 "+5V" H 3915 5173 50  0000 C CNN
F 2 "" H 3900 5000 50  0001 C CNN
F 3 "" H 3900 5000 50  0001 C CNN
	1    3900 5000
	1    0    0    -1  
$EndComp
$Comp
L Device:C C?
U 1 1 6088429D
P 3900 5150
AR Path="/5FF29AD4/5FFF09C6/6088429D" Ref="C?"  Part="1" 
AR Path="/5FF26FEA/6088429D" Ref="C?"  Part="1" 
AR Path="/5FF29AD4/5FFEE41D/6010CEC8/6088429D" Ref="C?"  Part="1" 
AR Path="/5FF29AD4/5FFEE41D/6088429D" Ref="C?"  Part="1" 
AR Path="/5FF29AD4/5FFEE41D/602775D5/6088429D" Ref="C?"  Part="1" 
AR Path="/5FF29AD4/5FF2DE95/6088429D" Ref="C?"  Part="1" 
AR Path="/60403A40/6088429D" Ref="C?"  Part="1" 
AR Path="/5FF29AD4/604766AE/6088429D" Ref="C?"  Part="1" 
AR Path="/5FDA6F72/6088429D" Ref="C149"  Part="1" 
F 0 "C149" H 4015 5196 50  0000 L CNN
F 1 "10u" H 4015 5105 50  0000 L CNN
F 2 "Capacitor_SMD:C_1210_3225Metric_Pad1.33x2.70mm_HandSolder" H 3938 5000 50  0001 C CNN
F 3 "~" H 3900 5150 50  0001 C CNN
	1    3900 5150
	1    0    0    -1  
$EndComp
$Comp
L power:GND #PWR?
U 1 1 608842A3
P 3900 5400
AR Path="/5FF29AD4/5FFF09C6/608842A3" Ref="#PWR?"  Part="1" 
AR Path="/5FF26FEA/608842A3" Ref="#PWR?"  Part="1" 
AR Path="/5FF29AD4/5FFEE41D/6010CEC8/608842A3" Ref="#PWR?"  Part="1" 
AR Path="/5FF29AD4/5FFEE41D/608842A3" Ref="#PWR?"  Part="1" 
AR Path="/5FF29AD4/5FFEE41D/602775D5/608842A3" Ref="#PWR?"  Part="1" 
AR Path="/5FF29AD4/5FF2DE95/608842A3" Ref="#PWR?"  Part="1" 
AR Path="/60403A40/608842A3" Ref="#PWR?"  Part="1" 
AR Path="/5FF29AD4/604766AE/608842A3" Ref="#PWR?"  Part="1" 
AR Path="/5FDA6F72/608842A3" Ref="#PWR0134"  Part="1" 
F 0 "#PWR0134" H 3900 5150 50  0001 C CNN
F 1 "GND" H 3905 5227 50  0000 C CNN
F 2 "" H 3900 5400 50  0001 C CNN
F 3 "" H 3900 5400 50  0001 C CNN
	1    3900 5400
	1    0    0    -1  
$EndComp
Wire Wire Line
	3900 5400 3900 5300
$Comp
L Device:L L7
U 1 1 608842AA
P 4300 5000
AR Path="/5FDA6F72/608842AA" Ref="L7"  Part="1" 
AR Path="/5FF29AD4/5FFEE41D/602775D5/608842AA" Ref="L?"  Part="1" 
AR Path="/5FF29AD4/5FF2DE95/608842AA" Ref="L?"  Part="1" 
AR Path="/60403A40/608842AA" Ref="L?"  Part="1" 
AR Path="/5FF29AD4/604766AE/608842AA" Ref="L?"  Part="1" 
F 0 "L7" V 4119 5000 50  0000 C CNN
F 1 "12u" V 4210 5000 50  0000 C CNN
F 2 "Inductor_SMD:L_1210_3225Metric_Pad1.42x2.65mm_HandSolder" H 4300 5000 50  0001 C CNN
F 3 "~" H 4300 5000 50  0001 C CNN
	1    4300 5000
	0    1    1    0   
$EndComp
Connection ~ 4650 5000
Wire Wire Line
	3900 5000 4150 5000
Connection ~ 3900 5000
Wire Wire Line
	4450 5000 4650 5000
Wire Wire Line
	4650 5000 5100 5000
$Comp
L Device:R R?
U 1 1 608842B5
P 6250 5000
AR Path="/5FF29AD4/5FF2DE95/608842B5" Ref="R?"  Part="1" 
AR Path="/60403A40/608842B5" Ref="R?"  Part="1" 
AR Path="/5FF29AD4/604766AE/608842B5" Ref="R?"  Part="1" 
AR Path="/5FDA6F72/608842B5" Ref="R15"  Part="1" 
F 0 "R15" V 6150 5000 50  0000 C CNN
F 1 "10" V 6250 5000 50  0000 C CNN
F 2 "Resistor_SMD:R_0603_1608Metric_Pad0.98x0.95mm_HandSolder" V 6180 5000 50  0001 C CNN
F 3 "~" H 6250 5000 50  0001 C CNN
	1    6250 5000
	0    1    1    0   
$EndComp
Wire Wire Line
	5900 5000 6100 5000
Wire Wire Line
	5900 5100 6150 5100
Wire Wire Line
	6150 5100 6150 5300
Wire Wire Line
	6150 5300 6600 5300
Connection ~ 6600 5300
Wire Wire Line
	6600 5300 7000 5300
Connection ~ 7000 5300
Wire Wire Line
	7000 5300 7400 5300
Wire Wire Line
	6400 5000 6600 5000
Connection ~ 6600 5000
Wire Wire Line
	6600 5000 7000 5000
Connection ~ 7000 5000
Wire Wire Line
	7000 5000 7400 5000
Connection ~ 7400 5000
Connection ~ 7400 5300
Text HLabel 8100 5000 2    50   Input ~ 0
15V_2
Text HLabel 8100 5300 2    50   Input ~ 0
GND_2
Wire Wire Line
	7400 5000 8100 5000
Wire Wire Line
	7400 5300 8100 5300
Wire Wire Line
	7400 4050 8100 4050
Wire Wire Line
	7400 4350 8100 4350
$Comp
L power:GND #PWR?
U 1 1 605F9C26
P 5000 3450
AR Path="/5FF26FEA/605F9C26" Ref="#PWR?"  Part="1" 
AR Path="/5FF29AD4/5FFF09C6/605F9C26" Ref="#PWR?"  Part="1" 
AR Path="/5FF29AD4/5FF2DE95/605F9C26" Ref="#PWR?"  Part="1" 
AR Path="/60403A40/605F9C26" Ref="#PWR?"  Part="1" 
AR Path="/5FF29AD4/604766AE/605F9C26" Ref="#PWR?"  Part="1" 
AR Path="/5FDA6F72/605F9C26" Ref="#PWR0102"  Part="1" 
F 0 "#PWR0102" H 5000 3200 50  0001 C CNN
F 1 "GND" H 5005 3277 50  0000 C CNN
F 2 "" H 5000 3450 50  0001 C CNN
F 3 "" H 5000 3450 50  0001 C CNN
	1    5000 3450
	1    0    0    -1  
$EndComp
Wire Wire Line
	5000 3450 5000 3150
Wire Wire Line
	5000 3150 5100 3150
$Comp
L Device:C C?
U 1 1 605F9C2E
P 7400 3200
AR Path="/5FF29AD4/5FF2DE95/605F9C2E" Ref="C?"  Part="1" 
AR Path="/60403A40/605F9C2E" Ref="C?"  Part="1" 
AR Path="/5FF29AD4/604766AE/605F9C2E" Ref="C?"  Part="1" 
AR Path="/5FDA6F72/605F9C2E" Ref="C19"  Part="1" 
F 0 "C19" V 7148 3200 50  0000 C CNN
F 1 "10u" V 7239 3200 50  0000 C CNN
F 2 "Capacitor_SMD:C_1210_3225Metric_Pad1.33x2.70mm_HandSolder" H 7438 3050 50  0001 C CNN
F 3 "~" H 7400 3200 50  0001 C CNN
	1    7400 3200
	1    0    0    -1  
$EndComp
$Comp
L Device:C C?
U 1 1 605F9C34
P 7000 3200
AR Path="/5FF29AD4/5FF2DE95/605F9C34" Ref="C?"  Part="1" 
AR Path="/60403A40/605F9C34" Ref="C?"  Part="1" 
AR Path="/5FF29AD4/604766AE/605F9C34" Ref="C?"  Part="1" 
AR Path="/5FDA6F72/605F9C34" Ref="C18"  Part="1" 
F 0 "C18" V 6748 3200 50  0000 C CNN
F 1 "100n" V 6839 3200 50  0000 C CNN
F 2 "Capacitor_SMD:C_0603_1608Metric_Pad1.08x0.95mm_HandSolder" H 7038 3050 50  0001 C CNN
F 3 "~" H 7000 3200 50  0001 C CNN
	1    7000 3200
	1    0    0    -1  
$EndComp
$Comp
L Device:D_Zener D?
U 1 1 605F9C3A
P 6600 3200
AR Path="/5FF29AD4/5FF2DE95/605F9C3A" Ref="D?"  Part="1" 
AR Path="/60403A40/605F9C3A" Ref="D?"  Part="1" 
AR Path="/5FF29AD4/604766AE/605F9C3A" Ref="D?"  Part="1" 
AR Path="/5FDA6F72/605F9C3A" Ref="D6"  Part="1" 
F 0 "D6" H 6600 2983 50  0000 C CNN
F 1 "16V" H 6600 3074 50  0000 C CNN
F 2 "Diode_SMD:D_SOD-123" H 6600 3200 50  0001 C CNN
F 3 "~" H 6600 3200 50  0001 C CNN
	1    6600 3200
	0    1    1    0   
$EndComp
$Comp
L Device:C C17
U 1 1 605F9C40
P 4650 3200
AR Path="/5FDA6F72/605F9C40" Ref="C17"  Part="1" 
AR Path="/5FF26FEA/605F9C40" Ref="C?"  Part="1" 
AR Path="/5FF29AD4/5FFEE41D/6010CEC8/605F9C40" Ref="C?"  Part="1" 
AR Path="/5FF29AD4/5FFEE41D/605F9C40" Ref="C?"  Part="1" 
AR Path="/5FF29AD4/5FFEE41D/602775D5/605F9C40" Ref="C?"  Part="1" 
AR Path="/5FF29AD4/5FF2DE95/605F9C40" Ref="C?"  Part="1" 
AR Path="/60403A40/605F9C40" Ref="C?"  Part="1" 
AR Path="/5FF29AD4/604766AE/605F9C40" Ref="C?"  Part="1" 
F 0 "C17" H 4765 3246 50  0000 L CNN
F 1 "10u" H 4765 3155 50  0000 L CNN
F 2 "Capacitor_SMD:C_1210_3225Metric_Pad1.33x2.70mm_HandSolder" H 4688 3050 50  0001 C CNN
F 3 "~" H 4650 3200 50  0001 C CNN
	1    4650 3200
	1    0    0    -1  
$EndComp
$Comp
L power:GND #PWR0113
U 1 1 605F9C46
P 4650 3450
AR Path="/5FDA6F72/605F9C46" Ref="#PWR0113"  Part="1" 
AR Path="/5FF26FEA/605F9C46" Ref="#PWR?"  Part="1" 
AR Path="/5FF29AD4/5FFEE41D/6010CEC8/605F9C46" Ref="#PWR?"  Part="1" 
AR Path="/5FF29AD4/5FFEE41D/605F9C46" Ref="#PWR?"  Part="1" 
AR Path="/5FF29AD4/5FFEE41D/602775D5/605F9C46" Ref="#PWR?"  Part="1" 
AR Path="/5FF29AD4/5FF2DE95/605F9C46" Ref="#PWR?"  Part="1" 
AR Path="/60403A40/605F9C46" Ref="#PWR?"  Part="1" 
AR Path="/5FF29AD4/604766AE/605F9C46" Ref="#PWR?"  Part="1" 
F 0 "#PWR0113" H 4650 3200 50  0001 C CNN
F 1 "GND" H 4655 3277 50  0000 C CNN
F 2 "" H 4650 3450 50  0001 C CNN
F 3 "" H 4650 3450 50  0001 C CNN
	1    4650 3450
	1    0    0    -1  
$EndComp
Wire Wire Line
	4650 3350 4650 3450
$Comp
L power:+5V #PWR?
U 1 1 605F9C4D
P 3900 3050
AR Path="/5FF26FEA/605F9C4D" Ref="#PWR?"  Part="1" 
AR Path="/5FF29AD4/5FFEE41D/6010CEC8/605F9C4D" Ref="#PWR?"  Part="1" 
AR Path="/5FF29AD4/5FFEE41D/605F9C4D" Ref="#PWR?"  Part="1" 
AR Path="/5FF29AD4/5FFEE41D/602775D5/605F9C4D" Ref="#PWR?"  Part="1" 
AR Path="/5FF29AD4/5FF2DE95/605F9C4D" Ref="#PWR?"  Part="1" 
AR Path="/60403A40/605F9C4D" Ref="#PWR?"  Part="1" 
AR Path="/5FF29AD4/604766AE/605F9C4D" Ref="#PWR?"  Part="1" 
AR Path="/5FDA6F72/605F9C4D" Ref="#PWR0124"  Part="1" 
F 0 "#PWR0124" H 3900 2900 50  0001 C CNN
F 1 "+5V" H 3915 3223 50  0000 C CNN
F 2 "" H 3900 3050 50  0001 C CNN
F 3 "" H 3900 3050 50  0001 C CNN
	1    3900 3050
	1    0    0    -1  
$EndComp
$Comp
L Device:C C?
U 1 1 605F9C53
P 3900 3200
AR Path="/5FF29AD4/5FFF09C6/605F9C53" Ref="C?"  Part="1" 
AR Path="/5FF26FEA/605F9C53" Ref="C?"  Part="1" 
AR Path="/5FF29AD4/5FFEE41D/6010CEC8/605F9C53" Ref="C?"  Part="1" 
AR Path="/5FF29AD4/5FFEE41D/605F9C53" Ref="C?"  Part="1" 
AR Path="/5FF29AD4/5FFEE41D/602775D5/605F9C53" Ref="C?"  Part="1" 
AR Path="/5FF29AD4/5FF2DE95/605F9C53" Ref="C?"  Part="1" 
AR Path="/60403A40/605F9C53" Ref="C?"  Part="1" 
AR Path="/5FF29AD4/604766AE/605F9C53" Ref="C?"  Part="1" 
AR Path="/5FDA6F72/605F9C53" Ref="C16"  Part="1" 
F 0 "C16" H 4015 3246 50  0000 L CNN
F 1 "10u" H 4015 3155 50  0000 L CNN
F 2 "Capacitor_SMD:C_1210_3225Metric_Pad1.33x2.70mm_HandSolder" H 3938 3050 50  0001 C CNN
F 3 "~" H 3900 3200 50  0001 C CNN
	1    3900 3200
	1    0    0    -1  
$EndComp
$Comp
L power:GND #PWR?
U 1 1 605F9C59
P 3900 3450
AR Path="/5FF29AD4/5FFF09C6/605F9C59" Ref="#PWR?"  Part="1" 
AR Path="/5FF26FEA/605F9C59" Ref="#PWR?"  Part="1" 
AR Path="/5FF29AD4/5FFEE41D/6010CEC8/605F9C59" Ref="#PWR?"  Part="1" 
AR Path="/5FF29AD4/5FFEE41D/605F9C59" Ref="#PWR?"  Part="1" 
AR Path="/5FF29AD4/5FFEE41D/602775D5/605F9C59" Ref="#PWR?"  Part="1" 
AR Path="/5FF29AD4/5FF2DE95/605F9C59" Ref="#PWR?"  Part="1" 
AR Path="/60403A40/605F9C59" Ref="#PWR?"  Part="1" 
AR Path="/5FF29AD4/604766AE/605F9C59" Ref="#PWR?"  Part="1" 
AR Path="/5FDA6F72/605F9C59" Ref="#PWR0137"  Part="1" 
F 0 "#PWR0137" H 3900 3200 50  0001 C CNN
F 1 "GND" H 3905 3277 50  0000 C CNN
F 2 "" H 3900 3450 50  0001 C CNN
F 3 "" H 3900 3450 50  0001 C CNN
	1    3900 3450
	1    0    0    -1  
$EndComp
Wire Wire Line
	3900 3450 3900 3350
$Comp
L Device:L L9
U 1 1 605F9C60
P 4300 3050
AR Path="/5FDA6F72/605F9C60" Ref="L9"  Part="1" 
AR Path="/5FF29AD4/5FFEE41D/602775D5/605F9C60" Ref="L?"  Part="1" 
AR Path="/5FF29AD4/5FF2DE95/605F9C60" Ref="L?"  Part="1" 
AR Path="/60403A40/605F9C60" Ref="L?"  Part="1" 
AR Path="/5FF29AD4/604766AE/605F9C60" Ref="L?"  Part="1" 
F 0 "L9" V 4119 3050 50  0000 C CNN
F 1 "12u" V 4210 3050 50  0000 C CNN
F 2 "Inductor_SMD:L_1210_3225Metric_Pad1.42x2.65mm_HandSolder" H 4300 3050 50  0001 C CNN
F 3 "~" H 4300 3050 50  0001 C CNN
	1    4300 3050
	0    1    1    0   
$EndComp
Connection ~ 4650 3050
Wire Wire Line
	3900 3050 4150 3050
Connection ~ 3900 3050
Wire Wire Line
	4450 3050 4650 3050
Wire Wire Line
	4650 3050 5100 3050
$Comp
L Device:R R?
U 1 1 605F9C6B
P 6250 3050
AR Path="/5FF29AD4/5FF2DE95/605F9C6B" Ref="R?"  Part="1" 
AR Path="/60403A40/605F9C6B" Ref="R?"  Part="1" 
AR Path="/5FF29AD4/604766AE/605F9C6B" Ref="R?"  Part="1" 
AR Path="/5FDA6F72/605F9C6B" Ref="R31"  Part="1" 
F 0 "R31" V 6150 3050 50  0000 C CNN
F 1 "10" V 6250 3050 50  0000 C CNN
F 2 "Resistor_SMD:R_0603_1608Metric_Pad0.98x0.95mm_HandSolder" V 6180 3050 50  0001 C CNN
F 3 "~" H 6250 3050 50  0001 C CNN
	1    6250 3050
	0    1    1    0   
$EndComp
Wire Wire Line
	5900 3050 6100 3050
Wire Wire Line
	5900 3150 6150 3150
Wire Wire Line
	6150 3150 6150 3350
Wire Wire Line
	6150 3350 6600 3350
Connection ~ 6600 3350
Wire Wire Line
	6600 3350 6800 3350
Connection ~ 7000 3350
Wire Wire Line
	7000 3350 7400 3350
Wire Wire Line
	6400 3050 6600 3050
Connection ~ 6600 3050
Wire Wire Line
	6600 3050 7000 3050
Connection ~ 7000 3050
Wire Wire Line
	7000 3050 7400 3050
Connection ~ 7400 3050
Wire Wire Line
	7400 3050 7400 3000
$Comp
L power:GND #PWR?
U 1 1 6061DFE0
P 6800 3450
AR Path="/5FF26FEA/6061DFE0" Ref="#PWR?"  Part="1" 
AR Path="/5FF29AD4/5FFF09C6/6061DFE0" Ref="#PWR?"  Part="1" 
AR Path="/5FF29AD4/5FF2DE95/6061DFE0" Ref="#PWR?"  Part="1" 
AR Path="/60403A40/6061DFE0" Ref="#PWR?"  Part="1" 
AR Path="/5FF29AD4/604766AE/6061DFE0" Ref="#PWR?"  Part="1" 
AR Path="/5FDA6F72/6061DFE0" Ref="#PWR0139"  Part="1" 
F 0 "#PWR0139" H 6800 3200 50  0001 C CNN
F 1 "GND" H 6805 3277 50  0000 C CNN
F 2 "" H 6800 3450 50  0001 C CNN
F 3 "" H 6800 3450 50  0001 C CNN
	1    6800 3450
	1    0    0    -1  
$EndComp
Wire Wire Line
	6800 3450 6800 3350
Connection ~ 6800 3350
Wire Wire Line
	6800 3350 7000 3350
$Comp
L AMR_1D_magnetometer-rescue:TBA_1-0513-Converter_DCDC U3
U 1 1 6064DF5E
P 5500 3100
AR Path="/6064DF5E" Ref="U3"  Part="1" 
AR Path="/5FDA6F72/6064DF5E" Ref="U3"  Part="1" 
F 0 "U3" H 5500 3415 50  0000 C CNN
F 1 "TBA_1-0513" H 5500 3324 50  0000 C CNN
F 2 "Package_SIP:SIP4_Traco" H 5500 3400 50  0001 C CNN
F 3 "" H 5500 3400 50  0001 C CNN
	1    5500 3100
	1    0    0    -1  
$EndComp
$Comp
L AMR_1D_magnetometer-rescue:TBA_1-0513-Converter_DCDC U23
U 1 1 6064E865
P 5500 4100
AR Path="/6064E865" Ref="U23"  Part="1" 
AR Path="/5FDA6F72/6064E865" Ref="U23"  Part="1" 
F 0 "U23" H 5500 4415 50  0000 C CNN
F 1 "TBA_1-0513" H 5500 4324 50  0000 C CNN
F 2 "Package_SIP:SIP4_Traco" H 5500 4400 50  0001 C CNN
F 3 "" H 5500 4400 50  0001 C CNN
	1    5500 4100
	1    0    0    -1  
$EndComp
$Comp
L AMR_1D_magnetometer-rescue:TBA_1-0513-Converter_DCDC U24
U 1 1 6064F003
P 5500 5050
AR Path="/6064F003" Ref="U24"  Part="1" 
AR Path="/5FDA6F72/6064F003" Ref="U24"  Part="1" 
F 0 "U24" H 5500 5365 50  0000 C CNN
F 1 "TBA_1-0513" H 5500 5274 50  0000 C CNN
F 2 "Package_SIP:SIP4_Traco" H 5500 5350 50  0001 C CNN
F 3 "" H 5500 5350 50  0001 C CNN
	1    5500 5050
	1    0    0    -1  
$EndComp
$Comp
L AMR_1D_magnetometer-rescue:TPS7A49-Regulator_Linear U29
U 1 1 607AC805
P 3200 6650
F 0 "U29" H 3175 7065 50  0000 C CNN
F 1 "TPS7A49" H 3175 6974 50  0000 C CNN
F 2 "Package_SO:MSOP-8-1EP_3x3mm_P0.65mm_EP1.68x1.88mm_ThermalVias" H 3200 7000 50  0001 C CNN
F 3 "" H 3200 7000 50  0001 C CNN
	1    3200 6650
	-1   0    0    -1  
$EndComp
Wire Wire Line
	3550 6800 3650 6800
Wire Wire Line
	3650 6800 3650 6900
Wire Wire Line
	3650 6900 3550 6900
Wire Wire Line
	2900 6500 2800 6500
Wire Wire Line
	2800 6500 2800 6800
Wire Wire Line
	2800 6800 2900 6800
$Comp
L Device:C C?
U 1 1 607B28C1
P 5250 6650
AR Path="/5FF29AD4/5FF2DE95/607B28C1" Ref="C?"  Part="1" 
AR Path="/60403A40/607B28C1" Ref="C?"  Part="1" 
AR Path="/5FF29AD4/604766AE/607B28C1" Ref="C?"  Part="1" 
AR Path="/5FDA6F72/607B28C1" Ref="C140"  Part="1" 
F 0 "C140" V 4998 6650 50  0000 C CNN
F 1 "10u" V 5089 6650 50  0000 C CNN
F 2 "Capacitor_SMD:C_1210_3225Metric_Pad1.33x2.70mm_HandSolder" H 5288 6500 50  0001 C CNN
F 3 "~" H 5250 6650 50  0001 C CNN
	1    5250 6650
	1    0    0    -1  
$EndComp
$Comp
L Device:C C?
U 1 1 607B28C7
P 4850 6650
AR Path="/5FF29AD4/5FF2DE95/607B28C7" Ref="C?"  Part="1" 
AR Path="/60403A40/607B28C7" Ref="C?"  Part="1" 
AR Path="/5FF29AD4/604766AE/607B28C7" Ref="C?"  Part="1" 
AR Path="/5FDA6F72/607B28C7" Ref="C139"  Part="1" 
F 0 "C139" V 4598 6650 50  0000 C CNN
F 1 "100n" V 4689 6650 50  0000 C CNN
F 2 "Capacitor_SMD:C_0603_1608Metric_Pad1.08x0.95mm_HandSolder" H 4888 6500 50  0001 C CNN
F 3 "~" H 4850 6650 50  0001 C CNN
	1    4850 6650
	1    0    0    -1  
$EndComp
Connection ~ 4850 6500
Wire Wire Line
	4850 6500 5250 6500
$Comp
L Device:C C?
U 1 1 607B97AF
P 1700 6700
AR Path="/5FF29AD4/5FF2DE95/607B97AF" Ref="C?"  Part="1" 
AR Path="/60403A40/607B97AF" Ref="C?"  Part="1" 
AR Path="/5FF29AD4/604766AE/607B97AF" Ref="C?"  Part="1" 
AR Path="/5FDA6F72/607B97AF" Ref="C141"  Part="1" 
F 0 "C141" V 1448 6700 50  0000 C CNN
F 1 "10u" V 1539 6700 50  0000 C CNN
F 2 "Capacitor_SMD:C_1210_3225Metric_Pad1.33x2.70mm_HandSolder" H 1738 6550 50  0001 C CNN
F 3 "~" H 1700 6700 50  0001 C CNN
	1    1700 6700
	-1   0    0    1   
$EndComp
$Comp
L Device:C C?
U 1 1 607B97B5
P 2100 6700
AR Path="/5FF29AD4/5FF2DE95/607B97B5" Ref="C?"  Part="1" 
AR Path="/60403A40/607B97B5" Ref="C?"  Part="1" 
AR Path="/5FF29AD4/604766AE/607B97B5" Ref="C?"  Part="1" 
AR Path="/5FDA6F72/607B97B5" Ref="C142"  Part="1" 
F 0 "C142" V 1848 6700 50  0000 C CNN
F 1 "100n" V 1939 6700 50  0000 C CNN
F 2 "Capacitor_SMD:C_0603_1608Metric_Pad1.08x0.95mm_HandSolder" H 2138 6550 50  0001 C CNN
F 3 "~" H 2100 6700 50  0001 C CNN
	1    2100 6700
	-1   0    0    1   
$EndComp
$Comp
L Device:C C143
U 1 1 607BCE04
P 2700 7000
F 0 "C143" H 2815 7046 50  0000 L CNN
F 1 "10n" H 2815 6955 50  0000 L CNN
F 2 "Capacitor_SMD:C_0603_1608Metric_Pad1.08x0.95mm_HandSolder" H 2738 6850 50  0001 C CNN
F 3 "~" H 2700 7000 50  0001 C CNN
	1    2700 7000
	1    0    0    -1  
$EndComp
Wire Wire Line
	2700 6850 2700 6700
Wire Wire Line
	2700 6700 2900 6700
Wire Wire Line
	1700 6500 1700 6550
Wire Wire Line
	1700 6500 2100 6500
Wire Wire Line
	2100 6550 2100 6500
Connection ~ 2100 6500
$Comp
L power:GND #PWR031
U 1 1 607D0636
P 1700 6900
F 0 "#PWR031" H 1700 6650 50  0001 C CNN
F 1 "GND" H 1705 6727 50  0000 C CNN
F 2 "" H 1700 6900 50  0001 C CNN
F 3 "" H 1700 6900 50  0001 C CNN
	1    1700 6900
	1    0    0    -1  
$EndComp
$Comp
L power:GND #PWR032
U 1 1 607D138B
P 2100 6900
F 0 "#PWR032" H 2100 6650 50  0001 C CNN
F 1 "GND" H 2105 6727 50  0000 C CNN
F 2 "" H 2100 6900 50  0001 C CNN
F 3 "" H 2100 6900 50  0001 C CNN
	1    2100 6900
	1    0    0    -1  
$EndComp
Wire Wire Line
	2100 6900 2100 6850
Wire Wire Line
	1700 6850 1700 6900
Wire Wire Line
	2100 6500 2800 6500
Connection ~ 2800 6500
$Comp
L power:GND #PWR036
U 1 1 607DB85B
P 2700 7200
F 0 "#PWR036" H 2700 6950 50  0001 C CNN
F 1 "GND" H 2705 7027 50  0000 C CNN
F 2 "" H 2700 7200 50  0001 C CNN
F 3 "" H 2700 7200 50  0001 C CNN
	1    2700 7200
	1    0    0    -1  
$EndComp
Wire Wire Line
	2700 7200 2700 7150
$Comp
L Device:C C138
U 1 1 607DED4B
P 3900 6650
F 0 "C138" H 4015 6696 50  0000 L CNN
F 1 "10n" H 4015 6605 50  0000 L CNN
F 2 "Capacitor_SMD:C_0603_1608Metric_Pad1.08x0.95mm_HandSolder" H 3938 6500 50  0001 C CNN
F 3 "~" H 3900 6650 50  0001 C CNN
	1    3900 6650
	1    0    0    -1  
$EndComp
$Comp
L Device:R R78
U 1 1 607E553A
P 4250 6650
F 0 "R78" H 4320 6696 50  0000 L CNN
F 1 "280k" H 4320 6605 50  0000 L CNN
F 2 "Resistor_SMD:R_0603_1608Metric_Pad0.98x0.95mm_HandSolder" V 4180 6650 50  0001 C CNN
F 3 "~" H 4250 6650 50  0001 C CNN
	1    4250 6650
	1    0    0    -1  
$EndComp
$Comp
L Device:R R79
U 1 1 607F55CD
P 4250 6950
F 0 "R79" H 4320 6996 50  0000 L CNN
F 1 "100k" H 4320 6905 50  0000 L CNN
F 2 "Resistor_SMD:R_0603_1608Metric_Pad0.98x0.95mm_HandSolder" V 4180 6950 50  0001 C CNN
F 3 "~" H 4250 6950 50  0001 C CNN
	1    4250 6950
	1    0    0    -1  
$EndComp
Wire Wire Line
	4250 6800 3900 6800
Connection ~ 4250 6800
Wire Wire Line
	3550 6500 3900 6500
Connection ~ 3900 6500
Wire Wire Line
	3900 6500 4250 6500
Connection ~ 4250 6500
Wire Wire Line
	4250 6500 4850 6500
$Comp
L power:GND #PWR034
U 1 1 607FEDD1
P 3650 6950
F 0 "#PWR034" H 3650 6700 50  0001 C CNN
F 1 "GND" H 3655 6777 50  0000 C CNN
F 2 "" H 3650 6950 50  0001 C CNN
F 3 "" H 3650 6950 50  0001 C CNN
	1    3650 6950
	1    0    0    -1  
$EndComp
Wire Wire Line
	3650 6950 3650 6900
Connection ~ 3650 6900
Wire Wire Line
	3550 6600 3750 6600
Wire Wire Line
	3750 6600 3750 6800
Wire Wire Line
	3750 6800 3900 6800
Connection ~ 3900 6800
$Comp
L power:GND #PWR035
U 1 1 6080FDC8
P 4250 7100
F 0 "#PWR035" H 4250 6850 50  0001 C CNN
F 1 "GND" H 4255 6927 50  0000 C CNN
F 2 "" H 4250 7100 50  0001 C CNN
F 3 "" H 4250 7100 50  0001 C CNN
	1    4250 7100
	1    0    0    -1  
$EndComp
$Comp
L power:GND #PWR02
U 1 1 60813571
P 4850 6800
F 0 "#PWR02" H 4850 6550 50  0001 C CNN
F 1 "GND" H 4855 6627 50  0000 C CNN
F 2 "" H 4850 6800 50  0001 C CNN
F 3 "" H 4850 6800 50  0001 C CNN
	1    4850 6800
	1    0    0    -1  
$EndComp
$Comp
L power:GND #PWR014
U 1 1 60816CD9
P 5250 6800
F 0 "#PWR014" H 5250 6550 50  0001 C CNN
F 1 "GND" H 5255 6627 50  0000 C CNN
F 2 "" H 5250 6800 50  0001 C CNN
F 3 "" H 5250 6800 50  0001 C CNN
	1    5250 6800
	1    0    0    -1  
$EndComp
$Comp
L power:+5V #PWR01
U 1 1 60821885
P 1700 6500
F 0 "#PWR01" H 1700 6350 50  0001 C CNN
F 1 "+5V" H 1715 6673 50  0000 C CNN
F 2 "" H 1700 6500 50  0001 C CNN
F 3 "" H 1700 6500 50  0001 C CNN
	1    1700 6500
	1    0    0    -1  
$EndComp
Connection ~ 1700 6500
Connection ~ 5250 6500
$Comp
L power:VDDA #PWR077
U 1 1 60873F34
P 5250 6500
F 0 "#PWR077" H 5250 6350 50  0001 C CNN
F 1 "VDDA" H 5265 6673 50  0000 C CNN
F 2 "" H 5250 6500 50  0001 C CNN
F 3 "" H 5250 6500 50  0001 C CNN
	1    5250 6500
	1    0    0    -1  
$EndComp
$EndSCHEMATC
